OMP_NUM_THREADS	1
Read Time:           13.80223
Graph has 65608366 nodes and 3612134270 directed edges for degree: 55
Source:             13206677
    i                0.19732
   td          7     0.00002
   td        676     0.00004
   td     113163     0.00402
   td   11199278     0.62867
   td   40815808    28.06947
   td   11307472    31.75508
   td    1474351     4.34177
   td     430348     0.53145
   td     162750     0.14353
   td      63978     0.05266
   td      25275     0.02546
   td       9605     0.00874
   td       3516     0.00302
   td       1368     0.00112
   td        476     0.00045
   td        160     0.00015
   td         72     0.00005
   td         27     0.00002
   td         17     0.00001
   td         15     0.00001
   td          1     0.00000
   td          1     0.00000
   td          1     0.00000
   td          0     0.00000
Trial Time:          65.84011
Average Time:        65.84011
OMP_NUM_THREADS	2
Read Time:           13.23141
Graph has 65608366 nodes and 3612134270 directed edges for degree: 55
Source:             13206677
    i                0.10431
   td          7     0.00003
   td        676     0.00004
   td     113163     0.00228
   td   11199278     0.42341
   td   40815808    22.69784
   td   11307472    42.47016
   td    1474351     7.48658
   td     430348     0.94703
   td     162750     0.25240
   td      63978     0.09193
   td      25275     0.03161
   td       9605     0.01519
   td       3516     0.00515
   td       1368     0.00194
   td        476     0.00080
   td        160     0.00024
   td         72     0.00009
   td         27     0.00004
   td         17     0.00002
   td         15     0.00001
   td          1     0.00001
   td          1     0.00000
   td          1     0.00000
   td          0     0.00000
Trial Time:          74.58113
Average Time:        74.58113
OMP_NUM_THREADS	4
Read Time:           13.06005
Graph has 65608366 nodes and 3612134270 directed edges for degree: 55
Source:             13206677
    i                0.05501
   td          7     0.00003
   td        676     0.00007
   td     113163     0.00181
   td   11199278     0.21258
   td   40815808    11.65524
   td   11307472    30.90380
   td    1474351     8.48585
   td     430348     1.31437
   td     162750     0.31197
   td      63978     0.11419
   td      25275     0.04270
   td       9605     0.01942
   td       3516     0.00664
   td       1368     0.00242
   td        476     0.00114
   td        160     0.00029
   td         72     0.00012
   td         27     0.00006
   td         17     0.00003
   td         15     0.00002
   td          1     0.00001
   td          1     0.00000
   td          1     0.00000
   td          0     0.00000
Trial Time:          53.16479
Average Time:        53.16479
OMP_NUM_THREADS	8
Read Time:           13.00295
Graph has 65608366 nodes and 3612134270 directed edges for degree: 55
Source:             13206677
    i                0.02860
   td          7     0.00003
   td        676     0.00010
   td     113163     0.00094
   td   11199278     0.14703
   td   40815808    11.31398
   td   11307472    41.08837
   td    1474351    11.55021
   td     430348     1.74954
   td     162750     0.45693
   td      63978     0.17706
   td      25275     0.05856
   td       9605     0.02619
   td       3516     0.01022
   td       1368     0.00371
   td        476     0.00160
   td        160     0.00050
   td         72     0.00021
   td         27     0.00009
   td         17     0.00004
   td         15     0.00002
   td          1     0.00002
   td          1     0.00000
   td          1     0.00000
   td          0     0.00000
Trial Time:          66.64389
Average Time:        66.64389
OMP_NUM_THREADS	16
Read Time:           12.94139
Graph has 65608366 nodes and 3612134270 directed edges for degree: 55
Source:             13206677
    i                0.01601
   td          7     0.00004
   td        676     0.00010
   td     113163     0.00096
   td   11199278     0.13173
   td   40815808    16.81908
   td   11307472    65.71346
   td    1474351    17.45526
   td     430348     2.47645
   td     162750     0.74068
   td      63978     0.26397
   td      25275     0.08615
   td       9605     0.04858
   td       3516     0.01546
   td       1368     0.00564
   td        476     0.00243
   td        160     0.00078
   td         72     0.00029
   td         27     0.00017
   td         17     0.00008
   td         15     0.00005
   td          1     0.00006
   td          1     0.00001
   td          1     0.00000
   td          0     0.00001
Trial Time:          103.80425
Average Time:        103.80425
OMP_NUM_THREADS	24
Read Time:           12.94380
Graph has 65608366 nodes and 3612134270 directed edges for degree: 55
Source:             13206677
    i                0.01483
   td          7     0.00004
   td        676     0.00012
   td     113163     0.00115
   td   11199278     0.19334
   td   40815808    23.22943
   td   11307472    90.86445
   td    1474351    26.24488
   td     430348     2.94524
   td     162750     0.90524
   td      63978     0.33736
   td      25275     0.10721
   td       9605     0.06002
   td       3516     0.01976
   td       1368     0.00753
   td        476     0.00324
   td        160     0.00104
   td         72     0.00046
   td         27     0.00022
   td         17     0.00014
   td         15     0.00009
   td          1     0.00010
   td          1     0.00001
   td          1     0.00001
   td          0     0.00001
Trial Time:          144.96352
Average Time:        144.96352
OMP_NUM_THREADS	48
Read Time:           12.98644
Graph has 65608366 nodes and 3612134270 directed edges for degree: 55
Source:             13206677
    i                0.02071
   td          7     0.00005
   td        676     0.00024
   td     113163     0.00373
   td   11199278     0.52687
   td   40815808    62.36374
   td   11307472   189.79226
   td    1474351    57.85059
   td     430348     7.60089
   td     162750     2.21901
   td      63978     0.82277
   td      25275     0.26333
   td       9605     0.13022
   td       3516     0.04717
   td       1368     0.01700
   td        476     0.00714
   td        160     0.00264
   td         72     0.00120
   td         27     0.00083
   td         17     0.00072
   td         15     0.00054
   td          1     0.00035
   td          1     0.00002
   td          1     0.00002
   td          0     0.00002
Trial Time:          321.71496
Average Time:        321.71496
OMP_NUM_THREADS	96
Read Time:           13.51180
Graph has 65608366 nodes and 3612134270 directed edges for degree: 55
Source:             13206677
    i                0.02227
   td          7     0.00007
   td        676     0.00097
   td     113163     0.00890
   td   11199278     1.12291
   td   40815808   115.68347
   td   11307472   401.46948
   td    1474351   116.57255
   td     430348    14.87321
   td     162750     4.35636
   td      63978     1.61545
   td      25275     0.54615
   td       9605     0.27538
   td       3516     0.09941
   td       1368     0.03764
   td        476     0.01801
   td        160     0.00723
   td         72     0.00435
   td         27     0.00331
   td         17     0.00206
   td         15     0.00146
   td          1     0.00127
   td          1     0.00006
   td          1     0.00005
   td          0     0.00005
Trial Time:          656.77083
Average Time:        656.77083
OMP_NUM_THREADS	192
Read Time:           13.71377
Graph has 65608366 nodes and 3612134270 directed edges for degree: 55
Source:             13206677
    i                0.02554
   td          7     0.00013
   td        676     0.00246
   td     113163     0.01760
   td   11199278     1.52211
   td   40815808   163.23627
   td   11307472   495.25330
   td    1474351   143.91607
   td     430348    19.19051
   td     162750     5.61992
   td      63978     1.97558
   td      25275     0.66491
   td       9605     0.33440
   td       3516     0.12561
   td       1368     0.04973
   td        476     0.02427
   td        160     0.01253
   td         72     0.01015
   td         27     0.00536
   td         17     0.00449
   td         15     0.00259
   td          1     0.00257
   td          1     0.00008
   td          1     0.00010
   td          0     0.00009
Trial Time:          832.05073
Average Time:        832.05073
