OMP_NUM_THREADS	96
Read Time:           15.95413
Graph has 65608366 nodes and 3612134270 directed edges for degree: 55
Source:             13206677
    i                0.02387
   td          7     0.00007
   td        676     0.00006
   td     113163     0.00272
   td   11199278     0.04957
   td   40815808     1.36379
   td   11307472     0.87216
   td    1474351     0.08544
   td     430348     0.00909
   td     162750     0.00258
   td      63978     0.00120
   td      25275     0.00053
   td       9605     0.00022
   td       3516     0.00012
   td       1368     0.00011
   td        476     0.00008
   td        160     0.00008
   td         72     0.00004
   td         27     0.00002
   td         17     0.00001
   td         15     0.00001
   td          1     0.00001
   td          1     0.00001
   td          1     0.00001
   td          0     0.00001
Trial Time:          2.44778
Average Time:        2.44778
