OMP_NUM_THREADS	192
Read Time:           7.62597
Num threads : 192
Graph has 61578415 nodes and 1468364884 directed edges for degree: 23
Source:             12441072
    i                0.02601
   td          4     0.00008
   td         42     0.00019
   td       7681     0.00130
   td    9522739     0.29883
   td   19741889     2.55592
   td    5137920     2.02589
   td     546423     0.52543
   td      53310     0.04900
   td       5386     0.00605
   td        630     0.00099
   td         83     0.00025
   td         21     0.00053
   td          6     0.00009
   td          2     0.00011
   td          1     0.00011
   td          0     0.00013
Trial Time:          5.59189
Source:             54488257
    i                0.02639
   td         32     0.00002
   td      24227     0.00111
   td    6875028     0.10973
   td   21970215     1.44631
   td    5456171     2.34467
   td     624096     0.57806
   td      59373     0.06214
   td       6118     0.00573
   td        758     0.00088
   td         91     0.00025
   td         18     0.00019
   td          6     0.00020
   td          2     0.00009
   td          1     0.00001
   td          0     0.00001
Trial Time:          4.63705
Source:             25451915
    i                0.02620
   td          3     0.00002
   td        222     0.00007
   td      94800     0.00286
   td   15454589     0.16342
   td   15957912     2.11191
   td    3146577     1.45194
   td     324024     0.35929
   td      33935     0.03293
   td       3592     0.00320
   td        399     0.00052
   td         57     0.00020
   td         17     0.00017
   td          6     0.00010
   td          2     0.00008
   td          1     0.00001
   td          0     0.00001
Trial Time:          4.22005
Source:             57714473
    i                0.02614
   td         24     0.00002
   td      13034     0.00104
   td    3169849     0.08511
   td   23704084     1.27933
   td    7182010     2.64465
   td     855918     0.72447
   td      81493     0.08955
   td       8573     0.00861
   td        995     0.00093
   td        124     0.00023
   td         23     0.00048
   td          6     0.00016
   td          2     0.00006
   td          1     0.00001
   td          0     0.00001
Trial Time:          4.92655
Source:             14839494
    i                0.02634
   td          5     0.00001
   td    1885250     0.07253
   td   21194882     0.80740
   td   10398773     2.26158
   td    1384941     1.07306
   td     136816     0.14764
   td      13734     0.01226
   td       1509     0.00159
   td        181     0.00031
   td         32     0.00018
   td         10     0.00011
   td          2     0.00007
   td          1     0.00001
   td          0     0.00001
Trial Time:          4.46822
Source:             32081104
    i                0.02640
   td          5     0.00002
   td        163     0.00006
   td    2460062     0.07432
   td   21933100     1.01187
   td    9298798     2.32408
   td    1192922     0.88045
   td     117675     0.11455
   td      11885     0.01155
   td       1320     0.00227
   td        164     0.00028
   td         32     0.00017
   td          7     0.00012
   td          2     0.00011
   td          1     0.00001
   td          0     0.00001
Trial Time:          4.51256
Source:             52957357
    i                0.02627
   td          9     0.00002
   td        238     0.00007
   td     174513     0.00698
   td   17376288     0.22040
   td   14634721     1.89229
   td    2552152     1.45101
   td     248636     0.25824
   td      26477     0.02254
   td       2737     0.00294
   td        300     0.00047
   td         44     0.00022
   td         12     0.00010
   td          6     0.00016
   td          2     0.00007
   td          1     0.00001
   td          0     0.00001
Trial Time:          3.94774
Source:             50444380
    i                0.02640
   td         10     0.00002
   td        229     0.00010
   td      73125     0.00237
   td   14994164     0.18348
   td   16442817     2.01278
   td    3148592     1.44303
   td     320260     0.40603
   td      33080     0.03389
   td       3382     0.00329
   td        399     0.00070
   td         51     0.00034
   td         18     0.00011
   td          6     0.00009
   td          2     0.00008
   td          1     0.00008
   td          0     0.00005
Trial Time:          4.17894
Source:             49590701
    i                0.02823
   td         14     0.00002
   td        671     0.00010
   td     330236     0.00432
   td   18567836     0.28600
   td   13674065     2.13617
   td    2199218     1.48954
   td     217763     0.20322
   td      23589     0.03250
   td       2403     0.00284
   td        276     0.00043
   td         45     0.00021
   td         11     0.00014
   td          6     0.00012
   td          2     0.00007
   td          1     0.00001
   td          0     0.00001
Trial Time:          4.24990
Source:             20127816
    i                0.02626
   td          1     0.00002
   td          4     0.00002
   td        956     0.00014
   td    1084191     0.07478
   td   22540508     1.08237
   td    9938071     2.75219
   td    1311638     1.03497
   td     126643     0.14171
   td      12484     0.01282
   td       1432     0.00211
   td        174     0.00048
   td         18     0.00034
   td          8     0.00009
   td          6     0.00007
   td          2     0.00007
   td          1     0.00001
   td          0     0.00001
Trial Time:          5.19707
Source:             34939333
    i                0.02636
   td         11     0.00002
   td        565     0.00009
   td     438835     0.01107
   td   19675272     0.77653
   td   12804357     2.61469
   td    1891628     1.50603
   td     184938     0.18971
   td      18225     0.02140
   td       2025     0.00224
   td        230     0.00042
   td         32     0.00021
   td          9     0.00011
   td          6     0.00009
   td          2     0.00007
   td          1     0.00001
   td          0     0.00001
Trial Time:          5.21693
Source:             48251001
    i                0.02637
   td         25     0.00002
   td      44531     0.00369
   td   12765088     0.14226
   td   18001038     2.17473
   td    3769655     1.75293
   td     391966     0.40200
   td      39222     0.04693
   td       4081     0.00430
   td        443     0.00053
   td         58     0.00024
   td         20     0.00024
   td          6     0.00011
   td          2     0.00008
   td          1     0.00001
   td          0     0.00001
Trial Time:          4.62232
Source:             19524253
    i                0.02636
   td          1     0.00002
   td          6     0.00001
   td       4979     0.00043
   td    5414834     0.13503
   td   21497224     2.01533
   td    7204838     2.31911
   td     807633     0.73428
   td      77844     0.08981
   td       7767     0.00781
   td        861     0.00085
   td        116     0.00026
   td         24     0.00016
   td          6     0.00024
   td          2     0.00007
   td          1     0.00001
   td          0     0.00001
Trial Time:          5.39465
Source:             43676726
    i                0.02644
   td         11     0.00002
   td        892     0.00010
   td     457720     0.00377
   td   19590527     0.34089
   td   12821813     2.17676
   td    1928131     1.46049
   td     195208     0.18256
   td      19401     0.02237
   td       2128     0.00215
   td        248     0.00034
   td         38     0.00018
   td         10     0.00010
   td          6     0.00008
   td          2     0.00011
   td          1     0.00001
   td          0     0.00002
Trial Time:          4.30884
Source:             33055508
    i                0.02655
   td          1     0.00002
   td         49     0.00001
   td      12966     0.00050
   td    8551512     0.09634
   td   20862858     1.44338
   td    4991322     2.15448
   td     537994     0.49786
   td      53184     0.04717
   td       5507     0.00573
   td        628     0.00078
   td         85     0.00024
   td         21     0.00013
   td          6     0.00009
   td          2     0.00019
   td          1     0.00001
   td          0     0.00001
Trial Time:          4.33774
Source:             15244687
    i                0.02670
   td          4     0.00002
   td         83     0.00005
   td      34894     0.00139
   td   12545225     0.11683
   td   18120307     2.11831
   td    3863687     1.67633
   td     406678     0.36090
   td      40567     0.04484
   td       4130     0.00427
   td        472     0.00053
   td         64     0.00024
   td         17     0.00012
   td          6     0.00007
   td          2     0.00007
   td          1     0.00001
   td          0     0.00001
Trial Time:          4.41669
Source:             24946738
    i                0.02660
   td         18     0.00002
   td    2675376     0.08039
   td   17636790     0.79966
   td   12501296     1.76873
   td    1968091     1.43583
   td     210631     0.18013
   td      21275     0.02250
   td       2299     0.00241
   td        296     0.00037
   td         42     0.00028
   td         13     0.00011
   td          6     0.00008
   td          2     0.00008
   td          1     0.00001
   td          0     0.00001
Trial Time:          4.38595
Source:              6479472
    i                0.02654
   td         21     0.00002
   td    1499682     0.04356
   td   16901228     0.57657
   td   14095232     1.89026
   td    2260130     1.45164
   td     234541     0.21026
   td      22492     0.02248
   td       2434     0.00260
   td        314     0.00044
   td         37     0.00018
   td         16     0.00012
   td          6     0.00011
   td          2     0.00011
   td          1     0.00004
   td          0     0.00006
Trial Time:          4.29356
Source:             26077682
    i                0.02803
   td         16     0.00002
   td       2017     0.00018
   td    4779931     0.08172
   td   22490240     1.44884
   td    6855907     2.42044
   td     800220     0.72283
   td      78774     0.09030
   td       8033     0.00816
   td        852     0.00095
   td        113     0.00022
   td         24     0.00019
   td          6     0.00011
   td          2     0.00007
   td          1     0.00001
   td          0     0.00001
Trial Time:          4.87265
Source:             22023875
    i                0.02649
   td          2     0.00002
   td         10     0.00001
   td        431     0.00006
   td      83659     0.00177
   td   15402819     0.15271
   td   16172745     2.04073
   td    3020421     1.44410
   td     301187     0.33878
   td      31286     0.02952
   td       3161     0.00306
   td        354     0.00051
   td         38     0.00022
   td         14     0.00015
   td          6     0.00010
   td          2     0.00010
   td          1     0.00001
   td          0     0.00001
Trial Time:          4.10579
Source:             22081915
    i                0.02648
   td          6     0.00001
   td       2053     0.00019
   td    6965382     0.08679
   td   20813249     1.47080
   td    6438054     2.15293
   td     718673     0.72180
   td      70506     0.07825
   td       7255     0.00661
   td        825     0.00089
   td        100     0.00024
   td         24     0.00015
   td          6     0.00019
   td          2     0.00008
   td          1     0.00001
   td          0     0.00001
Trial Time:          4.61130
Source:             40034162
    i                0.02669
   td          5     0.00002
   td        293     0.00007
   td     212929     0.00399
   td   17494230     0.34409
   td   14502484     1.93737
   td    2528103     1.45777
   td     248360     0.25438
   td      26568     0.02280
   td       2787     0.00322
   td        312     0.00052
   td         46     0.00020
   td         11     0.00012
   td          6     0.00010
   td          2     0.00007
   td          1     0.00001
   td          0     0.00001
Trial Time:          4.11849
Source:             49496014
    i                0.02674
   td          4     0.00002
   td         81     0.00005
   td      63713     0.00220
   td   14072556     0.13123
   td   16999709     1.89647
   td    3480299     1.48231
   td     359473     0.36020
   td      36090     0.03905
   td       3714     0.00355
   td        422     0.00051
   td         49     0.00020
   td         18     0.00014
   td          6     0.00009
   td          2     0.00009
   td          1     0.00007
   td          0     0.00007
Trial Time:          4.01088
Source:             42847507
    i                0.02658
   td         19     0.00002
   td       3488     0.00026
   td    5205656     0.09751
   td   22413250     1.57393
   td    6571050     2.41889
   td     740655     0.73329
   td      73626     0.08213
   td       7425     0.00712
   td        831     0.00089
   td        105     0.00023
   td         22     0.00015
   td          6     0.00011
   td          2     0.00008
   td          1     0.00001
   td          0     0.00001
Trial Time:          5.00752
Source:             52409557
    i                0.02651
   td          1     0.00002
   td         22     0.00002
   td       5362     0.00037
   td    7188457     0.09592
   td   21074260     1.50625
   td    5998699     2.19690
   td     672976     0.67103
   td      68462     0.07052
   td       6984     0.00624
   td        784     0.00085
   td         99     0.00028
   td         21     0.00013
   td          6     0.00009
   td          2     0.00007
   td          1     0.00001
   td          0     0.00001
Trial Time:          4.64314
Source:             55445388
    i                0.02655
   td         14     0.00002
   td       2813     0.00021
   td    3623332     0.08365
   td   22016619     1.15970
   td    8231730     2.35743
   td    1025860     0.73236
   td     103747     0.08985
   td      10617     0.01130
   td       1203     0.00130
   td        161     0.00028
   td         23     0.00018
   td          8     0.00013
   td          6     0.00010
   td          2     0.00013
   td          1     0.00009
   td          0     0.00008
Trial Time:          4.55482
Source:             22028097
    i                0.02678
   td          1     0.00002
   td         29     0.00002
   td        664     0.00011
   td    3499250     0.06915
   td   20667963     1.23252
   td    9506610     2.18009
   td    1205577     0.92665
   td     122366     0.11852
   td      12112     0.01126
   td       1353     0.00155
   td        169     0.00033
   td         25     0.00017
   td          8     0.00018
   td          6     0.00008
   td          2     0.00009
   td          1     0.00001
   td          0     0.00001
Trial Time:          4.63503
Source:             48766648
    i                0.02654
   td         13     0.00002
   td        399     0.00008
   td    1336688     0.06092
   td   18337981     0.55880
   td   13108399     2.01967
   td    2006980     1.45917
   td     203051     0.18041
   td      20089     0.02261
   td       2201     0.00218
   td        274     0.00041
   td         42     0.00020
   td         10     0.00012
   td          6     0.00012
   td          2     0.00008
   td          1     0.00001
   td          0     0.00001
Trial Time:          4.39966
Source:             44521241
    i                0.02670
   td          7     0.00002
   td        208     0.00005
   td      75429     0.00410
   td   15013735     0.15329
   td   16401151     1.79726
   td    3170405     1.44370
   td     318366     0.35905
   td      32959     0.03206
   td       3412     0.00295
   td        387     0.00050
   td         57     0.00019
   td         12     0.00012
   td          6     0.00007
   td          2     0.00007
   td          1     0.00001
   td          0     0.00001
Trial Time:          3.88833
Source:             60135542
    i                0.02678
   td          1     0.00001
   td        153     0.00003
   td      71490     0.00207
   td   15089127     0.13407
   td   16269327     1.98284
   td    3225033     1.44550
   td     323673     0.35950
   td      33321     0.03292
   td       3533     0.00305
   td        390     0.00052
   td         67     0.00026
   td         12     0.00013
   td          6     0.00009
   td          2     0.00009
   td          1     0.00001
   td          0     0.00001
Trial Time:          4.05169
Source:             28528671
    i                0.02658
   td         10     0.00002
   td        524     0.00010
   td     166896     0.00470
   td   18054074     0.22320
   td   14162134     2.01406
   td    2371048     1.44435
   td     233550     0.22719
   td      24977     0.02241
   td       2561     0.00293
   td        301     0.00042
   td         41     0.00029
   td         11     0.00030
   td          6     0.00009
   td          2     0.00012
   td          1     0.00010
   td          0     0.00009
Trial Time:          4.03447
Source:              9678012
    i                0.02674
   td        615     0.00009
   td    6517050     0.09696
   td   21404032     1.62664
   td    6288298     2.24117
   td     725640     0.71895
   td      72296     0.07927
   td       7275     0.00687
   td        795     0.00089
   td        103     0.00023
   td         23     0.00019
   td          6     0.00011
   td          2     0.00013
   td          1     0.00006
   td          0     0.00004
Trial Time:          4.86740
Source:             40020306
    i                0.02673
   td          6     0.00002
   td        396     0.00008
   td     286589     0.00279
   td   18025546     0.22800
   td   14071325     1.90027
   td    2372933     1.44701
   td     231618     0.22770
   td      24753     0.02379
   td       2619     0.00293
   td        294     0.00045
   td         40     0.00023
   td          9     0.00011
   td          6     0.00008
   td          2     0.00009
   td          1     0.00002
   td          0     0.00002
Trial Time:          3.92746
Source:             31625735
    i                0.02670
   td          5     0.00002
   td         97     0.00006
   td      22116     0.00066
   td    8289387     0.10780
   td   21295088     1.48362
   td    4820381     2.21959
   td     528206     0.46990
   td      54765     0.04569
   td       5364     0.00571
   td        617     0.00072
   td         81     0.00024
   td         20     0.00012
   td          6     0.00010
   td          2     0.00011
   td          1     0.00007
   td          0     0.00001
Trial Time:          4.43636
Source:             37446892
    i                0.02659
   td          7     0.00002
   td        143     0.00005
   td      43206     0.00235
   td   13883122     0.12664
   td   17145407     1.68665
   td    3530020     1.51164
   td     371968     0.36270
   td      37923     0.04155
   td       3831     0.00382
   td        425     0.00053
   td         63     0.00025
   td         12     0.00016
   td          6     0.00010
   td          2     0.00006
   td          1     0.00001
   td          0     0.00002
Trial Time:          3.83251
Source:             51788952
    i                0.02669
   td          6     0.00002
   td        694     0.00008
   td     311377     0.00213
   td   17891141     0.30459
   td   14189148     1.80182
   td    2361726     1.45013
   td     236105     0.22589
   td      23044     0.02359
   td       2540     0.00267
   td        289     0.00039
   td         47     0.00020
   td         10     0.00015
   td          6     0.00008
   td          2     0.00009
   td          1     0.00002
   td          0     0.00002
Trial Time:          3.90888
Source:             52584255
    i                0.02668
   td         23     0.00002
   td       5646     0.00021
   td    1466839     0.02377
   td   21455401     0.81238
   td   10499070     2.25637
   td    1432938     1.10380
   td     139989     0.15630
   td      14447     0.01302
   td       1555     0.00157
   td        189     0.00030
   td         22     0.00019
   td          8     0.00016
   td          6     0.00008
   td          2     0.00008
   td          1     0.00004
   td          0     0.00007
Trial Time:          4.46503
Source:             20346696
    i                0.02666
   td         20     0.00002
   td     125619     0.00584
   td   14605377     0.16825
   td   16723573     1.92309
   td    3203882     1.46084
   td     320707     0.36090
   td      33045     0.03249
   td       3454     0.00299
   td        379     0.00050
   td         59     0.00025
   td         12     0.00027
   td          6     0.00013
   td          2     0.00007
   td          1     0.00001
   td          0     0.00001
Trial Time:          4.05189
Source:             48387909
    i                0.02662
   td          7     0.00002
   td        226     0.00010
   td      65402     0.00111
   td   11606334     0.11082
   td   19101779     1.83516
   td    3811359     1.85331
   td     386752     0.36978
   td      39597     0.04640
   td       4129     0.00444
   td        453     0.00056
   td         69     0.00032
   td         21     0.00013
   td          6     0.00009
   td          2     0.00013
   td          1     0.00001
   td          0     0.00001
Trial Time:          4.32101
Source:             37337427
    i                0.02665
   td         21     0.00002
   td        226     0.00008
   td      68567     0.00142
   td   14933173     0.16752
   td   16457838     1.85031
   td    3184357     1.45775
   td     333989     0.36236
   td      33946     0.03624
   td       3524     0.00333
   td        406     0.00058
   td         68     0.00020
   td         12     0.00012
   td          6     0.00010
   td          2     0.00007
   td          1     0.00001
   td          0     0.00001
Trial Time:          3.97503
Source:             50501084
    i                0.02655
   td          9     0.00002
   td        695     0.00008
   td     344052     0.00561
   td   18915562     0.31525
   td   13336307     2.12888
   td    2181007     1.45424
   td     212874     0.19637
   td      22931     0.02250
   td       2370     0.00265
   td        278     0.00040
   td         33     0.00018
   td          9     0.00011
   td          6     0.00011
   td          2     0.00008
   td          1     0.00001
   td          0     0.00001
Trial Time:          4.21967
Source:             30130061
    i                0.02671
   td         15     0.00002
   td        242     0.00007
   td      28123     0.00072
   td   11752237     0.10837
   td   18592119     1.82734
   td    4155322     1.90005
   td     438456     0.36176
   td      44367     0.04476
   td       4657     0.00498
   td        501     0.00063
   td         71     0.00022
   td         17     0.00043
   td          6     0.00007
   td          2     0.00007
   td          1     0.00001
   td          0     0.00001
Trial Time:          4.36011
Source:             41185893
    i                0.02665
   td          4     0.00002
   td         59     0.00005
   td      11465     0.00052
   td    3404028     0.03494
   td   23232621     1.25648
   td    7397190     2.54357
   td     873579     0.72352
   td      87294     0.09066
   td       8769     0.00940
   td        965     0.00098
   td        129     0.00026
   td         17     0.00021
   td          8     0.00008
   td          6     0.00009
   td          2     0.00014
   td          1     0.00001
   td          0     0.00001
Trial Time:          4.75702
Source:             56495703
    i                0.02685
   td         24     0.00002
   td      12478     0.00065
   td    7806075     0.09910
   td   21549878     1.63371
   td    5060637     2.26555
   td     526739     0.50969
   td      54307     0.04540
   td       5291     0.00586
   td        597     0.00074
   td         87     0.00024
   td         14     0.00034
   td          6     0.00010
   td          2     0.00010
   td          1     0.00001
   td          0     0.00001
Trial Time:          4.65684
Source:             45663305
    i                0.02671
   td          7     0.00002
   td        226     0.00013
   td      74693     0.00106
   td   14439565     0.12831
   td   16751031     1.86641
   td    3361805     1.46848
   td     349329     0.36590
   td      35377     0.03739
   td       3569     0.00340
   td        451     0.00047
   td         55     0.00021
   td         19     0.00018
   td          6     0.00010
   td          2     0.00009
   td          1     0.00001
   td          0     0.00001
Trial Time:          3.96902
Source:             33359460
    i                0.02677
   td          9     0.00002
   td        131     0.00006
   td      38881     0.00110
   td    7113518     0.10124
   td   22504488     1.76446
   td    4775604     2.42178
   td     526220     0.46089
   td      51317     0.04515
   td       5258     0.00577
   td        598     0.00070
   td         86     0.00023
   td         17     0.00016
   td          6     0.00011
   td          2     0.00008
   td          1     0.00001
   td          0     0.00001
Trial Time:          4.89799
Source:             48143058
    i                0.02666
   td          7     0.00002
   td        183     0.00006
   td      49405     0.00211
   td   11575681     0.14397
   td   19091366     1.80844
   td    3855373     1.83957
   td     398574     0.36097
   td      40648     0.04484
   td       4287     0.00431
   td        524     0.00054
   td         60     0.00022
   td         19     0.00037
   td          6     0.00008
   td          2     0.00006
   td          1     0.00001
   td          0     0.00001
Trial Time:          4.30056
Source:             33291513
    i                0.02669
   td         10     0.00002
   td    1105619     0.05100
   td   13005665     0.49418
   td   17303919     1.84901
   td    3227927     1.53166
   td     335423     0.35911
   td      33523     0.03526
   td       3545     0.00323
   td        415     0.00069
   td         61     0.00021
   td         20     0.00011
   td          6     0.00009
   td          2     0.00009
   td          1     0.00001
   td          0     0.00001
Trial Time:          4.41950
Source:             53461445
    i                0.02659
   td          1     0.00002
   td         37     0.00002
   td      39721     0.00283
   td   12914214     0.10968
   td   17892738     1.84509
   td    3752410     1.64226
   td     374876     0.36000
   td      37852     0.04156
   td       3778     0.00387
   td        422     0.00050
   td         61     0.00020
   td         17     0.00012
   td          6     0.00008
   td          2     0.00007
   td          1     0.00001
   td          0     0.00002
Trial Time:          4.10225
Source:             29340610
    i                0.02674
   td          6     0.00002
   td        914     0.00015
   td    7349385     0.09810
   td   20432719     1.49202
   td    6417305     2.06495
   td     733027     0.72015
   td      74174     0.08064
   td       7600     0.00843
   td        861     0.00089
   td        114     0.00023
   td         22     0.00016
   td          6     0.00009
   td          2     0.00009
   td          1     0.00001
   td          0     0.00002
Trial Time:          4.56025
Source:             34148498
    i                0.02680
   td          2     0.00001
   td       1661     0.00019
   td    4725179     0.08546
   td   21968788     1.37155
   td    7348737     2.33734
   td     874393     0.72296
   td      87382     0.08966
   td       8844     0.01066
   td        981     0.00098
   td        134     0.00035
   td         26     0.00023
   td          6     0.00012
   td          2     0.00007
   td          1     0.00001
   td          0     0.00001
Trial Time:          4.71583
Source:             49171806
    i                0.02670
   td          1     0.00001
   td        108     0.00002
   td      99536     0.00681
   td   14967277     0.14846
   td   16540904     1.89478
   td    3071796     1.44674
   td     301473     0.35866
   td      31344     0.02898
   td       3255     0.00308
   td        365     0.00052
   td         57     0.00020
   td         11     0.00013
   td          6     0.00009
   td          2     0.00009
   td          1     0.00001
   td          0     0.00001
Trial Time:          3.98691
Source:             35550696
    i                0.02666
   td          5     0.00002
   td         74     0.00005
   td      10785     0.00033
   td    4829971     0.06575
   td   22559288     1.50784
   td    6752639     2.44870
   td     775147     0.72069
   td      79305     0.09287
   td       7872     0.00826
   td        888     0.00086
   td        127     0.00026
   td         18     0.00014
   td          8     0.00012
   td          6     0.00006
   td          2     0.00008
   td          1     0.00002
   td          0     0.00001
Trial Time:          4.93982
Source:             14521507
    i                0.02757
   td         41     0.00002
   td      16137     0.00154
   td    7865772     0.09004
   td   21026701     1.47454
   td    5449987     2.17704
   td     590523     0.58780
   td      60231     0.05686
   td       5942     0.00574
   td        679     0.00089
   td         92     0.00023
   td         22     0.00023
   td          6     0.00013
   td          2     0.00008
   td          1     0.00001
   td          0     0.00001
Trial Time:          4.48917
Source:             51633218
    i                0.02659
   td          4     0.00002
   td        210     0.00007
   td     116240     0.00215
   td   15588581     0.22221
   td   16001128     2.07934
   td    2975530     1.44887
   td     299649     0.33193
   td      31131     0.02909
   td       3222     0.00309
   td        364     0.00051
   td         56     0.00024
   td         12     0.00012
   td          6     0.00010
   td          2     0.00010
   td          1     0.00007
   td          0     0.00008
Trial Time:          4.21516
Source:             46823382
    i                0.02674
   td          9     0.00002
   td      14208     0.00109
   td    8744621     0.10258
   td   20527832     1.58676
   td    5103887     2.09803
   td     560438     0.52851
   td      58425     0.05119
   td       5920     0.00574
   td        677     0.00081
   td         90     0.00024
   td         20     0.00027
   td          6     0.00009
   td          2     0.00007
   td          1     0.00001
   td          0     0.00001
Trial Time:          4.47014
Source:             19396273
    i                0.02669
   td         95     0.00003
   td      54797     0.00204
   td   13691171     0.19220
   td   17235490     2.04260
   td    3620766     1.52739
   td     371402     0.36055
   td      37929     0.04117
   td       3956     0.00383
   td        434     0.00052
   td         67     0.00023
   td         20     0.00021
   td          6     0.00009
   td          2     0.00009
   td          1     0.00002
   td          0     0.00001
Trial Time:          4.26431
Source:             19871750
    i                0.02669
   td          8     0.00002
   td        303     0.00010
   td    4253466     0.07664
   td   21695556     1.16615
   td    7970154     2.28803
   td     986885     0.72696
   td      98516     0.09021
   td       9987     0.01137
   td       1081     0.00119
   td        139     0.00027
   td         31     0.00016
   td          7     0.00009
   td          2     0.00010
   td          1     0.00004
   td          0     0.00004
Trial Time:          4.45848
Source:             36862677
    i                0.02677
   td          6     0.00002
   td        167     0.00007
   td      25231     0.00125
   td    9816136     0.09911
   td   20160094     1.76681
   td    4486640     2.04825
   td     475460     0.41240
   td      47117     0.04547
   td       4674     0.00542
   td        504     0.00063
   td         77     0.00024
   td         21     0.00013
   td          6     0.00009
   td          2     0.00008
   td          1     0.00001
   td          0     0.00001
Trial Time:          4.47600
Source:             49539126
    i                0.02673
   td          1     0.00002
   td         10     0.00001
   td        328     0.00006
   td      88420     0.00156
   td   14388051     0.14661
   td   16865467     1.85344
   td    3292002     1.47476
   td     342337     0.35991
   td      35400     0.03623
   td       3633     0.00347
   td        402     0.00049
   td         64     0.00026
   td         12     0.00024
   td          6     0.00012
   td          2     0.00010
   td          1     0.00001
   td          0     0.00002
Trial Time:          3.97359
Source:             34016452
    i                0.02664
   td         11     0.00002
   td        243     0.00007
   td    2168254     0.07002
   td   22494734     0.79750
   td    9076618     2.44698
   td    1150256     0.84210
   td     112975     0.10754
   td      11575     0.01139
   td       1280     0.00144
   td        152     0.00038
   td         28     0.00018
   td          7     0.00034
   td          2     0.00006
   td          1     0.00001
   td          0     0.00001
Trial Time:          4.37474
Source:             36567395
    i                0.02681
   td          9     0.00002
   td       2022     0.00028
   td    3435257     0.07927
   td   22396286     1.23092
   td    8106154     2.41142
   td     967313     0.72678
   td      97865     0.08969
   td       9974     0.01125
   td       1078     0.00115
   td        142     0.00027
   td         27     0.00014
   td          6     0.00010
   td          2     0.00008
   td          1     0.00001
   td          0     0.00001
Trial Time:          4.64772
Source:             55487793
    i                0.02670
   td         22     0.00002
   td       2296     0.00016
   td     698920     0.00427
   td   20550379     0.46981
   td   11893753     2.11047
   td    1685175     1.33359
   td     166893     0.17985
   td      16552     0.01746
   td       1887     0.00162
   td        211     0.00034
   td         30     0.00020
   td          9     0.00014
   td          6     0.00009
   td          2     0.00009
   td          1     0.00001
   td          0     0.00001
Trial Time:          4.21296
Source:             14391370
    i                0.02668
   td          2     0.00002
   td         49     0.00002
   td    1354779     0.05543
   td   17692483     0.57616
   td   13722819     1.99008
   td    2016669     1.54022
   td     207480     0.18795
   td      19389     0.02342
   td       2157     0.00223
   td        250     0.00039
   td         37     0.00020
   td         13     0.00022
   td          6     0.00008
   td          2     0.00007
   td          1     0.00001
   td          0     0.00001
Trial Time:          4.48497
Average Time:        4.43092
