OMP_NUM_THREADS	1
Read Time:           8.50797
Graph has 61578415 nodes and 1468364884 directed edges for degree: 23
Source:             12441072
    i                0.23704
   td          4     0.00004
   td         42     0.00002
   td       7681     0.00042
   td    9522739     0.47098
    e                0.06968
   bu   19741889     0.96603
   bu    5137920     0.50002
   bu     546423     0.28782
    c                0.04848
   td      53310     0.83685
   td       5386     0.05789
   td        630     0.00521
   td         83     0.00057
   td         21     0.00004
   td          6     0.00001
   td          2     0.00001
   td          1     0.00001
   td          0     0.00000
Trial Time:          3.59938
Source:             54488257
    i                0.23196
   td         32     0.00001
   td      24227     0.00090
   td    6875028     0.46897
    e                0.05284
   bu   21970215     0.97783
   bu    5456171     0.51117
   bu     624096     0.28035
    c                0.05075
   td      59373     0.61061
   td       6118     0.05488
   td        758     0.00634
   td         91     0.00082
   td         18     0.00017
   td          6     0.00002
   td          2     0.00000
   td          1     0.00000
   td          0     0.00000
Trial Time:          3.35911
Source:             25451915
    i                0.23164
   td          3     0.00001
   td        222     0.00001
   td      94800     0.00390
    e                0.00085
   bu   15454589     1.34725
   bu   15957912     0.86038
   bu    3146577     0.41961
    c                0.08061
   td     324024     2.20427
   td      33935     0.08000
   td       3592     0.00714
   td        399     0.00078
   td         57     0.00008
   td         17     0.00001
   td          6     0.00001
   td          2     0.00000
   td          1     0.00000
   td          0     0.00000
Trial Time:          5.34775
Source:             57714473
    i                0.25888
   td         24     0.00001
   td      13034     0.00056
   td    3169849     0.26989
    e                0.02664
   bu   23704084     1.05402
   bu    7182010     0.56669
   bu     855918     0.30142
    c                0.05225
   td      81493     0.10713
   td       8573     0.01773
   td        995     0.00166
   td        124     0.00018
   td         23     0.00002
   td          6     0.00001
   td          2     0.00000
   td          1     0.00000
   td          0     0.00000
Trial Time:          2.78985
Source:             14839494
    i                0.23173
   td          5     0.00001
   td    1885250     0.02900
    e                0.01436
   bu   21194882     1.09896
   bu   10398773     0.67499
   bu    1384941     0.33558
    c                0.05871
   td     136816     0.18644
   td      13734     0.02688
   td       1509     0.00248
   td        181     0.00026
   td         32     0.00003
   td         10     0.00001
   td          2     0.00000
   td          1     0.00000
   td          0     0.00000
Trial Time:          2.77093
Source:             32081104
    i                0.23155
   td          5     0.00001
   td        163     0.00001
   td    2460062     0.04678
    e                0.01895
   bu   21933100     1.09917
   bu    9298798     0.62997
   bu    1192922     0.33946
    c                0.05633
   td     117675     0.14116
   td      11885     0.02385
   td       1320     0.00220
   td        164     0.00024
   td         32     0.00003
   td          7     0.00001
   td          2     0.00000
   td          1     0.00000
   td          0     0.00000
Trial Time:          2.70116
Source:             52957357
    i                0.23057
   td          9     0.00001
   td        238     0.00001
   td     174513     0.00676
    e                0.00151
   bu   17376288     1.27357
   bu   14634721     0.79007
   bu    2552152     0.39363
    c                0.07344
   td     248636     0.32918
   td      26477     0.04673
   td       2737     0.00449
   td        300     0.00046
   td         44     0.00005
   td         12     0.00001
   td          6     0.00001
   td          2     0.00000
   td          1     0.00000
   td          0     0.00000
Trial Time:          3.26151
Source:             50444380
    i                0.23017
   td         10     0.00001
   td        229     0.00002
   td      73125     0.00290
    e                0.00067
   bu   14994164     1.38016
   bu   16442817     0.83952
   bu    3148592     0.41931
    c                0.08063
   td     320260     0.38531
   td      33080     0.05889
   td       3382     0.00552
   td        399     0.00056
   td         51     0.00007
   td         18     0.00001
   td          6     0.00001
   td          2     0.00001
   td          1     0.00000
   td          0     0.00000
Trial Time:          3.51520
Source:             49590701
    i                0.23169
   td         14     0.00001
   td        671     0.00004
   td     330236     0.01751
    e                0.00384
   bu   18567836     1.19618
   bu   13674065     0.77509
   bu    2199218     0.37926
    c                0.06891
   td     217763     0.24463
   td      23589     0.04172
   td       2403     0.00409
   td        276     0.00041
   td         45     0.00005
   td         11     0.00001
   td          6     0.00001
   td          2     0.00000
   td          1     0.00000
   td          0     0.00000
Trial Time:          3.07433
Source:             20127816
    i                0.23174
   td          1     0.00001
   td          4     0.00000
   td        956     0.00006
   td    1084191     0.13383
    e                0.01022
   bu   22540508     1.11000
   bu    9938071     0.64592
   bu    1311638     0.32984
    c                0.05784
   td     126643     0.16894
   td      12484     0.02428
   td       1432     0.00224
   td        174     0.00026
   td         18     0.00003
   td          8     0.00000
   td          6     0.00001
   td          2     0.00000
   td          1     0.00000
   td          0     0.00000
Trial Time:          2.82630
Source:             34939333
    i                0.23157
   td         11     0.00001
   td        565     0.00003
   td     438835     0.02577
    e                0.00479
   bu   19675272     1.18676
   bu   12804357     0.72444
   bu    1891628     0.36214
    c                0.06501
   td     184938     0.21022
   td      18225     0.03540
   td       2025     0.00322
   td        230     0.00036
   td         32     0.00004
   td          9     0.00001
   td          6     0.00001
   td          2     0.00000
   td          1     0.00000
   td          0     0.00000
Trial Time:          2.96066
Source:             48251001
    i                0.23181
   td         25     0.00001
   td      44531     0.00174
    e                0.00041
   bu   12765088     1.47595
   bu   18001038     0.91161
   bu    3769655     0.44797
   bu     391966     0.25621
    c                0.04658
   td      39222     0.05867
   td       4081     0.00804
   td        443     0.00081
   td         58     0.00009
   td         20     0.00001
   td          6     0.00001
   td          2     0.00000
   td          1     0.00000
   td          0     0.00000
Trial Time:          3.55070
Source:             19524253
    i                0.23057
   td          1     0.00001
   td          6     0.00000
   td       4979     0.00022
   td    5414834     0.46974
    e                0.04020
   bu   21497224     1.01933
   bu    7204838     0.55959
   bu     807633     0.29636
    c                0.05162
   td      77844     0.10426
   td       7767     0.01556
   td        861     0.00144
   td        116     0.00016
   td         24     0.00002
   td          6     0.00001
   td          2     0.00000
   td          1     0.00000
   td          0     0.00000
Trial Time:          2.90103
Source:             43676726
    i                0.25084
   td         11     0.00001
   td        892     0.00005
   td     457720     0.02408
    e                0.00498
   bu   19590527     1.16110
   bu   12821813     0.74206
   bu    1928131     0.36453
    c                0.06553
   td     195208     0.22065
   td      19401     0.03774
   td       2128     0.00342
   td        248     0.00037
   td         38     0.00004
   td         10     0.00001
   td          6     0.00001
   td          2     0.00000
   td          1     0.00000
   td          0     0.00000
Trial Time:          2.98648
Source:             33055508
    i                0.23157
   td          1     0.00001
   td         49     0.00000
   td      12966     0.00053
   td    8551512     0.75328
    e                0.06362
   bu   20862858     0.94191
   bu    4991322     0.52165
   bu     537994     0.27285
    c                0.04833
   td      53184     0.07543
   td       5507     0.01087
   td        628     0.00106
   td         85     0.00012
   td         21     0.00002
   td          6     0.00001
   td          2     0.00000
   td          1     0.00000
   td          0     0.00000
Trial Time:          3.03359
Source:             15244687
    i                0.23086
   td          4     0.00001
   td         83     0.00001
   td      34894     0.00135
    e                0.00033
   bu   12545225     1.50128
   bu   18120307     0.88997
   bu    3863687     0.45069
   bu     406678     0.27634
    c                0.04674
   td      40567     0.06037
   td       4130     0.00837
   td        472     0.00080
   td         64     0.00009
   td         17     0.00001
   td          6     0.00001
   td          2     0.00000
   td          1     0.00000
   td          0     0.00000
Trial Time:          3.57807
Average Time:        3.26600
OMP_NUM_THREADS	2
Read Time:           8.99891
Graph has 61578415 nodes and 1468364884 directed edges for degree: 23
Source:             12441072
    i                0.12295
   td          4     0.00002
   td         42     0.00002
   td       7681     0.00023
   td    9522739     0.31075
    e                0.04266
   bu   19741889     0.51296
   bu    5137920     0.26538
   bu     546423     0.18360
    c                0.02564
   td      53310     0.74691
   td       5386     0.04584
   td        630     0.00424
   td         83     0.00049
   td         21     0.00004
   td          6     0.00001
   td          2     0.00001
   td          1     0.00001
   td          0     0.00000
Trial Time:          2.33283
Source:             54488257
    i                0.12262
   td         32     0.00001
   td      24227     0.00088
   td    6875028     0.30932
    e                0.03254
   bu   21970215     0.64586
   bu    5456171     0.30583
   bu     624096     0.16161
    c                0.02594
   td      59373     0.20681
   td       6118     0.00652
   td        758     0.00066
   td         91     0.00009
   td         18     0.00001
   td          6     0.00001
   td          2     0.00000
   td          1     0.00000
   td          0     0.00000
Trial Time:          1.88896
Source:             25451915
    i                0.12357
   td          3     0.00001
   td        222     0.00002
   td      94800     0.00238
    e                0.00080
   bu   15454589     0.78344
   bu   15957912     0.51647
   bu    3146577     0.23743
    c                0.04614
   td     324024     0.58169
   td      33935     0.03535
   td       3592     0.00337
   td        399     0.00035
   td         57     0.00004
   td         17     0.00001
   td          6     0.00001
   td          2     0.00000
   td          1     0.00000
   td          0     0.00000
Trial Time:          2.40490
Source:             57714473
    i                0.12349
   td         24     0.00001
   td      13034     0.00053
   td    3169849     0.11932
    e                0.01644
   bu   23704084     0.74309
   bu    7182010     0.29057
   bu     855918     0.15446
    c                0.03033
   td      81493     0.13148
   td       8573     0.01195
   td        995     0.00111
   td        124     0.00013
   td         23     0.00002
   td          6     0.00001
   td          2     0.00000
   td          1     0.00000
   td          0     0.00000
Trial Time:          1.69574
Source:             14839494
    i                0.12916
   td          5     0.00001
   td    1885250     0.04547
    e                0.00736
   bu   21194882     0.57589
   bu   10398773     0.33514
   bu    1384941     0.17450
    c                0.03238
   td     136816     0.43331
   td      13734     0.06283
   td       1509     0.00638
   td        181     0.00074
   td         32     0.00010
   td         10     0.00003
   td          2     0.00000
   td          1     0.00000
   td          0     0.00000
Trial Time:          1.87275
Source:             32081104
    i                0.12283
   td          5     0.00001
   td        163     0.00001
   td    2460062     0.04477
    e                0.01035
   bu   21933100     0.55640
   bu    9298798     0.31629
   bu    1192922     0.16466
    c                0.03038
   td     117675     0.51017
   td      11885     0.05817
   td       1320     0.00577
   td        164     0.00056
   td         32     0.00008
   td          7     0.00001
   td          2     0.00000
   td          1     0.00000
   td          0     0.00000
Trial Time:          1.89139
Source:             52957357
    i                0.12360
   td          9     0.00001
   td        238     0.00001
   td     174513     0.00652
    e                0.00128
   bu   17376288     0.64412
   bu   14634721     0.40314
   bu    2552152     0.20058
    c                0.04211
   td     248636     1.10151
   td      26477     0.05975
   td       2737     0.00446
   td        300     0.00037
   td         44     0.00004
   td         12     0.00001
   td          6     0.00001
   td          2     0.00000
   td          1     0.00000
   td          0     0.00000
Trial Time:          2.65881
Source:             50444380
    i                0.12330
   td         10     0.00001
   td        229     0.00001
   td      73125     0.00203
    e                0.00063
   bu   14994164     0.69847
   bu   16442817     0.43195
   bu    3148592     0.21560
    c                0.04641
   td     320260     0.37172
   td      33080     0.03197
   td       3382     0.00298
   td        399     0.00031
   td         51     0.00004
   td         18     0.00001
   td          6     0.00001
   td          2     0.00000
   td          1     0.00000
   td          0     0.00000
Trial Time:          1.99536
Source:             49590701
    i                0.12353
   td         14     0.00001
   td        671     0.00003
   td     330236     0.01295
    e                0.00276
   bu   18567836     0.69375
   bu   13674065     0.40969
   bu    2199218     0.20868
    c                0.03859
   td     217763     0.15167
   td      23589     0.02309
   td       2403     0.00229
   td        276     0.00023
   td         45     0.00003
   td         11     0.00001
   td          6     0.00000
   td          2     0.00000
   td          1     0.00000
   td          0     0.00000
Trial Time:          1.73703
Source:             20127816
    i                0.12283
   td          1     0.00001
   td          4     0.00000
   td        956     0.00006
   td    1084191     0.13825
    e                0.00799
   bu   22540508     0.61696
   bu    9938071     0.35013
   bu    1311638     0.17043
    c                0.03172
   td     126643     0.09048
   td      12484     0.01370
   td       1432     0.00120
   td        174     0.00014
   td         18     0.00002
   td          8     0.00000
   td          6     0.00001
   td          2     0.00000
   td          1     0.00000
   td          0     0.00000
Trial Time:          1.61365
Source:             34939333
    i                0.12376
   td         11     0.00001
   td        565     0.00003
   td     438835     0.02429
    e                0.00371
   bu   19675272     0.65441
   bu   12804357     0.39628
   bu    1891628     0.18715
    c                0.03702
   td     184938     0.12480
   td      18225     0.02075
   td       2025     0.00180
   td        230     0.00019
   td         32     0.00002
   td          9     0.00000
   td          6     0.00000
   td          2     0.00000
   td          1     0.00000
   td          0     0.00000
Trial Time:          1.64394
Source:             48251001
    i                0.12346
   td         25     0.00001
   td      44531     0.00170
    e                0.00043
   bu   12765088     0.80808
   bu   18001038     0.48365
   bu    3769655     0.25116
   bu     391966     0.13559
    c                0.02580
   td      39222     0.03336
   td       4081     0.00432
   td        443     0.00047
   td         58     0.00005
   td         20     0.00001
   td          6     0.00001
   td          2     0.00000
   td          1     0.00000
   td          0     0.00000
Trial Time:          1.93781
Source:             19524253
    i                0.12350
   td          1     0.00001
   td          6     0.00000
   td       4979     0.00021
   td    5414834     0.46543
    e                0.02753
   bu   21497224     0.61145
   bu    7204838     0.28267
   bu     807633     0.16849
    c                0.02785
   td      77844     0.06007
   td       7767     0.00845
   td        861     0.00077
   td        116     0.00010
   td         24     0.00001
   td          6     0.00001
   td          2     0.00000
   td          1     0.00000
   td          0     0.00000
Trial Time:          1.84770
Source:             43676726
    i                0.12376
   td         11     0.00001
   td        892     0.00004
   td     457720     0.01598
    e                0.00381
   bu   19590527     0.65520
   bu   12821813     0.38826
   bu    1928131     0.20832
    c                0.03646
   td     195208     0.13286
   td      19401     0.02155
   td       2128     0.00189
   td        248     0.00020
   td         38     0.00002
   td         10     0.00001
   td          6     0.00000
   td          2     0.00000
   td          1     0.00000
   td          0     0.00000
Trial Time:          1.65839
Source:             33055508
    i                0.12371
   td          1     0.00001
   td         49     0.00000
   td      12966     0.00049
   td    8551512     0.56478
    e                0.04036
   bu   20862858     0.57791
   bu    4991322     0.24634
   bu     537994     0.14321
    c                0.02510
   td      53184     0.08991
   td       5507     0.00621
   td        628     0.00064
   td         85     0.00007
   td         21     0.00001
   td          6     0.00001
   td          2     0.00000
   td          1     0.00000
   td          0     0.00000
Trial Time:          1.88940
Source:             15244687
    i                0.13240
   td          4     0.00001
   td         83     0.00001
   td      34894     0.00090
    e                0.00036
   bu   12545225     0.76651
   bu   18120307     0.45644
   bu    3863687     0.22768
   bu     406678     0.13659
    c                0.02409
   td      40567     0.05687
   td       4130     0.00467
   td        472     0.00044
   td         64     0.00005
   td         17     0.00001
   td          6     0.00001
   td          2     0.00000
   td          1     0.00000
   td          0     0.00000
Trial Time:          1.87629
Average Time:        1.93406
OMP_NUM_THREADS	4
Read Time:           8.79249
Graph has 61578415 nodes and 1468364884 directed edges for degree: 23
Source:             12441072
    i                0.06769
   td          4     0.00002
   td         42     0.00002
   td       7681     0.00017
   td    9522739     0.17209
    e                0.02728
   bu   19741889     0.25551
   bu    5137920     0.13114
   bu     546423     0.07559
    c                0.01349
   td      53310     0.52943
   td       5386     0.02926
   td        630     0.00266
   td         83     0.00034
   td         21     0.00002
   td          6     0.00001
   td          2     0.00001
   td          1     0.00001
   td          0     0.00000
Trial Time:          1.34955
Source:             54488257
    i                0.06728
   td         32     0.00002
   td      24227     0.00086
   td    6875028     0.28802
    e                0.02239
   bu   21970215     0.25909
   bu    5456171     0.13301
   bu     624096     0.07497
    c                0.01381
   td      59373     0.12003
   td       6118     0.00333
   td        758     0.00034
   td         91     0.00004
   td         18     0.00001
   td          6     0.00001
   td          2     0.00000
   td          1     0.00001
   td          0     0.00000
Trial Time:          1.02767
Source:             25451915
    i                0.06713
   td          3     0.00001
   td        222     0.00001
   td      94800     0.00192
    e                0.00056
   bu   15454589     0.34735
   bu   15957912     0.22415
   bu    3146577     0.12864
    c                0.02566
   td     324024     0.33462
   td      33935     0.01904
   td       3592     0.00180
   td        399     0.00025
   td         57     0.00002
   td         17     0.00001
   td          6     0.00001
   td          2     0.00000
   td          1     0.00000
   td          0     0.00000
Trial Time:          1.19564
Source:             57714473
    i                0.06766
   td         24     0.00001
   td      13034     0.00041
   td    3169849     0.10013
    e                0.01242
   bu   23704084     0.30940
   bu    7182010     0.16069
   bu     855918     0.08838
    c                0.01475
   td      81493     0.03404
   td       8573     0.00643
   td        995     0.00056
   td        124     0.00006
   td         23     0.00001
   td          6     0.00001
   td          2     0.00000
   td          1     0.00000
   td          0     0.00000
Trial Time:          0.83892
Source:             14839494
    i                0.06769
   td          5     0.00001
   td    1885250     0.03029
    e                0.00397
   bu   21194882     0.29860
   bu   10398773     0.17243
   bu    1384941     0.08872
    c                0.01725
   td     136816     0.05488
   td      13734     0.00932
   td       1509     0.00082
   td        181     0.00010
   td         32     0.00001
   td         10     0.00001
   td          2     0.00000
   td          1     0.00000
   td          0     0.00000
Trial Time:          0.78840
Source:             32081104
    i                0.06841
   td          5     0.00001
   td        163     0.00001
   td    2460062     0.04172
    e                0.00589
   bu   21933100     0.29032
   bu    9298798     0.17843
   bu    1192922     0.08572
    c                0.01628
   td     117675     0.05004
   td      11885     0.00848
   td       1320     0.00073
   td        164     0.00010
   td         32     0.00001
   td          7     0.00001
   td          2     0.00000
   td          1     0.00000
   td          0     0.00000
Trial Time:          0.79008
Source:             52957357
    i                0.06720
   td          9     0.00001
   td        238     0.00001
   td     174513     0.00509
    e                0.00093
   bu   17376288     0.34444
   bu   14634721     0.22399
   bu    2552152     0.11496
    c                0.02277
   td     248636     0.10046
   td      26477     0.01439
   td       2737     0.00141
   td        300     0.00015
   td         44     0.00002
   td         12     0.00001
   td          6     0.00001
   td          2     0.00000
   td          1     0.00000
   td          0     0.00000
Trial Time:          0.93971
Source:             50444380
    i                0.06753
   td         10     0.00001
   td        229     0.00001
   td      73125     0.00100
    e                0.00045
   bu   14994164     0.39223
   bu   16442817     0.24137
   bu    3148592     0.12430
    c                0.02535
   td     320260     0.12043
   td      33080     0.01880
   td       3382     0.00174
   td        399     0.00018
   td         51     0.00002
   td         18     0.00001
   td          6     0.00001
   td          2     0.00000
   td          1     0.00000
   td          0     0.00000
Trial Time:          1.03752
Source:             49590701
    i                0.06717
   td         14     0.00001
   td        671     0.00003
   td     330236     0.00793
    e                0.00189
   bu   18567836     0.34960
   bu   13674065     0.21681
   bu    2199218     0.09954
    c                0.02087
   td     217763     0.07854
   td      23589     0.01318
   td       2403     0.00132
   td        276     0.00016
   td         45     0.00002
   td         11     0.00001
   td          6     0.00001
   td          2     0.00000
   td          1     0.00000
   td          0     0.00000
Trial Time:          0.90093
Source:             20127816
    i                0.06757
   td          1     0.00001
   td          4     0.00000
   td        956     0.00004
   td    1084191     0.05433
    e                0.00580
   bu   22540508     0.34229
   bu    9938071     0.17174
   bu    1311638     0.09916
    c                0.01698
   td     126643     0.04957
   td      12484     0.00707
   td       1432     0.00069
   td        174     0.00011
   td         18     0.00001
   td          8     0.00000
   td          6     0.00000
   td          2     0.00000
   td          1     0.00000
   td          0     0.00000
Trial Time:          0.85934
Source:             34939333
    i                0.06744
   td         11     0.00001
   td        565     0.00003
   td     438835     0.01185
    e                0.00242
   bu   19675272     0.34962
   bu   12804357     0.20941
   bu    1891628     0.09487
    c                0.01965
   td     184938     0.06991
   td      18225     0.01369
   td       2025     0.00116
   td        230     0.00012
   td         32     0.00002
   td          9     0.00001
   td          6     0.00001
   td          2     0.00000
   td          1     0.00000
   td          0     0.00000
Trial Time:          0.88403
Source:             48251001
    i                0.06809
   td         25     0.00001
   td      44531     0.00116
    e                0.00027
   bu   12765088     0.39848
   bu   18001038     0.23741
   bu    3769655     0.11587
   bu     391966     0.07069
    c                0.01272
   td      39222     0.05598
   td       4081     0.00336
   td        443     0.00034
   td         58     0.00004
   td         20     0.00001
   td          6     0.00001
   td          2     0.00000
   td          1     0.00000
   td          0     0.00000
Trial Time:          1.00922
Source:             19524253
    i                0.06857
   td          1     0.00001
   td          6     0.00000
   td       4979     0.00015
   td    5414834     0.27746
    e                0.01964
   bu   21497224     0.27200
   bu    7204838     0.14646
   bu     807633     0.07874
    c                0.01467
   td      77844     0.05077
   td       7767     0.00609
   td        861     0.00056
   td        116     0.00007
   td         24     0.00001
   td          6     0.00001
   td          2     0.00000
   td          1     0.00000
   td          0     0.00000
Trial Time:          0.97940
Source:             43676726
    i                0.06736
   td         11     0.00001
   td        892     0.00002
   td     457720     0.00993
    e                0.00255
   bu   19590527     0.31013
   bu   12821813     0.19336
   bu    1928131     0.09547
    c                0.01976
   td     195208     0.19946
   td      19401     0.02172
   td       2128     0.00221
   td        248     0.00023
   td         38     0.00004
   td         10     0.00002
   td          6     0.00001
   td          2     0.00000
   td          1     0.00000
   td          0     0.00000
Trial Time:          0.96612
Source:             33055508
    i                0.06754
   td          1     0.00001
   td         49     0.00000
   td      12966     0.00035
   td    8551512     0.45135
    e                0.03170
   bu   20862858     0.25130
   bu    4991322     0.12789
   bu     537994     0.07319
    c                0.01335
   td      53184     0.23542
   td       5507     0.02256
   td        628     0.00235
   td         85     0.00023
   td         21     0.00006
   td          6     0.00001
   td          2     0.00000
   td          1     0.00000
   td          0     0.00000
Trial Time:          1.32204
Source:             15244687
    i                0.06779
   td          4     0.00003
   td         83     0.00000
   td      34894     0.00060
    e                0.00021
   bu   12545225     0.38689
   bu   18120307     0.23611
   bu    3863687     0.11571
   bu     406678     0.07063
    c                0.01281
   td      40567     0.14417
   td       4130     0.01296
   td        472     0.00113
   td         64     0.00010
   td         17     0.00001
   td          6     0.00001
   td          2     0.00000
   td          1     0.00000
   td          0     0.00000
Trial Time:          1.09253
Average Time:        0.99882
OMP_NUM_THREADS	8
Read Time:           8.64018
Graph has 61578415 nodes and 1468364884 directed edges for degree: 23
Source:             12441072
    i                0.04645
   td          4     0.00002
   td         42     0.00002
   td       7681     0.00016
   td    9522739     0.15078
    e                0.01919
   bu   19741889     0.13197
   bu    5137920     0.06622
   bu     546423     0.03829
    c                0.00699
   td      53310     0.34937
   td       5386     0.02918
   td        630     0.00208
   td         83     0.00023
   td         21     0.00003
   td          6     0.00001
   td          2     0.00001
   td          1     0.00001
   td          0     0.00000
Trial Time:          0.87221
Source:             54488257
    i                0.04104
   td         32     0.00001
   td      24227     0.00051
   td    6875028     0.12186
    e                0.01700
   bu   21970215     0.13737
   bu    5456171     0.06885
   bu     624096     0.03951
    c                0.00723
   td      59373     0.10174
   td       6118     0.00221
   td        758     0.00018
   td         91     0.00003
   td         18     0.00001
   td          6     0.00001
   td          2     0.00000
   td          1     0.00000
   td          0     0.00000
Trial Time:          0.56784
Source:             25451915
    i                0.04098
   td          3     0.00001
   td        222     0.00001
   td      94800     0.00144
    e                0.00034
   bu   15454589     0.19927
   bu   15957912     0.11636
   bu    3146577     0.05683
    c                0.01319
   td     324024     0.21952
   td      33935     0.01014
   td       3592     0.00094
   td        399     0.00010
   td         57     0.00002
   td         17     0.00001
   td          6     0.00001
   td          2     0.00001
   td          1     0.00000
   td          0     0.00000
Trial Time:          0.68915
Source:             57714473
    i                0.04093
   td         24     0.00001
   td      13034     0.00032
   td    3169849     0.07451
    e                0.00867
   bu   23704084     0.16142
   bu    7182010     0.07643
   bu     855918     0.04137
    c                0.00775
   td      81493     0.01813
   td       8573     0.00431
   td        995     0.00032
   td        124     0.00003
   td         23     0.00001
   td          6     0.00001
   td          2     0.00000
   td          1     0.00000
   td          0     0.00000
Trial Time:          0.46407
Source:             14839494
    i                0.04119
   td          5     0.00001
   td    1885250     0.03044
    e                0.00204
   bu   21194882     0.16059
   bu   10398773     0.08903
   bu    1384941     0.04561
    c                0.00899
   td     136816     0.03005
   td      13734     0.00539
   td       1509     0.00044
   td        181     0.00005
   td         32     0.00001
   td         10     0.00001
   td          2     0.00001
   td          1     0.00001
   td          0     0.00000
Trial Time:          0.44365
Source:             32081104
    i                0.04101
   td          5     0.00001
   td        163     0.00001
   td    2460062     0.04199
    e                0.00361
   bu   21933100     0.15897
   bu    9298798     0.08498
   bu    1192922     0.05181
    c                0.00852
   td     117675     0.02269
   td      11885     0.00512
   td       1320     0.00041
   td        164     0.00006
   td         32     0.00001
   td          7     0.00001
   td          2     0.00001
   td          1     0.00000
   td          0     0.00000
Trial Time:          0.44901
Source:             52957357
    i                0.04087
   td          9     0.00001
   td        238     0.00001
   td     174513     0.00472
    e                0.00060
   bu   17376288     0.17286
   bu   14634721     0.10875
   bu    2552152     0.06219
    c                0.01192
   td     248636     0.05044
   td      26477     0.00851
   td       2737     0.00082
   td        300     0.00008
   td         44     0.00001
   td         12     0.00001
   td          6     0.00001
   td          2     0.00000
   td          1     0.00000
   td          0     0.00000
Trial Time:          0.49160
Source:             50444380
    i                0.04095
   td         10     0.00001
   td        229     0.00001
   td      73125     0.00081
    e                0.00026
   bu   14994164     0.18720
   bu   16442817     0.12532
   bu    3148592     0.05708
    c                0.01335
   td     320260     0.06423
   td      33080     0.01003
   td       3382     0.00089
   td        399     0.00010
   td         51     0.00001
   td         18     0.00001
   td          6     0.00001
   td          2     0.00000
   td          1     0.00000
   td          0     0.00000
Trial Time:          0.53033
Source:             49590701
    i                0.04080
   td         14     0.00001
   td        671     0.00002
   td     330236     0.00469
    e                0.00123
   bu   18567836     0.17402
   bu   13674065     0.10416
   bu    2199218     0.06239
    c                0.01097
   td     217763     0.04290
   td      23589     0.00852
   td       2403     0.00067
   td        276     0.00007
   td         45     0.00001
   td         11     0.00001
   td          6     0.00001
   td          2     0.00000
   td          1     0.00000
   td          0     0.00000
Trial Time:          0.48027
Source:             20127816
    i                0.04102
   td          1     0.00001
   td          4     0.00000
   td        956     0.00004
   td    1084191     0.02965
    e                0.00392
   bu   22540508     0.15351
   bu    9938071     0.09940
   bu    1311638     0.04550
    c                0.00893
   td     126643     0.02624
   td      12484     0.00400
   td       1432     0.00035
   td        174     0.00005
   td         18     0.00001
   td          8     0.00000
   td          6     0.00000
   td          2     0.00000
   td          1     0.00000
   td          0     0.00000
Trial Time:          0.44241
Source:             34939333
    i                0.04104
   td         11     0.00001
   td        565     0.00002
   td     438835     0.00737
    e                0.00149
   bu   19675272     0.16978
   bu   12804357     0.09903
   bu    1891628     0.04953
    c                0.01031
   td     184938     0.03532
   td      18225     0.00663
   td       2025     0.00055
   td        230     0.00007
   td         32     0.00001
   td          9     0.00001
   td          6     0.00001
   td          2     0.00000
   td          1     0.00000
   td          0     0.00000
Trial Time:          0.45098
Source:             48251001
    i                0.04072
   td         25     0.00001
   td      44531     0.00071
    e                0.00016
   bu   12765088     0.19743
   bu   18001038     0.12192
   bu    3769655     0.06038
   bu     391966     0.03705
    c                0.00667
   td      39222     0.01214
   td       4081     0.00127
   td        443     0.00013
   td         58     0.00002
   td         20     0.00001
   td          6     0.00001
   td          2     0.00001
   td          1     0.00000
   td          0     0.00000
Trial Time:          0.50788
Source:             19524253
    i                0.04098
   td          1     0.00001
   td          6     0.00000
   td       4979     0.00013
   td    5414834     0.17137
    e                0.01249
   bu   21497224     0.15204
   bu    7204838     0.07664
   bu     807633     0.04131
    c                0.00766
   td      77844     0.01739
   td       7767     0.00225
   td        861     0.00022
   td        116     0.00004
   td         24     0.00001
   td          6     0.00001
   td          2     0.00000
   td          1     0.00000
   td          0     0.00000
Trial Time:          0.55274
Source:             43676726
    i                0.04098
   td         11     0.00001
   td        892     0.00003
   td     457720     0.00732
    e                0.00169
   bu   19590527     0.16038
   bu   12821813     0.09942
   bu    1928131     0.04987
    c                0.01041
   td     195208     0.03799
   td      19401     0.00695
   td       2128     0.00059
   td        248     0.00006
   td         38     0.00001
   td         10     0.00001
   td          6     0.00001
   td          2     0.00001
   td          1     0.00000
   td          0     0.00000
Trial Time:          0.44547
Source:             33055508
    i                0.04110
   td          1     0.00001
   td         49     0.00001
   td      12966     0.00024
   td    8551512     0.20503
    e                0.01979
   bu   20862858     0.13146
   bu    4991322     0.06725
   bu     537994     0.04742
    c                0.00698
   td      53184     0.01517
   td       5507     0.00172
   td        628     0.00018
   td         85     0.00002
   td         21     0.00001
   td          6     0.00001
   td          2     0.00001
   td          1     0.00000
   td          0     0.00000
Trial Time:          0.56694
Source:             15244687
    i                0.04106
   td          4     0.00001
   td         83     0.00001
   td      34894     0.00043
    e                0.00012
   bu   12545225     0.20331
   bu   18120307     0.12206
   bu    3863687     0.06099
   bu     406678     0.03720
    c                0.00668
   td      40567     0.01140
   td       4130     0.00127
   td        472     0.00013
   td         64     0.00002
   td         17     0.00001
   td          6     0.00001
   td          2     0.00001
   td          1     0.00000
   td          0     0.00000
Trial Time:          0.51402
Average Time:        0.52928
OMP_NUM_THREADS	16
Read Time:           8.53779
Graph has 61578415 nodes and 1468364884 directed edges for degree: 23
Source:             12441072
    i                0.03596
   td          4     0.00003
   td         42     0.00003
   td       7681     0.00015
   td    9522739     0.08146
    e                0.01233
   bu   19741889     0.07086
   bu    5137920     0.03563
   bu     546423     0.02115
    c                0.00412
   td      53310     0.24285
   td       5386     0.02200
   td        630     0.00176
   td         83     0.00016
   td         21     0.00004
   td          6     0.00002
   td          2     0.00001
   td          1     0.00001
   td          0     0.00000
Trial Time:          0.55160
Source:             54488257
    i                0.02543
   td         32     0.00001
   td      24227     0.00034
   td    6875028     0.12419
    e                0.01023
   bu   21970215     0.07260
   bu    5456171     0.03683
   bu     624096     0.02144
    c                0.00399
   td      59373     0.17359
   td       6118     0.00442
   td        758     0.00031
   td         91     0.00008
   td         18     0.00001
   td          6     0.00001
   td          2     0.00001
   td          1     0.00001
   td          0     0.00000
Trial Time:          0.49604
Source:             25451915
    i                0.02532
   td          3     0.00001
   td        222     0.00002
   td      94800     0.00123
    e                0.00020
   bu   15454589     0.09635
   bu   15957912     0.06166
   bu    3146577     0.03035
    c                0.00717
   td     324024     0.15475
   td      33935     0.00617
   td       3592     0.00051
   td        399     0.00006
   td         57     0.00001
   td         17     0.00001
   td          6     0.00001
   td          2     0.00001
   td          1     0.00001
   td          0     0.00000
Trial Time:          0.40575
Source:             57714473
    i                0.02580
   td         24     0.00001
   td      13034     0.00034
   td    3169849     0.05853
    e                0.00579
   bu   23704084     0.08592
   bu    7182010     0.04492
   bu     855918     0.02513
    c                0.00448
   td      81493     0.01053
   td       8573     0.00331
   td        995     0.00021
   td        124     0.00003
   td         23     0.00001
   td          6     0.00001
   td          2     0.00001
   td          1     0.00001
   td          0     0.00000
Trial Time:          0.28805
Source:             14839494
    i                0.02541
   td          5     0.00001
   td    1885250     0.03105
    e                0.00109
   bu   21194882     0.08237
   bu   10398773     0.04782
   bu    1384941     0.03113
    c                0.00490
   td     136816     0.01529
   td      13734     0.00405
   td       1509     0.00028
   td        181     0.00002
   td         32     0.00001
   td         10     0.00001
   td          2     0.00001
   td          1     0.00001
   td          0     0.00000
Trial Time:          0.26534
Source:             32081104
    i                0.02542
   td          5     0.00001
   td        163     0.00001
   td    2460062     0.04058
    e                0.00225
   bu   21933100     0.08327
   bu    9298798     0.04643
   bu    1192922     0.02453
    c                0.00480
   td     117675     0.01380
   td      11885     0.00372
   td       1320     0.00024
   td        164     0.00002
   td         32     0.00001
   td          7     0.00001
   td          2     0.00001
   td          1     0.00001
   td          0     0.00000
Trial Time:          0.26718
Source:             52957357
    i                0.02537
   td          9     0.00001
   td        238     0.00001
   td     174513     0.00326
    e                0.00037
   bu   17376288     0.09111
   bu   14634721     0.05768
   bu    2552152     0.02902
    c                0.00647
   td     248636     0.02875
   td      26477     0.00560
   td       2737     0.00045
   td        300     0.00005
   td         44     0.00001
   td         12     0.00001
   td          6     0.00001
   td          2     0.00001
   td          1     0.00001
   td          0     0.00000
Trial Time:          0.26989
Source:             50444380
    i                0.02542
   td         10     0.00001
   td        229     0.00001
   td      73125     0.00077
    e                0.00015
   bu   14994164     0.09849
   bu   16442817     0.06139
   bu    3148592     0.03090
    c                0.00722
   td     320260     0.03430
   td      33080     0.00579
   td       3382     0.00053
   td        399     0.00006
   td         51     0.00001
   td         18     0.00001
   td          6     0.00001
   td          2     0.00001
   td          1     0.00001
   td          0     0.00000
Trial Time:          0.28691
Source:             49590701
    i                0.02535
   td         14     0.00001
   td        671     0.00002
   td     330236     0.00384
    e                0.00069
   bu   18567836     0.08797
   bu   13674065     0.05538
   bu    2199218     0.02797
    c                0.00597
   td     217763     0.02755
   td      23589     0.00502
   td       2403     0.00042
   td        276     0.00005
   td         45     0.00001
   td         11     0.00001
   td          6     0.00001
   td          2     0.00001
   td          1     0.00001
   td          0     0.00000
Trial Time:          0.26202
Source:             20127816
    i                0.02532
   td          1     0.00001
   td          4     0.00000
   td        956     0.00004
   td    1084191     0.01674
    e                0.00224
   bu   22540508     0.08783
   bu    9938071     0.04733
   bu    1311638     0.02479
    c                0.00485
   td     126643     0.01524
   td      12484     0.00229
   td       1432     0.00022
   td        174     0.00004
   td         18     0.00001
   td          8     0.00001
   td          6     0.00001
   td          2     0.00001
   td          1     0.00001
   td          0     0.00000
Trial Time:          0.24895
Source:             34939333
    i                0.02547
   td         11     0.00001
   td        565     0.00002
   td     438835     0.00564
    e                0.00092
   bu   19675272     0.08553
   bu   12804357     0.05286
   bu    1891628     0.02698
    c                0.00563
   td     184938     0.01970
   td      18225     0.00475
   td       2025     0.00035
   td        230     0.00004
   td         32     0.00001
   td          9     0.00001
   td          6     0.00001
   td          2     0.00001
   td          1     0.00001
   td          0     0.00000
Trial Time:          0.24964
Source:             48251001
    i                0.02534
   td         25     0.00001
   td      44531     0.00062
    e                0.00010
   bu   12765088     0.10497
   bu   18001038     0.06505
   bu    3769655     0.03252
   bu     391966     0.02038
    c                0.00368
   td      39222     0.00727
   td       4081     0.00068
   td        443     0.00007
   td         58     0.00001
   td         20     0.00001
   td          6     0.00001
   td          2     0.00001
   td          1     0.00001
   td          0     0.00000
Trial Time:          0.28208
Source:             19524253
    i                0.02531
   td          1     0.00001
   td          6     0.00000
   td       4979     0.00013
   td    5414834     0.12379
    e                0.00865
   bu   21497224     0.07642
   bu    7204838     0.04116
   bu     807633     0.02264
    c                0.00416
   td      77844     0.01008
   td       7767     0.00117
   td        861     0.00011
   td        116     0.00003
   td         24     0.00001
   td          6     0.00001
   td          2     0.00001
   td          1     0.00001
   td          0     0.00000
Trial Time:          0.33645
Source:             43676726
    i                0.02547
   td         11     0.00001
   td        892     0.00002
   td     457720     0.00497
    e                0.00097
   bu   19590527     0.08621
   bu   12821813     0.05942
   bu    1928131     0.02716
    c                0.00561
   td     195208     0.02381
   td      19401     0.00461
   td       2128     0.00036
   td        248     0.00004
   td         38     0.00001
   td         10     0.00001
   td          6     0.00001
   td          2     0.00001
   td          1     0.00001
   td          0     0.00000
Trial Time:          0.26041
Source:             33055508
    i                0.02588
   td          1     0.00001
   td         49     0.00001
   td      12966     0.00025
   td    8551512     0.19272
    e                0.01252
   bu   20862858     0.07082
   bu    4991322     0.03619
   bu     537994     0.02129
    c                0.00389
   td      53184     0.00736
   td       5507     0.00087
   td        628     0.00009
   td         85     0.00002
   td         21     0.00001
   td          6     0.00001
   td          2     0.00001
   td          1     0.00001
   td          0     0.00000
Trial Time:          0.39489
Source:             15244687
    i                0.02530
   td          4     0.00001
   td         83     0.00001
   td      34894     0.00045
    e                0.00007
   bu   12545225     0.10664
   bu   18120307     0.06511
   bu    3863687     0.03288
   bu     406678     0.02049
    c                0.00368
   td      40567     0.00701
   td       4130     0.00070
   td        472     0.00008
   td         64     0.00001
   td         17     0.00001
   td          6     0.00001
   td          2     0.00001
   td          1     0.00001
   td          0     0.00000
Trial Time:          0.28387
Average Time:        0.32182
OMP_NUM_THREADS	24
Read Time:           8.55687
Graph has 61578415 nodes and 1468364884 directed edges for degree: 23
Source:             12441072
    i                0.02556
   td          4     0.00003
   td         42     0.00003
   td       7681     0.00014
   td    9522739     0.08108
    e                0.00985
   bu   19741889     0.05288
   bu    5137920     0.02668
   bu     546423     0.01633
    c                0.00305
   td      53310     0.18478
   td       5386     0.01273
   td        630     0.00134
   td         83     0.00011
   td         21     0.00003
   td          6     0.00001
   td          2     0.00002
   td          1     0.00001
   td          0     0.00002
Trial Time:          0.43581
Source:             54488257
    i                0.02012
   td         32     0.00001
   td      24227     0.00036
   td    6875028     0.09959
    e                0.00837
   bu   21970215     0.05495
   bu    5456171     0.02839
   bu     624096     0.01694
    c                0.00446
   td      59373     0.18210
   td       6118     0.01251
   td        758     0.00098
   td         91     0.00018
   td         18     0.00004
   td          6     0.00001
   td          2     0.00001
   td          1     0.00001
   td          0     0.00001
Trial Time:          0.44968
Source:             25451915
    i                0.02006
   td          3     0.00001
   td        222     0.00003
   td      94800     0.00120
    e                0.00017
   bu   15454589     0.07098
   bu   15957912     0.04570
   bu    3146577     0.02314
    c                0.00564
   td     324024     0.18091
   td      33935     0.00555
   td       3592     0.00040
   td        399     0.00004
   td         57     0.00001
   td         17     0.00001
   td          6     0.00001
   td          2     0.00001
   td          1     0.00001
   td          0     0.00001
Trial Time:          0.37389
Source:             57714473
    i                0.02014
   td         24     0.00001
   td      13034     0.00033
   td    3169849     0.04548
    e                0.00451
   bu   23704084     0.05809
   bu    7182010     0.03118
   bu     855918     0.01759
    c                0.00331
   td      81493     0.00751
   td       8573     0.00290
   td        995     0.00018
   td        124     0.00002
   td         23     0.00001
   td          6     0.00001
   td          2     0.00001
   td          1     0.00001
   td          0     0.00001
Trial Time:          0.21129
Source:             14839494
    i                0.02010
   td          5     0.00001
   td    1885250     0.03300
    e                0.00083
   bu   21194882     0.06068
   bu   10398773     0.03588
   bu    1384941     0.01920
    c                0.00381
   td     136816     0.02220
   td      13734     0.00388
   td       1509     0.00024
   td        181     0.00002
   td         32     0.00001
   td         10     0.00001
   td          2     0.00001
   td          1     0.00001
   td          0     0.00001
Trial Time:          0.21976
Source:             32081104
    i                0.02013
   td          5     0.00001
   td        163     0.00001
   td    2460062     0.04254
    e                0.00198
   bu   21933100     0.06044
   bu    9298798     0.03438
   bu    1192922     0.01861
    c                0.00364
   td     117675     0.00990
   td      11885     0.00328
   td       1320     0.00020
   td        164     0.00002
   td         32     0.00001
   td          7     0.00001
   td          2     0.00001
   td          1     0.00001
   td          0     0.00001
Trial Time:          0.21515
Source:             52957357
    i                0.02013
   td          9     0.00001
   td        238     0.00001
   td     174513     0.00390
    e                0.00028
   bu   17376288     0.06752
   bu   14634721     0.04285
   bu    2552152     0.02180
    c                0.00500
   td     248636     0.02816
   td      26477     0.00427
   td       2737     0.00034
   td        300     0.00004
   td         44     0.00001
   td         12     0.00001
   td          6     0.00001
   td          2     0.00001
   td          1     0.00001
   td          0     0.00001
Trial Time:          0.21433
Source:             50444380
    i                0.02012
   td         10     0.00001
   td        229     0.00001
   td      73125     0.00081
    e                0.00013
   bu   14994164     0.07266
   bu   16442817     0.04553
   bu    3148592     0.02318
    c                0.00560
   td     320260     0.03063
   td      33080     0.00509
   td       3382     0.00039
   td        399     0.00004
   td         51     0.00001
   td         18     0.00001
   td          6     0.00001
   td          2     0.00001
   td          1     0.00001
   td          0     0.00001
Trial Time:          0.22420
Source:             49590701
    i                0.02012
   td         14     0.00001
   td        671     0.00002
   td     330236     0.00317
    e                0.00050
   bu   18567836     0.06539
   bu   13674065     0.04113
   bu    2199218     0.02105
    c                0.00465
   td     217763     0.02041
   td      23589     0.00411
   td       2403     0.00032
   td        276     0.00004
   td         45     0.00001
   td         11     0.00001
   td          6     0.00001
   td          2     0.00001
   td          1     0.00001
   td          0     0.00001
Trial Time:          0.20078
Source:             20127816
    i                0.02011
   td          1     0.00001
   td          4     0.00001
   td        956     0.00004
   td    1084191     0.01186
    e                0.00166
   bu   22540508     0.06129
   bu    9938071     0.03524
   bu    1311638     0.01897
    c                0.00381
   td     126643     0.01275
   td      12484     0.00190
   td       1432     0.00015
   td        174     0.00003
   td         18     0.00001
   td          8     0.00001
   td          6     0.00001
   td          2     0.00001
   td          1     0.00001
   td          0     0.00001
Trial Time:          0.18770
Source:             34939333
    i                0.02014
   td         11     0.00001
   td        565     0.00002
   td     438835     0.00350
    e                0.00068
   bu   19675272     0.06579
   bu   12804357     0.04163
   bu    1891628     0.02107
    c                0.00440
   td     184938     0.01493
   td      18225     0.00386
   td       2025     0.00027
   td        230     0.00003
   td         32     0.00001
   td          9     0.00001
   td          6     0.00001
   td          2     0.00001
   td          1     0.00001
   td          0     0.00001
Trial Time:          0.19620
Source:             48251001
    i                0.02014
   td         25     0.00001
   td      44531     0.00054
    e                0.00009
   bu   12765088     0.08209
   bu   18001038     0.05856
   bu    3769655     0.02535
   bu     391966     0.01621
    c                0.00285
   td      39222     0.00533
   td       4081     0.00049
   td        443     0.00006
   td         58     0.00001
   td         20     0.00001
   td          6     0.00001
   td          2     0.00001
   td          1     0.00001
   td          0     0.00001
Trial Time:          0.23126
Source:             19524253
    i                0.02008
   td          1     0.00001
   td          6     0.00001
   td       4979     0.00013
   td    5414834     0.09990
    e                0.00654
   bu   21497224     0.06234
   bu    7204838     0.03065
   bu     807633     0.01739
    c                0.00326
   td      77844     0.00839
   td       7767     0.00085
   td        861     0.00008
   td        116     0.00003
   td         24     0.00001
   td          6     0.00001
   td          2     0.00001
   td          1     0.00001
   td          0     0.00001
Trial Time:          0.27002
Source:             43676726
    i                0.02010
   td         11     0.00001
   td        892     0.00002
   td     457720     0.00443
    e                0.00072
   bu   19590527     0.06598
   bu   12821813     0.05096
   bu    1928131     0.02121
    c                0.00447
   td     195208     0.01880
   td      19401     0.00407
   td       2128     0.00028
   td        248     0.00003
   td         38     0.00001
   td         10     0.00001
   td          6     0.00002
   td          2     0.00001
   td          1     0.00001
   td          0     0.00001
Trial Time:          0.21101
Source:             33055508
    i                0.02011
   td          1     0.00001
   td         49     0.00001
   td      12966     0.00025
   td    8551512     0.19131
    e                0.01018
   bu   20862858     0.05907
   bu    4991322     0.02688
   bu     537994     0.01648
    c                0.00302
   td      53184     0.00556
   td       5507     0.00066
   td        628     0.00007
   td         85     0.00001
   td         21     0.00001
   td          6     0.00001
   td          2     0.00001
   td          1     0.00001
   td          0     0.00001
Trial Time:          0.35448
Source:             15244687
    i                0.02013
   td          4     0.00001
   td         83     0.00001
   td      34894     0.00044
    e                0.00007
   bu   12545225     0.07886
   bu   18120307     0.04983
   bu    3863687     0.02560
   bu     406678     0.01634
    c                0.00289
   td      40567     0.00443
   td       4130     0.00056
   td        472     0.00007
   td         64     0.00001
   td         17     0.00001
   td          6     0.00001
   td          2     0.00001
   td          1     0.00001
   td          0     0.00001
Trial Time:          0.21884
Average Time:        0.26340
OMP_NUM_THREADS	48
Read Time:           8.62791
Graph has 61578415 nodes and 1468364884 directed edges for degree: 23
Source:             12441072
    i                0.02961
   td          4     0.00004
   td         42     0.00005
   td       7681     0.00024
   td    9522739     0.19628
    e                0.01655
   bu   19741889     0.04777
   bu    5137920     0.03102
   bu     546423     0.02002
    c                0.00178
   td      53310     0.26993
   td       5386     0.03678
   td        630     0.00290
   td         83     0.00033
   td         21     0.00009
   td          6     0.00006
   td          2     0.00003
   td          1     0.00003
   td          0     0.00002
Trial Time:          0.67094
Source:             54488257
    i                0.02571
   td         32     0.00006
   td      24227     0.00042
   td    6875028     0.37203
    e                0.01484
   bu   21970215     0.07968
   bu    5456171     0.03184
   bu     624096     0.01934
    c                0.00173
   td      59373     0.20055
   td       6118     0.00283
   td        758     0.00012
   td         91     0.00004
   td         18     0.00003
   td          6     0.00002
   td          2     0.00002
   td          1     0.00002
   td          0     0.00002
Trial Time:          0.77033
Source:             25451915
    i                0.02517
   td          3     0.00002
   td        222     0.00005
   td      94800     0.00162
    e                0.00039
   bu   15454589     0.06630
   bu   15957912     0.05029
   bu    3146577     0.02488
    c                0.00349
   td     324024     0.20224
   td      33935     0.00625
   td       3592     0.00043
   td        399     0.00007
   td         57     0.00004
   td         17     0.00002
   td          6     0.00002
   td          2     0.00002
   td          1     0.00002
   td          0     0.00002
Trial Time:          0.39818
Source:             57714473
    i                0.02513
   td         24     0.00002
   td      13034     0.00043
   td    3169849     0.06201
    e                0.00606
   bu   23704084     0.05842
   bu    7182010     0.03678
   bu     855918     0.02084
    c                0.00185
   td      81493     0.00882
   td       8573     0.00368
   td        995     0.00023
   td        124     0.00004
   td         23     0.00003
   td          6     0.00002
   td          2     0.00002
   td          1     0.00002
   td          0     0.00002
Trial Time:          0.24138
Source:             14839494
    i                0.02512
   td          5     0.00002
   td    1885250     0.04397
    e                0.00106
   bu   21194882     0.06081
   bu   10398773     0.04231
   bu    1384941     0.02199
    c                0.00219
   td     136816     0.01281
   td      13734     0.00440
   td       1509     0.00027
   td        181     0.00005
   td         32     0.00003
   td         10     0.00002
   td          2     0.00003
   td          1     0.00002
   td          0     0.00002
Trial Time:          0.23215
Source:             32081104
    i                0.02507
   td          5     0.00002
   td        163     0.00002
   td    2460062     0.04630
    e                0.00399
   bu   21933100     0.07334
   bu    9298798     0.04508
   bu    1192922     0.02140
    c                0.00209
   td     117675     0.01153
   td      11885     0.00409
   td       1320     0.00024
   td        164     0.00005
   td         32     0.00003
   td          7     0.00002
   td          2     0.00002
   td          1     0.00002
   td          0     0.00002
Trial Time:          0.25038
Source:             52957357
    i                0.02501
   td          9     0.00002
   td        238     0.00003
   td     174513     0.00338
    e                0.00065
   bu   17376288     0.06500
   bu   14634721     0.17018
   bu    2552152     0.10686
    c                0.00314
   td     248636     0.02935
   td      26477     0.00467
   td       2737     0.00035
   td        300     0.00007
   td         44     0.00003
   td         12     0.00002
   td          6     0.00002
   td          2     0.00002
   td          1     0.00002
   td          0     0.00002
Trial Time:          0.42586
Source:             50444380
    i                0.02509
   td         10     0.00002
   td        229     0.00002
   td      73125     0.00129
    e                0.00036
   bu   14994164     0.27846
   bu   16442817     0.06826
   bu    3148592     0.02492
    c                0.00362
   td     320260     0.03605
   td      33080     0.00575
   td       3382     0.00041
   td        399     0.00007
   td         51     0.00003
   td         18     0.00002
   td          6     0.00002
   td          2     0.00002
   td          1     0.00002
   td          0     0.00002
Trial Time:          0.46162
Source:             49590701
    i                0.02498
   td         14     0.00002
   td        671     0.00005
   td     330236     0.00391
    e                0.00093
   bu   18567836     0.13681
   bu   13674065     0.04506
   bu    2199218     0.02220
    c                0.00284
   td     217763     0.02593
   td      23589     0.00457
   td       2403     0.00033
   td        276     0.00007
   td         45     0.00003
   td         11     0.00002
   td          6     0.00002
   td          2     0.00002
   td          1     0.00002
   td          0     0.00001
Trial Time:          0.28482
Source:             20127816
    i                0.02489
   td          1     0.00002
   td          4     0.00002
   td        956     0.00006
   td    1084191     0.01069
    e                0.00223
   bu   22540508     0.05973
   bu    9938071     0.03950
   bu    1311638     0.02060
    c                0.00225
   td     126643     0.01357
   td      12484     0.00183
   td       1432     0.00017
   td        174     0.00006
   td         18     0.00003
   td          8     0.00002
   td          6     0.00002
   td          2     0.00002
   td          1     0.00002
   td          0     0.00002
Trial Time:          0.19214
Source:             34939333
    i                0.02498
   td         11     0.00002
   td        565     0.00004
   td     438835     0.00369
    e                0.00115
   bu   19675272     0.08340
   bu   12804357     0.04301
   bu    1891628     0.02155
    c                0.00258
   td     184938     0.01847
   td      18225     0.00446
   td       2025     0.00030
   td        230     0.00006
   td         32     0.00003
   td          9     0.00002
   td          6     0.00002
   td          2     0.00002
   td          1     0.00002
   td          0     0.00002
Trial Time:          0.22076
Source:             48251001
    i                0.02509
   td         25     0.00002
   td      44531     0.00073
    e                0.00028
   bu   12765088     0.07098
   bu   18001038     0.07039
   bu    3769655     0.02680
   bu     391966     0.01935
    c                0.00170
   td      39222     0.00377
   td       4081     0.00050
   td        443     0.00008
   td         58     0.00004
   td         20     0.00002
   td          6     0.00002
   td          2     0.00002
   td          1     0.00002
   td          0     0.00002
Trial Time:          0.23563
Source:             19524253
    i                0.02502
   td          1     0.00002
   td          6     0.00002
   td       4979     0.00019
   td    5414834     0.09160
    e                0.01013
   bu   21497224     0.05764
   bu    7204838     0.03505
   bu     807633     0.01987
    c                0.00190
   td      77844     0.00837
   td       7767     0.00081
   td        861     0.00010
   td        116     0.00006
   td         24     0.00003
   td          6     0.00002
   td          2     0.00002
   td          1     0.00002
   td          0     0.00002
Trial Time:          0.26801
Source:             43676726
    i                0.02521
   td         11     0.00002
   td        892     0.00004
   td     457720     0.00387
    e                0.00118
   bu   19590527     0.06200
   bu   12821813     0.04357
   bu    1928131     0.02159
    c                0.00267
   td     195208     0.02541
   td      19401     0.00444
   td       2128     0.00033
   td        248     0.00006
   td         38     0.00003
   td         10     0.00002
   td          6     0.00002
   td          2     0.00002
   td          1     0.00002
   td          0     0.00002
Trial Time:          0.20779
Source:             33055508
    i                0.02533
   td          1     0.00002
   td         49     0.00002
   td      12966     0.00031
   td    8551512     0.25818
    e                0.01767
   bu   20862858     0.05458
   bu    4991322     0.03052
   bu     537994     0.01938
    c                0.00177
   td      53184     0.00627
   td       5507     0.00063
   td        628     0.00010
   td         85     0.00004
   td         21     0.00003
   td          6     0.00002
   td          2     0.00002
   td          1     0.00002
   td          0     0.00002
Trial Time:          0.43296
Source:             15244687
    i                0.02537
   td          4     0.00002
   td         83     0.00002
   td      34894     0.00065
    e                0.00020
   bu   12545225     0.07170
   bu   18120307     0.05155
   bu    3863687     0.04563
   bu     406678     0.01928
    c                0.00175
   td      40567     0.00508
   td       4130     0.00062
   td        472     0.00008
   td         64     0.00004
   td         17     0.00002
   td          6     0.00002
   td          2     0.00002
   td          1     0.00002
   td          0     0.00002
Trial Time:          0.23839
Average Time:        0.34571
OMP_NUM_THREADS	96
Read Time:           8.63919
Graph has 61578415 nodes and 1468364884 directed edges for degree: 23
Source:             12441072
    i                0.02864
   td          4     0.00006
   td         42     0.00008
   td       7681     0.00031
   td    9522739     0.13398
    e                0.01072
   bu   19741889     0.04656
   bu    5137920     0.18938
   bu     546423     0.36053
    c                0.02022
   td      53310     0.30106
   td       5386     0.01770
   td        630     0.00158
   td         83     0.00029
   td         21     0.00009
   td          6     0.00004
   td          2     0.00007
   td          1     0.00007
   td          0     0.00003
Trial Time:          1.12822
Source:             54488257
    i                0.02457
   td         32     0.00004
   td      24227     0.00068
   td    6875028     0.13362
    e                0.00933
   bu   21970215     0.93116
   bu    5456171     0.57389
   bu     624096     0.22726
    c                0.02005
   td      59373     0.06117
   td       6118     0.00070
   td        758     0.00015
   td         91     0.00009
   td         18     0.00005
   td          6     0.00004
   td          2     0.00003
   td          1     0.00003
   td          0     0.00003
Trial Time:          2.00072
Source:             25451915
    i                0.02462
   td          3     0.00004
   td        222     0.00005
   td      94800     0.00282
    e                0.00044
   bu   15454589     0.21237
   bu   15957912     1.34270
   bu    3146577     0.19084
    c                0.00290
   td     324024     0.18445
   td      33935     0.00522
   td       3592     0.00045
   td        399     0.00014
   td         57     0.00008
   td         17     0.00005
   td          6     0.00004
   td          2     0.00003
   td          1     0.00003
   td          0     0.00003
Trial Time:          1.98294
Source:             57714473
    i                0.02454
   td         24     0.00004
   td      13034     0.00078
   td    3169849     0.06888
    e                0.00582
   bu   23704084     1.80740
   bu    7182010     0.48335
   bu     855918     0.17678
    c                0.00142
   td      81493     0.00719
   td       8573     0.00423
   td        995     0.00029
   td        124     0.00009
   td         23     0.00005
   td          6     0.00004
   td          2     0.00004
   td          1     0.00003
   td          0     0.00003
Trial Time:          2.59678
Source:             14839494
    i                0.02461
   td          5     0.00004
   td    1885250     0.06243
    e                0.00125
   bu   21194882     0.84192
   bu   10398773     0.77958
   bu    1384941     0.15052
    c                0.00176
   td     136816     0.00972
   td      13734     0.00438
   td       1509     0.00034
   td        181     0.00010
   td         32     0.00006
   td         10     0.00004
   td          2     0.00004
   td          1     0.00004
   td          0     0.00003
Trial Time:          1.89259
Source:             32081104
    i                0.02456
   td          5     0.00004
   td        163     0.00004
   td    2460062     0.06060
    e                0.00274
   bu   21933100     0.94486
   bu    9298798     0.73037
   bu    1192922     0.15690
    c                0.00184
   td     117675     0.01043
   td      11885     0.00432
   td       1320     0.00033
   td        164     0.00010
   td         32     0.00006
   td          7     0.00004
   td          2     0.00004
   td          1     0.00004
   td          0     0.00003
Trial Time:          1.95374
Source:             52957357
    i                0.02462
   td          9     0.00004
   td        238     0.00005
   td     174513     0.00601
    e                0.00070
   bu   17376288     0.30093
   bu   14634721     1.24005
   bu    2552152     0.15478
    c                0.00257
   td     248636     0.02643
   td      26477     0.00474
   td       2737     0.00044
   td        300     0.00012
   td         44     0.00007
   td         12     0.00004
   td          6     0.00004
   td          2     0.00003
   td          1     0.00004
   td          0     0.00003
Trial Time:          1.77801
Source:             50444380
    i                0.02456
   td         10     0.00004
   td        229     0.00004
   td      73125     0.00156
    e                0.00038
   bu   14994164     0.22683
   bu   16442817     1.10283
   bu    3148592     0.17262
    c                0.00294
   td     320260     0.03203
   td      33080     0.00488
   td       3382     0.00046
   td        399     0.00012
   td         51     0.00007
   td         18     0.00005
   td          6     0.00004
   td          2     0.00003
   td          1     0.00004
   td          0     0.00003
Trial Time:          1.58608
Source:             49590701
    i                0.02455
   td         14     0.00004
   td        671     0.00007
   td     330236     0.00490
    e                0.00100
   bu   18567836     0.37257
   bu   13674065     0.91380
   bu    2199218     0.13476
    c                0.00247
   td     217763     0.02931
   td      23589     0.00437
   td       2403     0.00040
   td        276     0.00011
   td         45     0.00007
   td         11     0.00005
   td          6     0.00004
   td          2     0.00004
   td          1     0.00003
   td          0     0.00003
Trial Time:          1.50481
Source:             20127816
    i                0.02485
   td          1     0.00004
   td          4     0.00003
   td        956     0.00011
   td    1084191     0.01244
    e                0.00317
   bu   22540508     0.88539
   bu    9938071     0.71001
   bu    1311638     0.16701
    c                0.00166
   td     126643     0.01406
   td      12484     0.00181
   td       1432     0.00021
   td        174     0.00012
   td         18     0.00006
   td          8     0.00004
   td          6     0.00003
   td          2     0.00003
   td          1     0.00004
   td          0     0.00003
Trial Time:          1.83715
Source:             34939333
    i                0.02452
   td         11     0.00004
   td        565     0.00007
   td     438835     0.00482
    e                0.00135
   bu   19675272     0.54004
   bu   12804357     0.85524
   bu    1891628     0.13066
    c                0.00243
   td     184938     0.01762
   td      18225     0.00438
   td       2025     0.00035
   td        230     0.00011
   td         32     0.00007
   td          9     0.00004
   td          6     0.00004
   td          2     0.00003
   td          1     0.00003
   td          0     0.00003
Trial Time:          1.59785
Source:             48251001
    i                0.02475
   td         25     0.00004
   td      44531     0.00128
    e                0.00027
   bu   12765088     0.17966
   bu   18001038     1.09418
   bu    3769655     0.10901
   bu     391966     0.18789
    c                0.00114
   td      39222     0.00544
   td       4081     0.00057
   td        443     0.00013
   td         58     0.00008
   td         20     0.00005
   td          6     0.00004
   td          2     0.00004
   td          1     0.00004
   td          0     0.00003
Trial Time:          1.61988
Source:             19524253
    i                0.02457
   td          1     0.00004
   td          6     0.00003
   td       4979     0.00030
   td    5414834     0.07904
    e                0.00666
   bu   21497224     0.93568
   bu    7204838     0.32477
   bu     807633     0.15882
    c                0.00132
   td      77844     0.00882
   td       7767     0.00083
   td        861     0.00015
   td        116     0.00009
   td         24     0.00006
   td          6     0.00004
   td          2     0.00003
   td          1     0.00004
   td          0     0.00003
Trial Time:          1.55802
Source:             43676726
    i                0.02454
   td         11     0.00004
   td        892     0.00007
   td     457720     0.00452
    e                0.00150
   bu   19590527     0.38294
   bu   12821813     0.77069
   bu    1928131     0.12625
    c                0.00255
   td     195208     0.02518
   td      19401     0.00446
   td       2128     0.00038
   td        248     0.00012
   td         38     0.00007
   td         10     0.00004
   td          6     0.00003
   td          2     0.00004
   td          1     0.00004
   td          0     0.00003
Trial Time:          1.35934
Source:             33055508
    i                0.02455
   td          1     0.00004
   td         49     0.00004
   td      12966     0.00034
   td    8551512     0.20544
    e                0.01099
   bu   20862858     0.86002
   bu    4991322     0.13873
   bu     537994     0.17443
    c                0.00121
   td      53184     0.00608
   td       5507     0.00077
   td        628     0.00016
   td         85     0.00008
   td         21     0.00005
   td          6     0.00004
   td          2     0.00003
   td          1     0.00004
   td          0     0.00003
Trial Time:          1.44036
Source:             15244687
    i                0.02466
   td          4     0.00004
   td         83     0.00004
   td      34894     0.00084
    e                0.00020
   bu   12545225     0.11515
   bu   18120307     1.05644
   bu    3863687     0.10450
   bu     406678     0.19585
    c                0.00117
   td      40567     0.00565
   td       4130     0.00069
   td        472     0.00012
   td         64     0.00009
   td         17     0.00005
   td          6     0.00004
   td          2     0.00004
   td          1     0.00004
   td          0     0.00003
Trial Time:          1.52062
Average Time:        1.70982
OMP_NUM_THREADS	192
Read Time:           8.56223
Graph has 61578415 nodes and 1468364884 directed edges for degree: 23
Source:             12441072
    i                0.02555
   td          4     0.00010
   td         42     0.00015
   td       7681     0.00034
   td    9522739     0.18665
    e                0.00906
   bu   19741889     0.04068
   bu    5137920     0.22051
   bu     546423     0.33749
    c                0.03347
   td      53310     0.28005
   td       5386     0.01903
   td        630     0.00190
   td         83     0.00042
   td         21     0.00013
   td          6     0.00004
   td          2     0.00013
   td          1     0.00012
   td          0     0.00003
Trial Time:          1.19895
Source:             54488257
    i                0.02231
   td         32     0.00005
   td      24227     0.00098
   td    6875028     0.15929
    e                0.00892
   bu   21970215     1.27746
   bu    5456171     0.56906
   bu     624096     0.25057
    c                0.00126
   td      59373     0.07259
   td       6118     0.00081
   td        758     0.00017
   td         91     0.00010
   td         18     0.00005
   td          6     0.00004
   td          2     0.00004
   td          1     0.00004
   td          0     0.00003
Trial Time:          2.38483
Source:             25451915
    i                0.02219
   td          3     0.00004
   td        222     0.00006
   td      94800     0.00365
    e                0.00046
   bu   15454589     0.52319
   bu   15957912     0.66609
   bu    3146577     0.08142
    c                0.00237
   td     324024     0.19726
   td      33935     0.00772
   td       3592     0.00077
   td        399     0.00016
   td         57     0.00008
   td         17     0.00004
   td          6     0.00004
   td          2     0.00004
   td          1     0.00004
   td          0     0.00003
Trial Time:          1.54648
Source:             57714473
    i                0.02216
   td         24     0.00005
   td      13034     0.00106
   td    3169849     0.08765
    e                0.00604
   bu   23704084     1.27962
   bu    7182010     0.56210
   bu     855918     0.31285
    c                0.00169
   td      81493     0.00989
   td       8573     0.00599
   td        995     0.00041
   td        124     0.00014
   td         23     0.00011
   td          6     0.00009
   td          2     0.00011
   td          1     0.00010
   td          0     0.00009
Trial Time:          2.32666
Source:             14839494
    i                0.02206
   td          5     0.00005
   td    1885250     0.07340
    e                0.00140
   bu   21194882     1.23681
   bu   10398773     0.29109
   bu    1384941     0.13002
    c                0.00140
   td     136816     0.01392
   td      13734     0.00647
   td       1509     0.00050
   td        181     0.00011
   td         32     0.00007
   td         10     0.00004
   td          2     0.00004
   td          1     0.00004
   td          0     0.00003
Trial Time:          1.81601
Source:             32081104
    i                0.02211
   td          5     0.00005
   td        163     0.00005
   td    2460062     0.06915
    e                0.00217
   bu   21933100     0.90643
   bu    9298798     0.27055
   bu    1192922     0.32960
    c                0.00134
   td     117675     0.01117
   td      11885     0.00612
   td       1320     0.00045
   td        164     0.00011
   td         32     0.00006
   td          7     0.00005
   td          2     0.00004
   td          1     0.00004
   td          0     0.00003
Trial Time:          1.64799
Source:             52957357
    i                0.02205
   td          9     0.00004
   td        238     0.00006
   td     174513     0.00839
    e                0.00068
   bu   17376288     0.59557
   bu   14634721     0.57943
   bu    2552152     0.24264
    c                0.00368
   td     248636     0.03884
   td      26477     0.00719
   td       2737     0.00061
   td        300     0.00013
   td         44     0.00008
   td         12     0.00004
   td          6     0.00004
   td          2     0.00004
   td          1     0.00004
   td          0     0.00003
Trial Time:          1.55328
Source:             50444380
    i                0.02215
   td         10     0.00005
   td        229     0.00004
   td      73125     0.00270
    e                0.00033
   bu   14994164     0.40678
   bu   16442817     0.91724
   bu    3148592     0.14359
    c                0.00223
   td     320260     0.04756
   td      33080     0.00757
   td       3382     0.00076
   td        399     0.00014
   td         51     0.00008
   td         18     0.00005
   td          6     0.00004
   td          2     0.00004
   td          1     0.00004
   td          0     0.00003
Trial Time:          1.59831
Source:             49590701
    i                0.02206
   td         14     0.00005
   td        671     0.00008
   td     330236     0.00533
    e                0.00103
   bu   18567836     0.66353
   bu   13674065     0.59810
   bu    2199218     0.18051
    c                0.00183
   td     217763     0.03880
   td      23589     0.00686
   td       2403     0.00055
   td        276     0.00014
   td         45     0.00007
   td         11     0.00004
   td          6     0.00004
   td          2     0.00004
   td          1     0.00004
   td          0     0.00003
Trial Time:          1.57070
Source:             20127816
    i                0.02204
   td          1     0.00004
   td          4     0.00003
   td        956     0.00014
   td    1084191     0.01505
    e                0.00299
   bu   22540508     0.93951
   bu    9938071     0.43121
   bu    1311638     0.29418
    c                0.01144
   td     126643     0.01456
   td      12484     0.00224
   td       1432     0.00024
   td        174     0.00012
   td         18     0.00007
   td          8     0.00004
   td          6     0.00004
   td          2     0.00004
   td          1     0.00004
   td          0     0.00004
Trial Time:          1.76468
Source:             34939333
    i                0.02209
   td         11     0.00005
   td        565     0.00009
   td     438835     0.00560
    e                0.00131
   bu   19675272     0.73080
   bu   12804357     0.71553
   bu    1891628     0.19655
    c                0.00162
   td     184938     0.02906
   td      18225     0.00698
   td       2025     0.00047
   td        230     0.00013
   td         32     0.00007
   td          9     0.00004
   td          6     0.00004
   td          2     0.00004
   td          1     0.00003
   td          0     0.00003
Trial Time:          1.74698
Source:             48251001
    i                0.02218
   td         25     0.00005
   td      44531     0.00172
    e                0.00024
   bu   12765088     0.42607
   bu   18001038     0.72942
   bu    3769655     0.15639
   bu     391966     0.36446
    c                0.00114
   td      39222     0.00799
   td       4081     0.00078
   td        443     0.00017
   td         58     0.00008
   td         20     0.00005
   td          6     0.00004
   td          2     0.00004
   td          1     0.00004
   td          0     0.00003
Trial Time:          1.74401
Source:             19524253
    i                0.02199
   td          1     0.00004
   td          6     0.00003
   td       4979     0.00040
   td    5414834     0.07244
    e                0.00592
   bu   21497224     0.76458
   bu    7204838     0.33453
   bu     807633     0.31202
    c                0.00116
   td      77844     0.01147
   td       7767     0.00124
   td        861     0.00019
   td        116     0.00014
   td         24     0.00005
   td          6     0.00004
   td          2     0.00004
   td          1     0.00004
   td          0     0.00003
Trial Time:          1.56593
Source:             43676726
    i                0.02210
   td         11     0.00005
   td        892     0.00009
   td     457720     0.00478
    e                0.00135
   bu   19590527     0.49531
   bu   12821813     0.64608
   bu    1928131     0.21619
    c                0.00162
   td     195208     0.03607
   td      19401     0.00592
   td       2128     0.00049
   td        248     0.00012
   td         38     0.00006
   td         10     0.00004
   td          6     0.00004
   td          2     0.00004
   td          1     0.00003
   td          0     0.00003
Trial Time:          1.47409
Source:             33055508
    i                0.02209
   td          1     0.00004
   td         49     0.00004
   td      12966     0.00045
   td    8551512     0.18189
    e                0.00922
   bu   20862858     0.79103
   bu    4991322     0.20137
   bu     537994     0.35998
    c                0.00112
   td      53184     0.00825
   td       5507     0.00106
   td        628     0.00017
   td         85     0.00009
   td         21     0.00005
   td          6     0.00004
   td          2     0.00004
   td          1     0.00004
   td          0     0.00004
Trial Time:          1.61193
Source:             15244687
    i                0.02205
   td          4     0.00004
   td         83     0.00004
   td      34894     0.00140
    e                0.00022
   bu   12545225     0.28156
   bu   18120307     0.76661
   bu    3863687     0.15321
   bu     406678     0.34911
    c                0.00159
   td      40567     0.00781
   td       4130     0.00094
   td        472     0.00017
   td         64     0.00015
   td         17     0.00011
   td          6     0.00010
   td          2     0.00011
   td          1     0.00010
   td          0     0.00010
Trial Time:          1.62164
Average Time:        1.69828
