OMP_NUM_THREADS	96
Read Time:           15.96600
Graph has 65608366 nodes and 3612134270 directed edges for degree: 55
Source:             13206677
    i                0.02648
   td          7     0.00005
   td        676     0.00006
   td     113163     0.00580
   td   11199278     0.07456
   td   40815808     1.61225
   td   11307472     1.17934
   td    1474351     0.09717
   td     430348     0.01540
   td     162750     0.00408
   td      63978     0.00200
   td      25275     0.00052
   td       9605     0.00027
   td       3516     0.00017
   td       1368     0.00010
   td        476     0.00010
   td        160     0.00008
   td         72     0.00006
   td         27     0.00002
   td         17     0.00001
   td         15     0.00002
   td          1     0.00001
   td          1     0.00001
   td          1     0.00001
   td          0     0.00001
Trial Time:          3.05691
Average Time:        3.05691
