OMP_NUM_THREADS	1
Read Time:           0.03901
Graph has 513969 nodes and 6380904 directed edges for degree: 12
Source:               102732
    i                0.00093
   td          1     0.00001
   td         11     0.00000
   td       2068     0.00003
    e                0.00002
   bu      67066     0.00613
   bu     227000     0.00411
   bu     156810     0.00248
   bu      49316     0.00117
   bu       9910     0.00045
    c                0.00070
   td       1512     0.00021
   td        234     0.00003
   td         36     0.00001
   td          4     0.00000
   td          0     0.00000
Trial Time:          0.01673
Source:               449938
    i                0.00042
   td          1     0.00000
   td          7     0.00000
   td         91     0.00000
   td       6534     0.00009
    e                0.00006
   bu     112951     0.00568
   bu     233960     0.00364
   bu     121362     0.00209
   bu      32116     0.00088
   bu       5755     0.00036
    c                0.00057
   td       1013     0.00013
   td        149     0.00002
   td         28     0.00001
   td          1     0.00000
   td          0     0.00000
Trial Time:          0.01433
Source:                 8953
    i                0.00044
   td          2     0.00000
   td          8     0.00000
   td       3439     0.00003
    e                0.00003
   bu      63485     0.00605
   bu     221727     0.00409
   bu     162437     0.00251
   bu      50929     0.00119
   bu       9971     0.00046
    c                0.00062
   td       1660     0.00022
   td        247     0.00004
   td         58     0.00001
   td          5     0.00000
   td          0     0.00000
Trial Time:          0.01607
Source:               139166
    i                0.00045
   td          1     0.00000
   td        445     0.00001
   td      23108     0.00074
    e                0.00020
   bu     154080     0.00510
   bu     216479     0.00320
   bu      93205     0.00174
   bu      22202     0.00069
    c                0.00079
   td       3722     0.00038
   td        608     0.00007
   td        106     0.00001
   td         12     0.00000
   td          0     0.00000
Trial Time:          0.01378
Source:               142426
    i                0.00041
   td         19     0.00000
   td        707     0.00001
   td      35325     0.00063
    e                0.00031
   bu     202104     0.00454
   bu     194615     0.00275
   bu      65697     0.00138
   bu      12908     0.00052
    c                0.00067
   td       2151     0.00026
   td        383     0.00005
   td         52     0.00001
   td          7     0.00000
   td          0     0.00000
Trial Time:          0.01194
Source:               210170
    i                0.00045
   td          1     0.00000
   td         38     0.00000
   td       5475     0.00006
    e                0.00005
   bu     109248     0.00560
   bu     241266     0.00348
   bu     120726     0.00204
   bu      30781     0.00087
   bu       5355     0.00036
    c                0.00058
   td        916     0.00012
   td        146     0.00002
   td         14     0.00000
   td          2     0.00000
   td          0     0.00000
Trial Time:          0.01402
Source:               476579
    i                0.00042
   td          1     0.00000
   td          1     0.00000
   td          1     0.00000
   td         12     0.00000
   td       6630     0.00007
    e                0.00006
   bu      80630     0.00581
   bu     230463     0.00389
   bu     144203     0.00230
   bu      42564     0.00109
   bu       7895     0.00041
    c                0.00060
   td       1363     0.00016
   td        189     0.00003
   td         14     0.00000
   td          2     0.00000
   td          0     0.00000
Trial Time:          0.01525
Source:               122537
    i                0.00041
   td          1     0.00000
   td         14     0.00000
   td        171     0.00000
   td      17925     0.00024
    e                0.00016
   bu     166541     0.00510
   bu     216555     0.00316
   bu      87968     0.00172
   bu      20745     0.00067
    c                0.00073
   td       3332     0.00035
   td        614     0.00007
   td         91     0.00001
   td         11     0.00000
   td          0     0.00000
Trial Time:          0.01311
Source:               264910
    i                0.00041
   td          2     0.00000
   td         50     0.00000
   td       8555     0.00011
    e                0.00008
   bu     128824     0.00549
   bu     234792     0.00344
   bu     108217     0.00194
   bu      27912     0.00079
    c                0.00084
   td       4696     0.00044
   td        787     0.00009
   td        122     0.00001
   td         11     0.00000
   td          0     0.00000
Trial Time:          0.01404
Source:               437297
    i                0.00041
   td          1     0.00000
   td          7     0.00000
   td         19     0.00000
   td       2273     0.00003
    e                0.00002
   bu      77179     0.00592
   bu     240841     0.00386
   bu     143492     0.00229
   bu      40816     0.00104
   bu       7810     0.00041
    c                0.00060
   td       1287     0.00018
   td        222     0.00003
   td         19     0.00000
   td          2     0.00000
   td          0     0.00000
Trial Time:          0.01517
Source:                90343
    i                0.00042
   td          1     0.00000
   td        318     0.00000
   td      24934     0.00038
    e                0.00022
   bu     189302     0.00479
   bu     208586     0.00289
   bu      73017     0.00148
   bu      15031     0.00056
    c                0.00068
   td       2331     0.00029
   td        406     0.00005
   td         38     0.00001
   td          4     0.00000
   td          0     0.00000
Trial Time:          0.01214
Source:                57297
    i                0.00041
   td          9     0.00000
   td       3391     0.00003
    e                0.00003
   bu      93514     0.00580
   bu     236874     0.00374
   bu     134145     0.00222
   bu      37718     0.00097
   bu       6940     0.00039
    c                0.00059
   td       1145     0.00015
   td        211     0.00003
   td         21     0.00000
   td          0     0.00000
Trial Time:          0.01476
Source:               473110
    i                0.00045
   td          1     0.00000
   td          4     0.00000
   td         77     0.00000
   td      15331     0.00024
    e                0.00013
   bu     155005     0.00532
   bu     219391     0.00337
   bu      95592     0.00180
   bu      23771     0.00072
    c                0.00078
   td       4024     0.00039
   td        653     0.00008
   td        107     0.00001
   td         12     0.00000
   td          0     0.00000
Trial Time:          0.01369
Source:               416546
    i                0.00044
   td          1     0.00000
   td          4     0.00000
   td         33     0.00000
   td       1853     0.00002
   td      70092     0.00137
    e                0.00062
   bu     240375     0.00385
   bu     152822     0.00227
   bu      40474     0.00101
   bu       6922     0.00040
    c                0.00061
   td       1155     0.00016
   td        215     0.00003
   td         19     0.00001
   td          3     0.00000
   td          0     0.00000
Trial Time:          0.01118
Source:                50572
    i                0.00042
   td          7     0.00000
   td        352     0.00001
   td      33479     0.00051
    e                0.00029
   bu     205690     0.00457
   bu     195025     0.00273
   bu      64438     0.00136
   bu      12526     0.00051
    c                0.00065
   td       2036     0.00023
   td        358     0.00005
   td         51     0.00001
   td          6     0.00000
   td          0     0.00000
Trial Time:          0.01171
Source:               409497
    i                0.00049
   td          1     0.00000
   td         18     0.00000
   td       2455     0.00003
    e                0.00002
   bu      74108     0.00604
   bu     225315     0.00408
   bu     152428     0.00245
   bu      48436     0.00114
   bu       9422     0.00044
    c                0.00062
   td       1492     0.00019
   td        237     0.00003
   td         50     0.00001
   td          6     0.00000
   td          0     0.00000
Trial Time:          0.01599
Average Time:        0.01399
OMP_NUM_THREADS	2
Read Time:           0.03343
Graph has 513969 nodes and 6380904 directed edges for degree: 12
Source:               102732
    i                0.00094
   td          1     0.00004
   td         11     0.00000
   td       2068     0.00003
    e                0.00002
   bu      67066     0.00420
   bu     227000     0.00291
   bu     156810     0.00143
   bu      49316     0.00062
   bu       9910     0.00025
    c                0.00039
   td       1512     0.00015
   td        234     0.00002
   td         36     0.00000
   td          4     0.00000
   td          0     0.00000
Trial Time:          0.01129
Source:               449938
    i                0.00022
   td          1     0.00000
   td          7     0.00000
   td         91     0.00000
   td       6534     0.00007
    e                0.00003
   bu     112951     0.00298
   bu     233960     0.00194
   bu     121362     0.00111
   bu      32116     0.00046
   bu       5755     0.00020
    c                0.00031
   td       1013     0.00009
   td        149     0.00001
   td         28     0.00000
   td          1     0.00000
   td          0     0.00000
Trial Time:          0.00767
Source:                 8953
    i                0.00025
   td          2     0.00000
   td          8     0.00000
   td       3439     0.00003
    e                0.00002
   bu      63485     0.00315
   bu     221727     0.00219
   bu     162437     0.00132
   bu      50929     0.00063
   bu       9971     0.00025
    c                0.00039
   td       1660     0.00013
   td        247     0.00002
   td         58     0.00001
   td          5     0.00000
   td          0     0.00000
Trial Time:          0.00861
Source:               139166
    i                0.00022
   td          1     0.00000
   td        445     0.00001
   td      23108     0.00050
    e                0.00011
   bu     154080     0.00267
   bu     216479     0.00174
   bu      93205     0.00093
   bu      22202     0.00037
    c                0.00050
   td       3722     0.00022
   td        608     0.00004
   td        106     0.00001
   td         12     0.00000
   td          0     0.00000
Trial Time:          0.00754
Source:               142426
    i                0.00025
   td         19     0.00000
   td        707     0.00001
   td      35325     0.00035
    e                0.00017
   bu     202104     0.00239
   bu     194615     0.00149
   bu      65697     0.00074
   bu      12908     0.00029
    c                0.00039
   td       2151     0.00020
   td        383     0.00003
   td         52     0.00001
   td          7     0.00000
   td          0     0.00000
Trial Time:          0.00651
Source:               210170
    i                0.00022
   td          1     0.00000
   td         38     0.00000
   td       5475     0.00006
    e                0.00003
   bu     109248     0.00296
   bu     241266     0.00184
   bu     120726     0.00109
   bu      30781     0.00046
   bu       5355     0.00020
    c                0.00032
   td        916     0.00009
   td        146     0.00001
   td         14     0.00000
   td          2     0.00000
   td          0     0.00000
Trial Time:          0.00750
Source:               476579
    i                0.00023
   td          1     0.00000
   td          1     0.00000
   td          1     0.00000
   td         12     0.00000
   td       6630     0.00006
    e                0.00003
   bu      80630     0.00306
   bu     230463     0.00205
   bu     144203     0.00126
   bu      42564     0.00056
   bu       7895     0.00023
    c                0.00034
   td       1363     0.00012
   td        189     0.00002
   td         14     0.00000
   td          2     0.00000
   td          0     0.00000
Trial Time:          0.00818
Source:               122537
    i                0.00022
   td          1     0.00000
   td         14     0.00000
   td        171     0.00000
   td      17925     0.00017
    e                0.00009
   bu     166541     0.00269
   bu     216555     0.00168
   bu      87968     0.00090
   bu      20745     0.00039
    c                0.00046
   td       3332     0.00021
   td        614     0.00004
   td         91     0.00001
   td         11     0.00000
   td          0     0.00000
Trial Time:          0.00715
Source:               264910
    i                0.00022
   td          2     0.00000
   td         50     0.00000
   td       8555     0.00009
    e                0.00004
   bu     128824     0.00289
   bu     234792     0.00182
   bu     108217     0.00103
   bu      27912     0.00042
    c                0.00054
   td       4696     0.00026
   td        787     0.00005
   td        122     0.00001
   td         11     0.00000
   td          0     0.00000
Trial Time:          0.00759
Source:               437297
    i                0.00022
   td          1     0.00000
   td          7     0.00000
   td         19     0.00000
   td       2273     0.00003
    e                0.00001
   bu      77179     0.00313
   bu     240841     0.00201
   bu     143492     0.00122
   bu      40816     0.00057
   bu       7810     0.00023
    c                0.00034
   td       1287     0.00012
   td        222     0.00002
   td         19     0.00000
   td          2     0.00000
   td          0     0.00000
Trial Time:          0.00812
Source:                90343
    i                0.00023
   td          1     0.00000
   td        318     0.00000
   td      24934     0.00030
    e                0.00013
   bu     189302     0.00253
   bu     208586     0.00153
   bu      73017     0.00079
   bu      15031     0.00030
    c                0.00041
   td       2331     0.00019
   td        406     0.00003
   td         38     0.00001
   td          4     0.00000
   td          0     0.00000
Trial Time:          0.00665
Source:                57297
    i                0.00022
   td          9     0.00000
   td       3391     0.00003
    e                0.00002
   bu      93514     0.00308
   bu     236874     0.00200
   bu     134145     0.00118
   bu      37718     0.00051
   bu       6940     0.00021
    c                0.00033
   td       1145     0.00010
   td        211     0.00002
   td         21     0.00000
   td          0     0.00000
Trial Time:          0.00792
Source:               473110
    i                0.00023
   td          1     0.00000
   td          4     0.00000
   td         77     0.00000
   td      15331     0.00020
    e                0.00007
   bu     155005     0.00280
   bu     219391     0.00179
   bu      95592     0.00097
   bu      23771     0.00039
    c                0.00048
   td       4024     0.00023
   td        653     0.00005
   td        107     0.00001
   td         12     0.00000
   td          0     0.00000
Trial Time:          0.00744
Source:               416546
    i                0.00022
   td          1     0.00000
   td          4     0.00000
   td         33     0.00000
   td       1853     0.00002
   td      70092     0.00084
    e                0.00033
   bu     240375     0.00204
   bu     152822     0.00119
   bu      40474     0.00057
   bu       6922     0.00022
    c                0.00035
   td       1155     0.00011
   td        215     0.00002
   td         19     0.00000
   td          3     0.00000
   td          0     0.00000
Trial Time:          0.00614
Source:                50572
    i                0.00023
   td          7     0.00000
   td        352     0.00000
   td      33479     0.00032
    e                0.00016
   bu     205690     0.00244
   bu     195025     0.00144
   bu      64438     0.00072
   bu      12526     0.00028
    c                0.00039
   td       2036     0.00017
   td        358     0.00003
   td         51     0.00001
   td          6     0.00000
   td          0     0.00000
Trial Time:          0.00639
Source:               409497
    i                0.00022
   td          1     0.00000
   td         18     0.00000
   td       2455     0.00003
    e                0.00001
   bu      74108     0.00318
   bu     225315     0.00217
   bu     152428     0.00131
   bu      48436     0.00060
   bu       9422     0.00024
    c                0.00035
   td       1492     0.00013
   td        237     0.00002
   td         50     0.00000
   td          6     0.00000
   td          0     0.00000
Trial Time:          0.00859
Average Time:        0.00771
OMP_NUM_THREADS	4
Read Time:           0.03319
Graph has 513969 nodes and 6380904 directed edges for degree: 12
Source:               102732
    i                0.00058
   td          1     0.00011
   td         11     0.00000
   td       2068     0.00003
    e                0.00002
   bu      67066     0.00302
   bu     227000     0.00199
   bu     156810     0.00117
   bu      49316     0.00055
   bu       9910     0.00023
    c                0.00058
   td       1512     0.00010
   td        234     0.00002
   td         36     0.00001
   td          4     0.00000
   td          0     0.00000
Trial Time:          0.00872
Source:               449938
    i                0.00027
   td          1     0.00000
   td          7     0.00000
   td         91     0.00000
   td       6534     0.00008
    e                0.00004
   bu     112951     0.00267
   bu     233960     0.00147
   bu     121362     0.00071
   bu      32116     0.00029
   bu       5755     0.00014
    c                0.00028
   td       1013     0.00006
   td        149     0.00001
   td         28     0.00000
   td          1     0.00000
   td          0     0.00000
Trial Time:          0.00625
Source:                 8953
    i                0.00026
   td          2     0.00000
   td          8     0.00000
   td       3439     0.00004
    e                0.00002
   bu      63485     0.00201
   bu     221727     0.00129
   bu     162437     0.00082
   bu      50929     0.00036
   bu       9971     0.00015
    c                0.00025
   td       1660     0.00012
   td        247     0.00001
   td         58     0.00000
   td          5     0.00000
   td          0     0.00000
Trial Time:          0.00547
Source:               139166
    i                0.00015
   td          1     0.00000
   td        445     0.00001
   td      23108     0.00041
    e                0.00008
   bu     154080     0.00160
   bu     216479     0.00104
   bu      93205     0.00053
   bu      22202     0.00022
    c                0.00037
   td       3722     0.00019
   td        608     0.00003
   td        106     0.00001
   td         12     0.00000
   td          0     0.00000
Trial Time:          0.00477
Source:               142426
    i                0.00013
   td         19     0.00000
   td        707     0.00001
   td      35325     0.00024
    e                0.00011
   bu     202104     0.00154
   bu     194615     0.00088
   bu      65697     0.00042
   bu      12908     0.00017
    c                0.00027
   td       2151     0.00014
   td        383     0.00002
   td         52     0.00000
   td          7     0.00000
   td          0     0.00000
Trial Time:          0.00408
Source:               210170
    i                0.00014
   td          1     0.00000
   td         38     0.00000
   td       5475     0.00006
    e                0.00002
   bu     109248     0.00180
   bu     241266     0.00111
   bu     120726     0.00063
   bu      30781     0.00026
   bu       5355     0.00012
    c                0.00020
   td        916     0.00006
   td        146     0.00001
   td         14     0.00000
   td          2     0.00000
   td          0     0.00000
Trial Time:          0.00456
Source:               476579
    i                0.00014
   td          1     0.00000
   td          1     0.00000
   td          1     0.00000
   td         12     0.00000
   td       6630     0.00005
    e                0.00002
   bu      80630     0.00184
   bu     230463     0.00122
   bu     144203     0.00073
   bu      42564     0.00031
   bu       7895     0.00014
    c                0.00022
   td       1363     0.00008
   td        189     0.00001
   td         14     0.00000
   td          2     0.00000
   td          0     0.00000
Trial Time:          0.00492
Source:               122537
    i                0.00015
   td          1     0.00000
   td         14     0.00000
   td        171     0.00000
   td      17925     0.00012
    e                0.00009
   bu     166541     0.00160
   bu     216555     0.00101
   bu      87968     0.00052
   bu      20745     0.00021
    c                0.00032
   td       3332     0.00017
   td        614     0.00002
   td         91     0.00001
   td         11     0.00000
   td          0     0.00000
Trial Time:          0.00445
Source:               264910
    i                0.00013
   td          2     0.00000
   td         50     0.00000
   td       8555     0.00007
    e                0.00004
   bu     128824     0.00173
   bu     234792     0.00109
   bu     108217     0.00060
   bu      27912     0.00026
    c                0.00037
   td       4696     0.00021
   td        787     0.00003
   td        122     0.00001
   td         11     0.00000
   td          0     0.00000
Trial Time:          0.00468
Source:               437297
    i                0.00013
   td          1     0.00000
   td          7     0.00000
   td         19     0.00000
   td       2273     0.00003
    e                0.00001
   bu      77179     0.00188
   bu     240841     0.00124
   bu     143492     0.00073
   bu      40816     0.00031
   bu       7810     0.00014
    c                0.00022
   td       1287     0.00008
   td        222     0.00001
   td         19     0.00000
   td          2     0.00000
   td          0     0.00000
Trial Time:          0.00494
Source:                90343
    i                0.00013
   td          1     0.00000
   td        318     0.00000
   td      24934     0.00022
    e                0.00009
   bu     189302     0.00151
   bu     208586     0.00094
   bu      73017     0.00044
   bu      15031     0.00018
    c                0.00028
   td       2331     0.00014
   td        406     0.00002
   td         38     0.00000
   td          4     0.00000
   td          0     0.00000
Trial Time:          0.00411
Source:                57297
    i                0.00014
   td          9     0.00000
   td       3391     0.00004
    e                0.00001
   bu      93514     0.00183
   bu     236874     0.00120
   bu     134145     0.00069
   bu      37718     0.00029
   bu       6940     0.00013
    c                0.00022
   td       1145     0.00007
   td        211     0.00001
   td         21     0.00000
   td          0     0.00000
Trial Time:          0.00478
Source:               473110
    i                0.00014
   td          1     0.00000
   td          4     0.00000
   td         77     0.00000
   td      15331     0.00010
    e                0.00006
   bu     155005     0.00172
   bu     219391     0.00107
   bu      95592     0.00055
   bu      23771     0.00022
    c                0.00034
   td       4024     0.00020
   td        653     0.00003
   td        107     0.00001
   td         12     0.00000
   td          0     0.00000
Trial Time:          0.00459
Source:               416546
    i                0.00013
   td          1     0.00000
   td          4     0.00000
   td         33     0.00000
   td       1853     0.00002
   td      70092     0.00056
    e                0.00025
   bu     240375     0.00123
   bu     152822     0.00071
   bu      40474     0.00030
   bu       6922     0.00014
    c                0.00024
   td       1155     0.00008
   td        215     0.00001
   td         19     0.00000
   td          3     0.00000
   td          0     0.00000
Trial Time:          0.00381
Source:                50572
    i                0.00014
   td          7     0.00000
   td        352     0.00000
   td      33479     0.00026
    e                0.00011
   bu     205690     0.00146
   bu     195025     0.00087
   bu      64438     0.00041
   bu      12526     0.00017
    c                0.00028
   td       2036     0.00013
   td        358     0.00002
   td         51     0.00000
   td          6     0.00000
   td          0     0.00000
Trial Time:          0.00398
Source:               409497
    i                0.00013
   td          1     0.00000
   td         18     0.00000
   td       2455     0.00002
    e                0.00001
   bu      74108     0.00195
   bu     225315     0.00128
   bu     152428     0.00078
   bu      48436     0.00034
   bu       9422     0.00015
    c                0.00024
   td       1492     0.00011
   td        237     0.00001
   td         50     0.00000
   td          6     0.00000
   td          0     0.00000
Trial Time:          0.00524
Average Time:        0.00496
OMP_NUM_THREADS	8
Read Time:           0.02925
Graph has 513969 nodes and 6380904 directed edges for degree: 12
Source:               102732
    i                0.00038
   td          1     0.00024
   td         11     0.00001
   td       2068     0.00008
    e                0.00001
   bu      67066     0.00186
   bu     227000     0.00127
   bu     156810     0.00072
   bu      49316     0.00037
   bu       9910     0.00020
    c                0.00037
   td       1512     0.00011
   td        234     0.00002
   td         36     0.00001
   td          4     0.00001
   td          0     0.00001
Trial Time:          0.00589
Source:               449938
    i                0.00028
   td          1     0.00001
   td          7     0.00001
   td         91     0.00001
   td       6534     0.00017
    e                0.00004
   bu     112951     0.00166
   bu     233960     0.00107
   bu     121362     0.00061
   bu      32116     0.00030
   bu       5755     0.00016
    c                0.00026
   td       1013     0.00009
   td        149     0.00002
   td         28     0.00001
   td          1     0.00001
   td          0     0.00001
Trial Time:          0.00497
Source:                 8953
    i                0.00044
   td          2     0.00001
   td          8     0.00001
   td       3439     0.00005
    e                0.00001
   bu      63485     0.00136
   bu     221727     0.00068
   bu     162437     0.00041
   bu      50929     0.00022
   bu       9971     0.00012
    c                0.00015
   td       1660     0.00010
   td        247     0.00002
   td         58     0.00001
   td          5     0.00001
   td          0     0.00000
Trial Time:          0.00370
Source:               139166
    i                0.00024
   td          1     0.00000
   td        445     0.00001
   td      23108     0.00046
    e                0.00008
   bu     154080     0.00088
   bu     216479     0.00053
   bu      93205     0.00029
   bu      22202     0.00015
    c                0.00024
   td       3722     0.00016
   td        608     0.00003
   td        106     0.00001
   td         12     0.00001
   td          0     0.00000
Trial Time:          0.00319
Source:               142426
    i                0.00017
   td         19     0.00000
   td        707     0.00001
   td      35325     0.00040
    e                0.00013
   bu     202104     0.00085
   bu     194615     0.00046
   bu      65697     0.00024
   bu      12908     0.00013
    c                0.00017
   td       2151     0.00011
   td        383     0.00002
   td         52     0.00001
   td          7     0.00000
   td          0     0.00000
Trial Time:          0.00282
Source:               210170
    i                0.00017
   td          1     0.00000
   td         38     0.00000
   td       5475     0.00004
    e                0.00002
   bu     109248     0.00097
   bu     241266     0.00058
   bu     120726     0.00037
   bu      30781     0.00018
   bu       5355     0.00010
    c                0.00014
   td        916     0.00005
   td        146     0.00001
   td         14     0.00001
   td          2     0.00001
   td          0     0.00000
Trial Time:          0.00278
Source:               476579
    i                0.00018
   td          1     0.00000
   td          1     0.00000
   td          1     0.00000
   td         12     0.00000
   td       6630     0.00005
    e                0.00002
   bu      80630     0.00100
   bu     230463     0.00064
   bu     144203     0.00038
   bu      42564     0.00020
   bu       7895     0.00011
    c                0.00014
   td       1363     0.00007
   td        189     0.00002
   td         14     0.00001
   td          2     0.00000
   td          0     0.00000
Trial Time:          0.00293
Source:               122537
    i                0.00018
   td          1     0.00000
   td         14     0.00000
   td        171     0.00001
   td      17925     0.00018
    e                0.00010
   bu     166541     0.00090
   bu     216555     0.00053
   bu      87968     0.00029
   bu      20745     0.00015
    c                0.00021
   td       3332     0.00014
   td        614     0.00003
   td         91     0.00001
   td         11     0.00001
   td          0     0.00000
Trial Time:          0.00291
Source:               264910
    i                0.00017
   td          2     0.00000
   td         50     0.00000
   td       8555     0.00008
    e                0.00004
   bu     128824     0.00095
   bu     234792     0.00064
   bu     108217     0.00032
   bu      27912     0.00017
    c                0.00026
   td       4696     0.00020
   td        787     0.00003
   td        122     0.00001
   td         11     0.00001
   td          0     0.00000
Trial Time:          0.00299
Source:               437297
    i                0.00017
   td          1     0.00000
   td          7     0.00000
   td         19     0.00000
   td       2273     0.00003
    e                0.00001
   bu      77179     0.00105
   bu     240841     0.00064
   bu     143492     0.00038
   bu      40816     0.00023
   bu       7810     0.00012
    c                0.00018
   td       1287     0.00006
   td        222     0.00002
   td         19     0.00001
   td          2     0.00000
   td          0     0.00000
Trial Time:          0.00304
Source:                90343
    i                0.00018
   td          1     0.00000
   td        318     0.00001
   td      24934     0.00024
    e                0.00011
   bu     189302     0.00083
   bu     208586     0.00048
   bu      73017     0.00026
   bu      15031     0.00014
    c                0.00018
   td       2331     0.00011
   td        406     0.00002
   td         38     0.00001
   td          4     0.00001
   td          0     0.00000
Trial Time:          0.00268
Source:                57297
    i                0.00017
   td          9     0.00000
   td       3391     0.00004
    e                0.00001
   bu      93514     0.00106
   bu     236874     0.00063
   bu     134145     0.00037
   bu      37718     0.00018
   bu       6940     0.00011
    c                0.00013
   td       1145     0.00005
   td        211     0.00001
   td         21     0.00001
   td          0     0.00000
Trial Time:          0.00289
Source:               473110
    i                0.00017
   td          1     0.00000
   td          4     0.00000
   td         77     0.00000
   td      15331     0.00014
    e                0.00006
   bu     155005     0.00092
   bu     219391     0.00056
   bu      95592     0.00036
   bu      23771     0.00016
    c                0.00022
   td       4024     0.00016
   td        653     0.00003
   td        107     0.00001
   td         12     0.00001
   td          0     0.00000
Trial Time:          0.00290
Source:               416546
    i                0.00017
   td          1     0.00000
   td          4     0.00000
   td         33     0.00000
   td       1853     0.00002
   td      70092     0.00061
    e                0.00024
   bu     240375     0.00069
   bu     152822     0.00039
   bu      40474     0.00020
   bu       6922     0.00011
    c                0.00015
   td       1155     0.00006
   td        215     0.00001
   td         19     0.00001
   td          3     0.00000
   td          0     0.00000
Trial Time:          0.00277
Source:                50572
    i                0.00018
   td          7     0.00000
   td        352     0.00001
   td      33479     0.00038
    e                0.00013
   bu     205690     0.00079
   bu     195025     0.00046
   bu      64438     0.00024
   bu      12526     0.00013
    c                0.00017
   td       2036     0.00009
   td        358     0.00002
   td         51     0.00001
   td          6     0.00000
   td          0     0.00000
Trial Time:          0.00271
Source:               409497
    i                0.00018
   td          1     0.00000
   td         18     0.00000
   td       2455     0.00003
    e                0.00001
   bu      74108     0.00106
   bu     225315     0.00073
   bu     152428     0.00041
   bu      48436     0.00021
   bu       9422     0.00011
    c                0.00015
   td       1492     0.00007
   td        237     0.00002
   td         50     0.00001
   td          6     0.00001
   td          0     0.00000
Trial Time:          0.00317
Average Time:        0.00327
OMP_NUM_THREADS	16
Read Time:           0.03409
Graph has 513969 nodes and 6380904 directed edges for degree: 12
Source:               102732
    i                0.00033
   td          1     0.00055
   td         11     0.00001
   td       2068     0.00006
    e                0.00002
   bu      67066     0.00116
   bu     227000     0.00082
   bu     156810     0.00053
   bu      49316     0.00029
   bu       9910     0.00018
    c                0.00025
   td       1512     0.00014
   td        234     0.00004
   td         36     0.00002
   td          4     0.00002
   td          0     0.00001
Trial Time:          0.00459
Source:               449938
    i                0.00020
   td          1     0.00001
   td          7     0.00001
   td         91     0.00002
   td       6534     0.00018
    e                0.00004
   bu     112951     0.00095
   bu     233960     0.00065
   bu     121362     0.00040
   bu      32116     0.00023
   bu       5755     0.00020
    c                0.00016
   td       1013     0.00007
   td        149     0.00003
   td         28     0.00002
   td          1     0.00002
   td          0     0.00001
Trial Time:          0.00333
Source:                 8953
    i                0.00021
   td          2     0.00001
   td          8     0.00001
   td       3439     0.00007
    e                0.00001
   bu      63485     0.00077
   bu     221727     0.00047
   bu     162437     0.00030
   bu      50929     0.00018
   bu       9971     0.00012
    c                0.00010
   td       1660     0.00009
   td        247     0.00002
   td         58     0.00001
   td          5     0.00001
   td          0     0.00001
Trial Time:          0.00251
Source:               139166
    i                0.00014
   td          1     0.00001
   td        445     0.00001
   td      23108     0.00047
    e                0.00009
   bu     154080     0.00057
   bu     216479     0.00036
   bu      93205     0.00023
   bu      22202     0.00015
    c                0.00017
   td       3722     0.00019
   td        608     0.00003
   td        106     0.00001
   td         12     0.00001
   td          0     0.00001
Trial Time:          0.00257
Source:               142426
    i                0.00014
   td         19     0.00001
   td        707     0.00002
   td      35325     0.00041
    e                0.00014
   bu     202104     0.00049
   bu     194615     0.00033
   bu      65697     0.00020
   bu      12908     0.00013
    c                0.00012
   td       2151     0.00009
   td        383     0.00003
   td         52     0.00001
   td          7     0.00001
   td          0     0.00001
Trial Time:          0.00225
Source:               210170
    i                0.00014
   td          1     0.00005
   td         38     0.00001
   td       5475     0.00004
    e                0.00002
   bu     109248     0.00060
   bu     241266     0.00040
   bu     120726     0.00026
   bu      30781     0.00017
   bu       5355     0.00011
    c                0.00008
   td        916     0.00005
   td        146     0.00002
   td         14     0.00001
   td          2     0.00001
   td          0     0.00001
Trial Time:          0.00207
Source:               476579
    i                0.00014
   td          1     0.00001
   td          1     0.00001
   td          1     0.00001
   td         12     0.00001
   td       6630     0.00007
    e                0.00002
   bu      80630     0.00060
   bu     230463     0.00043
   bu     144203     0.00028
   bu      42564     0.00018
   bu       7895     0.00012
    c                0.00009
   td       1363     0.00007
   td        189     0.00002
   td         14     0.00001
   td          2     0.00001
   td          0     0.00005
Trial Time:          0.00220
Source:               122537
    i                0.00013
   td          1     0.00001
   td         14     0.00001
   td        171     0.00001
   td      17925     0.00017
    e                0.00008
   bu     166541     0.00052
   bu     216555     0.00036
   bu      87968     0.00022
   bu      20745     0.00015
    c                0.00013
   td       3332     0.00013
   td        614     0.00003
   td         91     0.00002
   td         11     0.00001
   td          0     0.00001
Trial Time:          0.00216
Source:               264910
    i                0.00013
   td          2     0.00001
   td         50     0.00001
   td       8555     0.00009
    e                0.00005
   bu     128824     0.00056
   bu     234792     0.00038
   bu     108217     0.00024
   bu      27912     0.00016
    c                0.00018
   td       4696     0.00021
   td        787     0.00004
   td        122     0.00002
   td         11     0.00001
   td          0     0.00001
Trial Time:          0.00220
Source:               437297
    i                0.00013
   td          1     0.00001
   td          7     0.00001
   td         19     0.00001
   td       2273     0.00004
    e                0.00001
   bu      77179     0.00062
   bu     240841     0.00042
   bu     143492     0.00028
   bu      40816     0.00018
   bu       7810     0.00012
    c                0.00009
   td       1287     0.00007
   td        222     0.00002
   td         19     0.00001
   td          2     0.00001
   td          0     0.00001
Trial Time:          0.00212
Source:                90343
    i                0.00014
   td          1     0.00001
   td        318     0.00001
   td      24934     0.00027
    e                0.00013
   bu     189302     0.00049
   bu     208586     0.00037
   bu      73017     0.00020
   bu      15031     0.00013
    c                0.00012
   td       2331     0.00011
   td        406     0.00003
   td         38     0.00001
   td          4     0.00001
   td          0     0.00001
Trial Time:          0.00214
Source:                57297
    i                0.00013
   td          9     0.00001
   td       3391     0.00005
    e                0.00001
   bu      93514     0.00060
   bu     236874     0.00041
   bu     134145     0.00027
   bu      37718     0.00017
   bu       6940     0.00012
    c                0.00008
   td       1145     0.00007
   td        211     0.00002
   td         21     0.00001
   td          0     0.00001
Trial Time:          0.00206
Source:               473110
    i                0.00013
   td          1     0.00001
   td          4     0.00001
   td         77     0.00001
   td      15331     0.00014
    e                0.00008
   bu     155005     0.00053
   bu     219391     0.00039
   bu      95592     0.00023
   bu      23771     0.00015
    c                0.00014
   td       4024     0.00017
   td        653     0.00003
   td        107     0.00001
   td         12     0.00001
   td          0     0.00001
Trial Time:          0.00215
Source:               416546
    i                0.00013
   td          1     0.00001
   td          4     0.00001
   td         33     0.00001
   td       1853     0.00002
   td      70092     0.00074
    e                0.00027
   bu     240375     0.00042
   bu     152822     0.00028
   bu      40474     0.00018
   bu       6922     0.00012
    c                0.00010
   td       1155     0.00007
   td        215     0.00002
   td         19     0.00001
   td          3     0.00001
   td          0     0.00001
Trial Time:          0.00249
Source:                50572
    i                0.00013
   td          7     0.00001
   td        352     0.00001
   td      33479     0.00029
    e                0.00016
   bu     205690     0.00048
   bu     195025     0.00031
   bu      64438     0.00019
   bu      12526     0.00013
    c                0.00011
   td       2036     0.00008
   td        358     0.00002
   td         51     0.00001
   td          6     0.00001
   td          0     0.00001
Trial Time:          0.00208
Source:               409497
    i                0.00013
   td          1     0.00001
   td         18     0.00001
   td       2455     0.00003
    e                0.00001
   bu      74108     0.00064
   bu     225315     0.00043
   bu     152428     0.00029
   bu      48436     0.00019
   bu       9422     0.00012
    c                0.00010
   td       1492     0.00008
   td        237     0.00002
   td         50     0.00001
   td          6     0.00001
   td          0     0.00001
Trial Time:          0.00224
Average Time:        0.00245
OMP_NUM_THREADS	32
Read Time:           0.03452
Graph has 513969 nodes and 6380904 directed edges for degree: 12
Source:               102732
    i                0.00052
   td          1     0.00127
   td         11     0.00003
   td       2068     0.00008
    e                0.00002
   bu      67066     0.00097
   bu     227000     0.00067
   bu     156810     0.00036
   bu      49316     0.00024
   bu       9910     0.00016
    c                0.00021
   td       1512     0.00012
   td        234     0.00006
   td         36     0.00004
   td          4     0.00003
   td          0     0.00002
Trial Time:          0.00496
Source:               449938
    i                0.00011
   td          1     0.00002
   td          7     0.00002
   td         91     0.00003
   td       6534     0.00018
    e                0.00005
   bu     112951     0.00068
   bu     233960     0.00045
   bu     121362     0.00029
   bu      32116     0.00021
   bu       5755     0.00014
    c                0.00011
   td       1013     0.00009
   td        149     0.00004
   td         28     0.00003
   td          1     0.00003
   td          0     0.00002
Trial Time:          0.00261
Source:                 8953
    i                0.00012
   td          2     0.00002
   td          8     0.00002
   td       3439     0.00008
    e                0.00002
   bu      63485     0.00073
   bu     221727     0.00048
   bu     162437     0.00031
   bu      50929     0.00020
   bu       9971     0.00015
    c                0.00013
   td       1660     0.00012
   td        247     0.00004
   td         58     0.00004
   td          5     0.00002
   td          0     0.00002
Trial Time:          0.00262
Source:               139166
    i                0.00009
   td          1     0.00002
   td        445     0.00002
   td      23108     0.00043
    e                0.00010
   bu     154080     0.00041
   bu     216479     0.00027
   bu      93205     0.00019
   bu      22202     0.00013
    c                0.00014
   td       3722     0.00012
   td        608     0.00004
   td        106     0.00003
   td         12     0.00002
   td          0     0.00002
Trial Time:          0.00213
Source:               142426
    i                0.00008
   td         19     0.00001
   td        707     0.00003
   td      35325     0.00045
    e                0.00015
   bu     202104     0.00037
   bu     194615     0.00023
   bu      65697     0.00016
   bu      12908     0.00012
    c                0.00008
   td       2151     0.00009
   td        383     0.00005
   td         52     0.00002
   td          7     0.00002
   td          0     0.00002
Trial Time:          0.00196
Source:               210170
    i                0.00008
   td          1     0.00001
   td         38     0.00002
   td       5475     0.00006
    e                0.00003
   bu     109248     0.00046
   bu     241266     0.00029
   bu     120726     0.00019
   bu      30781     0.00014
   bu       5355     0.00010
    c                0.00005
   td        916     0.00005
   td        146     0.00003
   td         14     0.00002
   td          2     0.00002
   td          0     0.00002
Trial Time:          0.00166
Source:               476579
    i                0.00008
   td          1     0.00001
   td          1     0.00002
   td          1     0.00001
   td         12     0.00001
   td       6630     0.00008
    e                0.00002
   bu      80630     0.00050
   bu     230463     0.00031
   bu     144203     0.00020
   bu      42564     0.00015
   bu       7895     0.00011
    c                0.00006
   td       1363     0.00006
   td        189     0.00003
   td         14     0.00002
   td          2     0.00002
   td          0     0.00002
Trial Time:          0.00180
Source:               122537
    i                0.00008
   td          1     0.00001
   td         14     0.00001
   td        171     0.00002
   td      17925     0.00020
    e                0.00009
   bu     166541     0.00039
   bu     216555     0.00025
   bu      87968     0.00017
   bu      20745     0.00013
    c                0.00009
   td       3332     0.00011
   td        614     0.00004
   td         91     0.00002
   td         11     0.00002
   td          0     0.00002
Trial Time:          0.00182
Source:               264910
    i                0.00008
   td          2     0.00002
   td         50     0.00002
   td       8555     0.00010
    e                0.00005
   bu     128824     0.00041
   bu     234792     0.00030
   bu     108217     0.00018
   bu      27912     0.00014
    c                0.00010
   td       4696     0.00013
   td        787     0.00004
   td        122     0.00003
   td         11     0.00002
   td          0     0.00002
Trial Time:          0.00171
Source:               437297
    i                0.00007
   td          1     0.00002
   td          7     0.00002
   td         19     0.00002
   td       2273     0.00004
    e                0.00002
   bu      77179     0.00048
   bu     240841     0.00031
   bu     143492     0.00021
   bu      40816     0.00015
   bu       7810     0.00011
    c                0.00006
   td       1287     0.00007
   td        222     0.00003
   td         19     0.00002
   td          2     0.00002
   td          0     0.00001
Trial Time:          0.00172
Source:                90343
    i                0.00008
   td          1     0.00001
   td        318     0.00002
   td      24934     0.00024
    e                0.00013
   bu     189302     0.00036
   bu     208586     0.00024
   bu      73017     0.00016
   bu      15031     0.00013
    c                0.00008
   td       2331     0.00010
   td        406     0.00004
   td         38     0.00002
   td          4     0.00002
   td          0     0.00002
Trial Time:          0.00172
Source:                57297
    i                0.00008
   td          9     0.00001
   td       3391     0.00006
    e                0.00001
   bu      93514     0.00043
   bu     236874     0.00030
   bu     134145     0.00020
   bu      37718     0.00014
   bu       6940     0.00011
    c                0.00006
   td       1145     0.00005
   td        211     0.00003
   td         21     0.00002
   td          0     0.00002
Trial Time:          0.00159
Source:               473110
    i                0.00008
   td          1     0.00001
   td          4     0.00002
   td         77     0.00001
   td      15331     0.00016
    e                0.00007
   bu     155005     0.00040
   bu     219391     0.00026
   bu      95592     0.00018
   bu      23771     0.00014
    c                0.00009
   td       4024     0.00012
   td        653     0.00004
   td        107     0.00002
   td         12     0.00002
   td          0     0.00002
Trial Time:          0.00171
Source:               416546
    i                0.00007
   td          1     0.00001
   td          4     0.00001
   td         33     0.00001
   td       1853     0.00004
   td      70092     0.00070
    e                0.00027
   bu     240375     0.00030
   bu     152822     0.00020
   bu      40474     0.00015
   bu       6922     0.00011
    c                0.00009
   td       1155     0.00006
   td        215     0.00003
   td         19     0.00002
   td          3     0.00002
   td          0     0.00001
Trial Time:          0.00220
Source:                50572
    i                0.00008
   td          7     0.00001
   td        352     0.00002
   td      33479     0.00029
    e                0.00014
   bu     205690     0.00034
   bu     195025     0.00023
   bu      64438     0.00016
   bu      12526     0.00012
    c                0.00008
   td       2036     0.00007
   td        358     0.00003
   td         51     0.00002
   td          6     0.00002
   td          0     0.00002
Trial Time:          0.00171
Source:               409497
    i                0.00008
   td          1     0.00002
   td         18     0.00002
   td       2455     0.00004
    e                0.00002
   bu      74108     0.00050
   bu     225315     0.00032
   bu     152428     0.00022
   bu      48436     0.00015
   bu       9422     0.00011
    c                0.00006
   td       1492     0.00006
   td        237     0.00003
   td         50     0.00002
   td          6     0.00002
   td          0     0.00002
Trial Time:          0.00182
Average Time:        0.00211
OMP_NUM_THREADS	64
Read Time:           0.03754
Graph has 513969 nodes and 6380904 directed edges for degree: 12
Source:               102732
    i                0.00051
   td          1     0.00362
   td         11     0.00006
   td       2068     0.00010
    e                0.00004
   bu      67066     0.00106
   bu     227000     0.00091
   bu     156810     0.00052
   bu      49316     0.00035
   bu       9910     0.00023
    c                0.00021
   td       1512     0.00021
   td        234     0.00011
   td         36     0.00007
   td          4     0.00006
   td          0     0.00005
Trial Time:          0.00831
Source:               449938
    i                0.00010
   td          1     0.00005
   td          7     0.00005
   td         91     0.00005
   td       6534     0.00028
    e                0.00008
   bu     112951     0.00079
   bu     233960     0.00052
   bu     121362     0.00039
   bu      32116     0.00028
   bu       5755     0.00020
    c                0.00006
   td       1013     0.00013
   td        149     0.00007
   td         28     0.00005
   td          1     0.00004
   td          0     0.00004
Trial Time:          0.00334
Source:                 8953
    i                0.00008
   td          2     0.00004
   td          8     0.00004
   td       3439     0.00013
    e                0.00003
   bu      63485     0.00073
   bu     221727     0.00055
   bu     162437     0.00036
   bu      50929     0.00030
   bu       9971     0.00021
    c                0.00007
   td       1660     0.00020
   td        247     0.00008
   td         58     0.00006
   td          5     0.00005
   td          0     0.00004
Trial Time:          0.00312
Source:               139166
    i                0.00008
   td          1     0.00004
   td        445     0.00006
   td      23108     0.00080
    e                0.00023
   bu     154080     0.00042
   bu     216479     0.00037
   bu      93205     0.00032
   bu      22202     0.00020
    c                0.00019
   td       3722     0.00023
   td        608     0.00010
   td        106     0.00006
   td         12     0.00005
   td          0     0.00004
Trial Time:          0.00332
Source:               142426
    i                0.00008
   td         19     0.00004
   td        707     0.00006
   td      35325     0.00066
    e                0.00026
   bu     202104     0.00039
   bu     194615     0.00031
   bu      65697     0.00024
   bu      12908     0.00018
    c                0.00007
   td       2151     0.00016
   td        383     0.00010
   td         52     0.00007
   td          7     0.00006
   td          0     0.00005
Trial Time:          0.00287
Source:               210170
    i                0.00008
   td          1     0.00004
   td         38     0.00004
   td       5475     0.00009
    e                0.00005
   bu     109248     0.00047
   bu     241266     0.00036
   bu     120726     0.00025
   bu      30781     0.00020
   bu       5355     0.00016
    c                0.00005
   td        916     0.00009
   td        146     0.00006
   td         14     0.00005
   td          2     0.00004
   td          0     0.00004
Trial Time:          0.00217
Source:               476579
    i                0.00007
   td          1     0.00004
   td          1     0.00004
   td          1     0.00004
   td         12     0.00004
   td       6630     0.00011
    e                0.00003
   bu      80630     0.00046
   bu     230463     0.00037
   bu     144203     0.00026
   bu      42564     0.00033
   bu       7895     0.00015
    c                0.00006
   td       1363     0.00013
   td        189     0.00006
   td         14     0.00005
   td          2     0.00004
   td          0     0.00004
Trial Time:          0.00242
Source:               122537
    i                0.00007
   td          1     0.00004
   td         14     0.00003
   td        171     0.00004
   td      17925     0.00026
    e                0.00014
   bu     166541     0.00039
   bu     216555     0.00030
   bu      87968     0.00023
   bu      20745     0.00017
    c                0.00007
   td       3332     0.00016
   td        614     0.00007
   td         91     0.00005
   td         11     0.00004
   td          0     0.00004
Trial Time:          0.00229
Source:               264910
    i                0.00007
   td          2     0.00004
   td         50     0.00004
   td       8555     0.00012
    e                0.00007
   bu     128824     0.00041
   bu     234792     0.00040
   bu     108217     0.00024
   bu      27912     0.00018
    c                0.00008
   td       4696     0.00017
   td        787     0.00008
   td        122     0.00006
   td         11     0.00004
   td          0     0.00004
Trial Time:          0.00216
Source:               437297
    i                0.00007
   td          1     0.00004
   td          7     0.00004
   td         19     0.00004
   td       2273     0.00007
    e                0.00003
   bu      77179     0.00055
   bu     240841     0.00035
   bu     143492     0.00027
   bu      40816     0.00020
   bu       7810     0.00015
    c                0.00006
   td       1287     0.00011
   td        222     0.00006
   td         19     0.00005
   td          2     0.00004
   td          0     0.00003
Trial Time:          0.00228
Source:                90343
    i                0.00007
   td          1     0.00004
   td        318     0.00005
   td      24934     0.00031
    e                0.00024
   bu     189302     0.00035
   bu     208586     0.00029
   bu      73017     0.00022
   bu      15031     0.00017
    c                0.00007
   td       2331     0.00014
   td        406     0.00007
   td         38     0.00005
   td          4     0.00004
   td          0     0.00004
Trial Time:          0.00225
Source:                57297
    i                0.00007
   td          9     0.00004
   td       3391     0.00008
    e                0.00003
   bu      93514     0.00046
   bu     236874     0.00035
   bu     134145     0.00026
   bu      37718     0.00020
   bu       6940     0.00015
    c                0.00006
   td       1145     0.00011
   td        211     0.00006
   td         21     0.00005
   td          0     0.00004
Trial Time:          0.00205
Source:               473110
    i                0.00007
   td          1     0.00006
   td          4     0.00005
   td         77     0.00004
   td      15331     0.00026
    e                0.00011
   bu     155005     0.00038
   bu     219391     0.00031
   bu      95592     0.00024
   bu      23771     0.00018
    c                0.00008
   td       4024     0.00016
   td        653     0.00007
   td        107     0.00005
   td         12     0.00005
   td          0     0.00004
Trial Time:          0.00233
Source:               416546
    i                0.00007
   td          1     0.00003
   td          4     0.00004
   td         33     0.00004
   td       1853     0.00006
   td      70092     0.00106
    e                0.00048
   bu     240375     0.00032
   bu     152822     0.00027
   bu      40474     0.00019
   bu       6922     0.00015
    c                0.00012
   td       1155     0.00012
   td        215     0.00006
   td         19     0.00005
   td          3     0.00004
   td          0     0.00004
Trial Time:          0.00325
Source:                50572
    i                0.00007
   td          7     0.00004
   td        352     0.00004
   td      33479     0.00060
    e                0.00026
   bu     205690     0.00033
   bu     195025     0.00029
   bu      64438     0.00022
   bu      12526     0.00016
    c                0.00007
   td       2036     0.00013
   td        358     0.00006
   td         51     0.00005
   td          6     0.00004
   td          0     0.00004
Trial Time:          0.00252
Source:               409497
    i                0.00011
   td          1     0.00004
   td         18     0.00003
   td       2455     0.00007
    e                0.00003
   bu      74108     0.00048
   bu     225315     0.00037
   bu     152428     0.00026
   bu      48436     0.00020
   bu       9422     0.00015
    c                0.00006
   td       1492     0.00011
   td        237     0.00006
   td         50     0.00005
   td          6     0.00004
   td          0     0.00004
Trial Time:          0.00229
Average Time:        0.00294
OMP_NUM_THREADS	128
Read Time:           0.04554
Graph has 513969 nodes and 6380904 directed edges for degree: 12
Source:               102732
    i                0.00060
   td          1     0.00765
   td         11     0.00011
   td       2068     0.00016
    e                0.00008
   bu      67066     0.00115
   bu     227000     0.00083
   bu     156810     0.00046
   bu      49316     0.00038
   bu       9910     0.00029
    c                0.00032
   td       1512     0.00024
   td        234     0.00015
   td         36     0.00011
   td          4     0.00010
   td          0     0.00010
Trial Time:          0.01309
Source:               449938
    i                0.00014
   td          1     0.00010
   td          7     0.00010
   td         91     0.00011
   td       6534     0.00024
    e                0.00014
   bu     112951     0.00077
   bu     233960     0.00052
   bu     121362     0.00040
   bu      32116     0.00032
   bu       5755     0.00025
    c                0.00014
   td       1013     0.00020
   td        149     0.00013
   td         28     0.00011
   td          1     0.00010
   td          0     0.00010
Trial Time:          0.00416
Source:                 8953
    i                0.00013
   td          2     0.00010
   td          8     0.00010
   td       3439     0.00022
    e                0.00018
   bu      63485     0.00076
   bu     221727     0.00056
   bu     162437     0.00040
   bu      50929     0.00030
   bu       9971     0.00022
    c                0.00011
   td       1660     0.00022
   td        247     0.00012
   td         58     0.00010
   td          5     0.00009
   td          0     0.00009
Trial Time:          0.00394
Source:               139166
    i                0.00011
   td          1     0.00008
   td        445     0.00010
   td      23108     0.00075
    e                0.00019
   bu     154080     0.00051
   bu     216479     0.00041
   bu      93205     0.00030
   bu      22202     0.00026
    c                0.00025
   td       3722     0.00032
   td        608     0.00014
   td        106     0.00010
   td         12     0.00009
   td          0     0.00008
Trial Time:          0.00395
Source:               142426
    i                0.00011
   td         19     0.00008
   td        707     0.00010
   td      35325     0.00057
    e                0.00029
   bu     202104     0.00047
   bu     194615     0.00037
   bu      65697     0.00030
   bu      12908     0.00022
    c                0.00011
   td       2151     0.00023
   td        383     0.00015
   td         52     0.00010
   td          7     0.00008
   td          0     0.00008
Trial Time:          0.00350
Source:               210170
    i                0.00011
   td          1     0.00009
   td         38     0.00008
   td       5475     0.00013
    e                0.00009
   bu     109248     0.00057
   bu     241266     0.00044
   bu     120726     0.00032
   bu      30781     0.00027
   bu       5355     0.00021
    c                0.00010
   td        916     0.00016
   td        146     0.00011
   td         14     0.00009
   td          2     0.00008
   td          0     0.00008
Trial Time:          0.00317
Source:               476579
    i                0.00011
   td          1     0.00008
   td          1     0.00009
   td          1     0.00008
   td         12     0.00009
   td       6630     0.00015
    e                0.00008
   bu      80630     0.00053
   bu     230463     0.00041
   bu     144203     0.00032
   bu      42564     0.00035
   bu       7895     0.00023
    c                0.00010
   td       1363     0.00017
   td        189     0.00011
   td         14     0.00009
   td          2     0.00008
   td          0     0.00008
Trial Time:          0.00341
Source:               122537
    i                0.00011
   td          1     0.00008
   td         14     0.00009
   td        171     0.00008
   td      17925     0.00034
    e                0.00019
   bu     166541     0.00055
   bu     216555     0.00037
   bu      87968     0.00028
   bu      20745     0.00025
    c                0.00011
   td       3332     0.00025
   td        614     0.00014
   td         91     0.00010
   td         11     0.00009
   td          0     0.00008
Trial Time:          0.00339
Source:               264910
    i                0.00011
   td          2     0.00008
   td         50     0.00008
   td       8555     0.00017
    e                0.00012
   bu     128824     0.00052
   bu     234792     0.00038
   bu     108217     0.00030
   bu      27912     0.00025
    c                0.00012
   td       4696     0.00024
   td        787     0.00014
   td        122     0.00011
   td         11     0.00009
   td          0     0.00008
Trial Time:          0.00304
Source:               437297
    i                0.00011
   td          1     0.00011
   td          7     0.00008
   td         19     0.00008
   td       2273     0.00012
    e                0.00008
   bu      77179     0.00055
   bu     240841     0.00041
   bu     143492     0.00030
   bu      40816     0.00027
   bu       7810     0.00022
    c                0.00010
   td       1287     0.00017
   td        222     0.00011
   td         19     0.00009
   td          2     0.00008
   td          0     0.00008
Trial Time:          0.00323
Source:                90343
    i                0.00011
   td          1     0.00008
   td        318     0.00009
   td      24934     0.00033
    e                0.00024
   bu     189302     0.00044
   bu     208586     0.00034
   bu      73017     0.00028
   bu      15031     0.00023
    c                0.00010
   td       2331     0.00020
   td        406     0.00011
   td         38     0.00010
   td          4     0.00009
   td          0     0.00008
Trial Time:          0.00308
Source:                57297
    i                0.00011
   td          9     0.00008
   td       3391     0.00013
    e                0.00008
   bu      93514     0.00057
   bu     236874     0.00038
   bu     134145     0.00031
   bu      37718     0.00028
   bu       6940     0.00022
    c                0.00009
   td       1145     0.00016
   td        211     0.00011
   td         21     0.00009
   td          0     0.00009
Trial Time:          0.00294
Source:               473110
    i                0.00011
   td          1     0.00009
   td          4     0.00008
   td         77     0.00008
   td      15331     0.00025
    e                0.00015
   bu     155005     0.00049
   bu     219391     0.00036
   bu      95592     0.00029
   bu      23771     0.00025
    c                0.00012
   td       4024     0.00024
   td        653     0.00013
   td        107     0.00010
   td         12     0.00009
   td          0     0.00010
Trial Time:          0.00317
Source:               416546
    i                0.00011
   td          1     0.00008
   td          4     0.00008
   td         33     0.00009
   td       1853     0.00011
   td      70092     0.00106
    e                0.00050
   bu     240375     0.00032
   bu     152822     0.00031
   bu      40474     0.00027
   bu       6922     0.00021
    c                0.00020
   td       1155     0.00018
   td        215     0.00011
   td         19     0.00009
   td          3     0.00011
   td          0     0.00009
Trial Time:          0.00416
Source:                50572
    i                0.00011
   td          7     0.00008
   td        352     0.00009
   td      33479     0.00056
    e                0.00028
   bu     205690     0.00042
   bu     195025     0.00033
   bu      64438     0.00028
   bu      12526     0.00024
    c                0.00011
   td       2036     0.00020
   td        358     0.00011
   td         51     0.00010
   td          6     0.00008
   td          0     0.00008
Trial Time:          0.00331
Source:               409497
    i                0.00011
   td          1     0.00008
   td         18     0.00008
   td       2455     0.00014
    e                0.00008
   bu      74108     0.00066
   bu     225315     0.00041
   bu     152428     0.00033
   bu      48436     0.00026
   bu       9422     0.00022
    c                0.00010
   td       1492     0.00018
   td        237     0.00011
   td         50     0.00009
   td          6     0.00008
   td          0     0.00008
Trial Time:          0.00332
Average Time:        0.00405
