OMP_NUM_THREADS	1
Read Time:           0.05477
Graph has 513969 nodes and 6380904 directed edges for degree: 12
Source:               102732
    i                0.00118
   td          1     0.00001
   td         11     0.00000
   td       2068     0.00003
    e                0.00002
   bu      67066     0.00641
   bu     227000     0.00445
   bu     156810     0.00267
   bu      49316     0.00145
   bu       9910     0.00063
    c                0.00059
   td       1512     0.00028
   td        234     0.00005
   td         36     0.00001
   td          4     0.00000
   td          0     0.00000
Trial Time:          0.01821
Source:               449938
    i                0.00042
   td          1     0.00000
   td          7     0.00000
   td         91     0.00000
   td       6534     0.00010
    e                0.00006
   bu     112951     0.00601
   bu     233960     0.00394
   bu     121362     0.00228
   bu      32116     0.00107
   bu       5755     0.00054
    c                0.00050
   td       1013     0.00017
   td        149     0.00003
   td         28     0.00000
   td          1     0.00000
   td          0     0.00000
Trial Time:          0.01550
Source:                 8953
    i                0.00042
   td          2     0.00000
   td          8     0.00000
   td       3439     0.00004
    e                0.00003
   bu      63485     0.00629
   bu     221727     0.00444
   bu     162437     0.00272
   bu      50929     0.00140
   bu       9971     0.00065
    c                0.00054
   td       1660     0.00027
   td        247     0.00004
   td         58     0.00001
   td          5     0.00000
   td          0     0.00000
Trial Time:          0.01727
Source:               139166
    i                0.00043
   td          1     0.00000
   td        445     0.00001
   td      23108     0.00075
    e                0.00021
   bu     154080     0.00539
   bu     216479     0.00349
   bu      93205     0.00196
   bu      22202     0.00088
    c                0.00071
   td       3722     0.00046
   td        608     0.00008
   td        106     0.00001
   td         12     0.00000
   td          0     0.00000
Trial Time:          0.01477
Source:               142426
    i                0.00042
   td         19     0.00000
   td        707     0.00001
   td      35325     0.00067
    e                0.00036
   bu     202104     0.00486
   bu     194615     0.00298
   bu      65697     0.00155
   bu      12908     0.00070
    c                0.00058
   td       2151     0.00031
   td        383     0.00006
   td         52     0.00001
   td          7     0.00000
   td          0     0.00000
Trial Time:          0.01289
Source:               210170
    i                0.00046
   td          1     0.00000
   td         38     0.00000
   td       5475     0.00007
    e                0.00005
   bu     109248     0.00587
   bu     241266     0.00382
   bu     120726     0.00225
   bu      30781     0.00104
   bu       5355     0.00054
    c                0.00056
   td        916     0.00016
   td        146     0.00003
   td         14     0.00000
   td          2     0.00000
   td          0     0.00000
Trial Time:          0.01522
Source:               476579
    i                0.00043
   td          1     0.00000
   td          1     0.00000
   td          1     0.00000
   td         12     0.00000
   td       6630     0.00007
    e                0.00006
   bu      80630     0.00610
   bu     230463     0.00422
   bu     144203     0.00252
   bu      42564     0.00124
   bu       7895     0.00059
    c                0.00052
   td       1363     0.00021
   td        189     0.00004
   td         14     0.00000
   td          2     0.00000
   td          0     0.00000
Trial Time:          0.01640
Source:               122537
    i                0.00045
   td          1     0.00000
   td         14     0.00000
   td        171     0.00000
   td      17925     0.00030
    e                0.00016
   bu     166541     0.00539
   bu     216555     0.00346
   bu      87968     0.00189
   bu      20745     0.00085
    c                0.00068
   td       3332     0.00042
   td        614     0.00008
   td         91     0.00001
   td         11     0.00000
   td          0     0.00000
Trial Time:          0.01416
Source:               264910
    i                0.00043
   td          2     0.00000
   td         50     0.00000
   td       8555     0.00012
    e                0.00008
   bu     128824     0.00577
   bu     234792     0.00374
   bu     108217     0.00215
   bu      27912     0.00098
    c                0.00072
   td       4696     0.00057
   td        787     0.00011
   td        122     0.00002
   td         11     0.00000
   td          0     0.00000
Trial Time:          0.01508
Source:               437297
    i                0.00043
   td          1     0.00000
   td          7     0.00000
   td         19     0.00000
   td       2273     0.00003
    e                0.00002
   bu      77179     0.00617
   bu     240841     0.00419
   bu     143492     0.00253
   bu      40816     0.00124
   bu       7810     0.00059
    c                0.00054
   td       1287     0.00020
   td        222     0.00004
   td         19     0.00001
   td          2     0.00000
   td          0     0.00000
Trial Time:          0.01636
Source:                90343
    i                0.00042
   td          1     0.00000
   td        318     0.00001
   td      24934     0.00040
    e                0.00022
   bu     189302     0.00513
   bu     208586     0.00313
   bu      73017     0.00169
   bu      15031     0.00074
    c                0.00059
   td       2331     0.00032
   td        406     0.00006
   td         38     0.00001
   td          4     0.00000
   td          0     0.00000
Trial Time:          0.01310
Source:                57297
    i                0.00042
   td          9     0.00000
   td       3391     0.00004
    e                0.00003
   bu      93514     0.00611
   bu     236874     0.00407
   bu     134145     0.00239
   bu      37718     0.00120
   bu       6940     0.00057
    c                0.00051
   td       1145     0.00019
   td        211     0.00003
   td         21     0.00000
   td          0     0.00000
Trial Time:          0.01594
Source:               473110
    i                0.00042
   td          1     0.00000
   td          4     0.00000
   td         77     0.00000
   td      15331     0.00020
    e                0.00014
   bu     155005     0.00566
   bu     219391     0.00365
   bu      95592     0.00199
   bu      23771     0.00091
    c                0.00068
   td       4024     0.00049
   td        653     0.00009
   td        107     0.00001
   td         12     0.00000
   td          0     0.00000
Trial Time:          0.01463
Source:               416546
    i                0.00042
   td          1     0.00000
   td          4     0.00000
   td         33     0.00000
   td       1853     0.00003
   td      70092     0.00145
   td     240375     0.01527
   td     152822     0.01309
   td      40474     0.00415
   td       6922     0.00079
   td       1155     0.00016
   td        215     0.00002
   td         19     0.00000
   td          3     0.00000
   td          0     0.00000
Trial Time:          0.03579
Source:                50572
    i                0.00044
   td          7     0.00000
   td        352     0.00001
   td      33479     0.00052
    e                0.00030
   bu     205690     0.00490
   bu     195025     0.00300
   bu      64438     0.00155
   bu      12526     0.00069
    c                0.00059
   td       2036     0.00028
   td        358     0.00005
   td         51     0.00001
   td          6     0.00000
   td          0     0.00000
Trial Time:          0.01272
Source:               409497
    i                0.00044
   td          1     0.00000
   td         18     0.00000
   td       2455     0.00003
    e                0.00002
   bu      74108     0.00634
   bu     225315     0.00441
   bu     152428     0.00263
   bu      48436     0.00137
   bu       9422     0.00062
    c                0.00054
   td       1492     0.00023
   td        237     0.00004
   td         50     0.00001
   td          6     0.00000
   td          0     0.00000
Trial Time:          0.01714
Average Time:        0.01657
OMP_NUM_THREADS	2
Read Time:           0.05473
Graph has 513969 nodes and 6380904 directed edges for degree: 12
Source:               102732
    i                0.00079
   td          1     0.00002
   td         11     0.00001
   td       2068     0.00003
    e                0.00002
   bu      67066     0.00404
   bu     227000     0.00285
   bu     156810     0.00189
   bu      49316     0.00097
   bu       9910     0.00056
    c                0.00037
   td       1512     0.00037
   td        234     0.00009
   td         36     0.00002
   td          4     0.00001
   td          0     0.00000
Trial Time:          0.01237
Source:               449938
    i                0.00178
   td          1     0.00001
   td          7     0.00001
   td         91     0.00001
   td       6534     0.00012
    e                0.00008
   bu     112951     0.00363
   bu     233960     0.00252
   bu     121362     0.00152
   bu      32116     0.00082
   bu       5755     0.00051
    c                0.00031
   td       1013     0.00021
   td        149     0.00007
   td         28     0.00001
   td          1     0.00000
   td          0     0.00001
Trial Time:          0.01192
Source:                 8953
    i                0.00174
   td          2     0.00000
   td          8     0.00000
   td       3439     0.00004
    e                0.00002
   bu      63485     0.00380
   bu     221727     0.00278
   bu     162437     0.00184
   bu      50929     0.00091
   bu       9971     0.00058
    c                0.00033
   td       1660     0.00036
   td        247     0.00007
   td         58     0.00002
   td          5     0.00001
   td          0     0.00001
Trial Time:          0.01283
Source:               139166
    i                0.00175
   td          1     0.00001
   td        445     0.00001
   td      23108     0.00076
    e                0.00022
   bu     154080     0.00329
   bu     216479     0.00227
   bu      93205     0.00124
   bu      22202     0.00066
    c                0.00051
   td       3722     0.00056
   td        608     0.00016
   td        106     0.00004
   td         12     0.00001
   td          0     0.00000
Trial Time:          0.01182
Source:               142426
    i                0.00174
   td         19     0.00001
   td        707     0.00002
   td      35325     0.00069
    e                0.00048
   bu     202104     0.00305
   bu     194615     0.00204
   bu      65697     0.00100
   bu      12908     0.00065
    c                0.00040
   td       2151     0.00042
   td        383     0.00010
   td         52     0.00003
   td          7     0.00001
   td          0     0.00001
Trial Time:          0.01096
Source:               210170
    i                0.00173
   td          1     0.00001
   td         38     0.00001
   td       5475     0.00007
    e                0.00006
   bu     109248     0.00353
   bu     241257     0.00243
   bu     120727     0.00147
   bu      30781     0.00076
   bu       5355     0.00049
    c                0.00029
   td        916     0.00020
   td        146     0.00006
   td         14     0.00001
   td          2     0.00000
   td          0     0.00001
Trial Time:          0.01143
Source:               476579
    i                0.00174
   td          1     0.00001
   td          1     0.00001
   td          1     0.00001
   td         12     0.00000
   td       6630     0.00008
    e                0.00005
   bu      80630     0.00366
   bu     230463     0.00267
   bu     144203     0.00168
   bu      42564     0.00087
   bu       7895     0.00056
    c                0.00032
   td       1363     0.00027
   td        189     0.00007
   td         14     0.00001
   td          2     0.00000
   td          0     0.00001
Trial Time:          0.01231
Source:               122537
    i                0.00173
   td          1     0.00001
   td         14     0.00000
   td        171     0.00001
   td      17925     0.00026
    e                0.00021
   bu     166541     0.00324
   bu     216555     0.00225
   bu      87968     0.00124
   bu      20745     0.00064
    c                0.00047
   td       3332     0.00053
   td        614     0.00015
   td         91     0.00004
   td         11     0.00001
   td          0     0.00000
Trial Time:          0.01117
Source:               264910
    i                0.00172
   td          2     0.00001
   td         50     0.00000
   td       8555     0.00012
    e                0.00009
   bu     128824     0.00348
   bu     234792     0.00243
   bu     108217     0.00142
   bu      27912     0.00076
    c                0.00051
   td       4696     0.00066
   td        787     0.00019
   td        122     0.00005
   td         11     0.00001
   td          0     0.00000
Trial Time:          0.01180
Source:               437297
    i                0.00171
   td          1     0.00001
   td          7     0.00000
   td         19     0.00001
   td       2273     0.00003
    e                0.00002
   bu      77179     0.00376
   bu     240841     0.00263
   bu     143492     0.00170
   bu      40816     0.00084
   bu       7810     0.00054
    c                0.00031
   td       1287     0.00027
   td        222     0.00007
   td         19     0.00002
   td          2     0.00000
   td          0     0.00001
Trial Time:          0.01226
Source:                90343
    i                0.00173
   td          1     0.00001
   td        318     0.00001
   td      24934     0.00040
    e                0.00030
   bu     189302     0.00313
   bu     208586     0.00210
   bu      73017     0.00108
   bu      15031     0.00059
    c                0.00039
   td       2331     0.00047
   td        406     0.00010
   td         38     0.00003
   td          4     0.00001
   td          0     0.00000
Trial Time:          0.01065
Source:                57297
    i                0.00174
   td          9     0.00001
   td       3391     0.00004
    e                0.00002
   bu      93514     0.00366
   bu     236874     0.00253
   bu     134145     0.00165
   bu      37718     0.00082
   bu       6940     0.00053
    c                0.00031
   td       1145     0.00025
   td        211     0.00007
   td         21     0.00002
   td          0     0.00001
Trial Time:          0.01197
Source:               473110
    i                0.00175
   td          1     0.00001
   td          4     0.00001
   td         77     0.00000
   td      15331     0.00021
    e                0.00014
   bu     155005     0.00343
   bu     219391     0.00231
   bu      95592     0.00131
   bu      23771     0.00067
    c                0.00047
   td       4024     0.00058
   td        653     0.00016
   td        107     0.00004
   td         12     0.00001
   td          0     0.00000
Trial Time:          0.01141
Source:               416546
    i                0.00173
   td          1     0.00001
   td          4     0.00000
   td         33     0.00000
   td       1853     0.00003
   td      70092     0.00284
   td     240375     0.01809
   td     152822     0.01433
   td      40474     0.00464
   td       6922     0.00090
   td       1155     0.00017
   td        215     0.00004
   td         19     0.00001
   td          3     0.00000
   td          0     0.00001
Trial Time:          0.04311
Source:                50572
    i                0.00173
   td          7     0.00001
   td        352     0.00001
   td      33479     0.00051
    e                0.00041
   bu     205690     0.00310
   bu     195025     0.00209
   bu      64438     0.00101
   bu      12526     0.00063
    c                0.00036
   td       2036     0.00038
   td        358     0.00010
   td         51     0.00003
   td          6     0.00001
   td          0     0.00001
Trial Time:          0.01065
Source:               409497
    i                0.00173
   td          1     0.00001
   td         18     0.00001
   td       2455     0.00003
    e                0.00004
   bu      74108     0.00382
   bu     225315     0.00274
   bu     152428     0.00181
   bu      48436     0.00089
   bu       9422     0.00058
    c                0.00034
   td       1492     0.00033
   td        237     0.00007
   td         50     0.00002
   td          6     0.00001
   td          0     0.00000
Trial Time:          0.01281
Average Time:        0.01372
OMP_NUM_THREADS	4
Read Time:           0.05182
Graph has 513969 nodes and 6380904 directed edges for degree: 12
Source:               102732
    i                0.00094
   td          1     0.00002
   td         11     0.00001
   td       2068     0.00004
    e                0.00002
   bu      67066     0.00238
   bu     227000     0.00176
   bu     156804     0.00116
   bu      49316     0.00081
   bu       9910     0.00047
    c                0.00056
   td       1512     0.00024
   td        234     0.00009
   td         36     0.00003
   td          4     0.00001
   td          0     0.00001
Trial Time:          0.00883
Source:               449938
    i                0.00088
   td          1     0.00001
   td          7     0.00001
   td         91     0.00001
   td       6534     0.00013
    e                0.00006
   bu     112951     0.00231
   bu     233960     0.00158
   bu     121362     0.00097
   bu      32116     0.00068
   bu       5755     0.00055
    c                0.00037
   td       1013     0.00014
   td        149     0.00009
   td         28     0.00001
   td          1     0.00001
   td          0     0.00001
Trial Time:          0.00810
Source:                 8953
    i                0.00086
   td          2     0.00001
   td          8     0.00001
   td       3439     0.00004
    e                0.00003
   bu      63485     0.00229
   bu     221727     0.00146
   bu     162433     0.00110
   bu      50929     0.00076
   bu       9971     0.00039
    c                0.00021
   td       1660     0.00021
   td        247     0.00008
   td         58     0.00003
   td          5     0.00001
   td          0     0.00001
Trial Time:          0.00768
Source:               139166
    i                0.00088
   td          1     0.00001
   td        445     0.00001
   td      23108     0.00080
    e                0.00035
   bu     154080     0.00210
   bu     216479     0.00151
   bu      93205     0.00092
   bu      22202     0.00062
    c                0.00077
   td       3722     0.00044
   td        608     0.00013
   td        106     0.00005
   td         12     0.00001
   td          0     0.00001
Trial Time:          0.00893
Source:               142426
    i                0.00098
   td         19     0.00001
   td        707     0.00002
   td      35325     0.00073
    e                0.00046
   bu     202104     0.00186
   bu     194615     0.00137
   bu      65697     0.00075
   bu      12908     0.00057
    c                0.00056
   td       2151     0.00030
   td        383     0.00008
   td         52     0.00003
   td          7     0.00001
   td          0     0.00001
Trial Time:          0.00806
Source:               210170
    i                0.00104
   td          1     0.00001
   td         38     0.00001
   td       5475     0.00007
    e                0.00008
   bu     109248     0.00198
   bu     241266     0.00151
   bu     120716     0.00081
   bu      30778     0.00070
   bu       5355     0.00038
    c                0.00017
   td        916     0.00015
   td        146     0.00006
   td         14     0.00001
   td          2     0.00001
   td          0     0.00001
Trial Time:          0.00721
Source:               476579
    i                0.00087
   td          1     0.00001
   td          1     0.00001
   td          1     0.00001
   td         12     0.00001
   td       6630     0.00008
    e                0.00003
   bu      80630     0.00205
   bu     230463     0.00151
   bu     144203     0.00106
   bu      42564     0.00071
   bu       7895     0.00054
    c                0.00021
   td       1363     0.00019
   td        189     0.00007
   td         14     0.00002
   td          2     0.00001
   td          0     0.00001
Trial Time:          0.00759
Source:               122537
    i                0.00078
   td          1     0.00001
   td         14     0.00001
   td        171     0.00001
   td      17925     0.00027
    e                0.00018
   bu     166541     0.00189
   bu     216555     0.00119
   bu      87968     0.00084
   bu      20745     0.00053
    c                0.00029
   td       3332     0.00036
   td        614     0.00009
   td         91     0.00005
   td         11     0.00001
   td          0     0.00001
Trial Time:          0.00677
Source:               264910
    i                0.00087
   td          2     0.00001
   td         50     0.00001
   td       8555     0.00012
    e                0.00009
   bu     128824     0.00197
   bu     234792     0.00137
   bu     108217     0.00087
   bu      27912     0.00063
    c                0.00034
   td       4696     0.00043
   td        787     0.00014
   td        122     0.00006
   td         11     0.00001
   td          0     0.00001
Trial Time:          0.00712
Source:               437297
    i                0.00082
   td          1     0.00001
   td          7     0.00001
   td         19     0.00001
   td       2273     0.00003
    e                0.00002
   bu      77179     0.00206
   bu     240841     0.00163
   bu     143492     0.00100
   bu      40816     0.00067
   bu       7810     0.00055
    c                0.00019
   td       1287     0.00022
   td        222     0.00007
   td         19     0.00002
   td          2     0.00001
   td          0     0.00001
Trial Time:          0.00751
Source:                90343
    i                0.00092
   td          1     0.00001
   td        318     0.00001
   td      24934     0.00043
    e                0.00033
   bu     189302     0.00173
   bu     208586     0.00121
   bu      73017     0.00079
   bu      15031     0.00063
    c                0.00024
   td       2331     0.00032
   td        406     0.00007
   td         38     0.00003
   td          4     0.00001
   td          0     0.00001
Trial Time:          0.00693
Source:                57297
    i                0.00085
   td          9     0.00001
   td       3391     0.00004
    e                0.00002
   bu      93514     0.00214
   bu     236874     0.00138
   bu     134145     0.00089
   bu      37718     0.00069
   bu       6940     0.00049
    c                0.00018
   td       1145     0.00020
   td        211     0.00006
   td         21     0.00002
   td          0     0.00001
Trial Time:          0.00716
Source:               473110
    i                0.00087
   td          1     0.00001
   td          4     0.00001
   td         77     0.00001
   td      15331     0.00022
    e                0.00012
   bu     155005     0.00186
   bu     219391     0.00140
   bu      95592     0.00088
   bu      23771     0.00068
    c                0.00032
   td       4024     0.00038
   td        653     0.00010
   td        107     0.00005
   td         12     0.00001
   td          0     0.00001
Trial Time:          0.00713
Source:               416546
    i                0.00081
   td          1     0.00001
   td          4     0.00001
   td         33     0.00001
   td       1853     0.00003
   td      70092     0.00287
   td     240375     0.01103
   td     152822     0.00784
   td      40474     0.00254
   td       6922     0.00058
   td       1155     0.00015
   td        215     0.00005
   td         19     0.00002
   td          3     0.00001
   td          0     0.00001
Trial Time:          0.02616
Source:                50572
    i                0.00088
   td          7     0.00001
   td        352     0.00001
   td      33479     0.00054
    e                0.00035
   bu     205690     0.00171
   bu     195025     0.00121
   bu      64438     0.00081
   bu      12526     0.00063
    c                0.00023
   td       2036     0.00022
   td        358     0.00009
   td         51     0.00003
   td          6     0.00001
   td          0     0.00001
Trial Time:          0.00689
Source:               409497
    i                0.00083
   td          1     0.00001
   td         18     0.00001
   td       2455     0.00003
    e                0.00003
   bu      74108     0.00218
   bu     225315     0.00148
   bu     152428     0.00107
   bu      48436     0.00082
   bu       9422     0.00045
    c                0.00020
   td       1492     0.00020
   td        237     0.00008
   td         50     0.00002
   td          6     0.00001
   td          0     0.00001
Trial Time:          0.00769
Average Time:        0.00873
OMP_NUM_THREADS	8
Read Time:           0.06168
Graph has 513969 nodes and 6380904 directed edges for degree: 12
Source:               102732
    i                0.00055
   td          1     0.00002
   td         11     0.00001
   td       2068     0.00005
    e                0.00002
   bu      67066     0.00152
   bu     227000     0.00107
   bu     156810     0.00076
   bu      49316     0.00050
   bu       9910     0.00037
    c                0.00034
   td       1512     0.00020
   td        234     0.00010
   td         36     0.00004
   td          4     0.00001
   td          0     0.00001
Trial Time:          0.00572
Source:               449938
    i                0.00050
   td          1     0.00001
   td          7     0.00001
   td         91     0.00001
   td       6534     0.00022
    e                0.00005
   bu     112951     0.00127
   bu     233911     0.00092
   bu     121365     0.00070
   bu      32118     0.00051
   bu       5751     0.00036
    c                0.00015
   td       1015     0.00016
   td        153     0.00011
   td         28     0.00002
   td          1     0.00001
   td          0     0.00001
Trial Time:          0.00518
Source:                 8953
    i                0.00063
   td          2     0.00001
   td          8     0.00001
   td       3439     0.00009
    e                0.00002
   bu      63485     0.00149
   bu     221727     0.00097
   bu     162437     0.00071
   bu      50929     0.00051
   bu       9971     0.00034
    c                0.00034
   td       1660     0.00015
   td        247     0.00008
   td         58     0.00003
   td          5     0.00001
   td          0     0.00001
Trial Time:          0.00561
Source:               139166
    i                0.00043
   td          1     0.00001
   td        445     0.00003
   td      23108     0.00125
    e                0.00011
   bu     154080     0.00109
   bu     216479     0.00091
   bu      93205     0.00058
   bu      22202     0.00041
    c                0.00030
   td       3722     0.00026
   td        608     0.00011
   td        106     0.00006
   td         12     0.00002
   td          0     0.00001
Trial Time:          0.00576
Source:               142426
    i                0.00047
   td         19     0.00001
   td        707     0.00004
   td      35325     0.00117
    e                0.00028
   bu     202104     0.00107
   bu     194614     0.00083
   bu      65697     0.00062
   bu      12908     0.00039
    c                0.00019
   td       2151     0.00018
   td        383     0.00012
   td         52     0.00004
   td          7     0.00001
   td          0     0.00001
Trial Time:          0.00563
Source:               210170
    i                0.00048
   td          1     0.00001
   td         38     0.00001
   td       5475     0.00009
    e                0.00006
   bu     109248     0.00135
   bu     241266     0.00103
   bu     120726     0.00076
   bu      30781     0.00052
   bu       5355     0.00035
    c                0.00016
   td        916     0.00011
   td        146     0.00008
   td         14     0.00002
   td          2     0.00001
   td          0     0.00001
Trial Time:          0.00525
Source:               476579
    i                0.00042
   td          1     0.00001
   td          1     0.00001
   td          1     0.00001
   td         12     0.00001
   td       6630     0.00011
    e                0.00003
   bu      80630     0.00146
   bu     230463     0.00106
   bu     144203     0.00070
   bu      42564     0.00051
   bu       7895     0.00037
    c                0.00020
   td       1363     0.00015
   td        189     0.00009
   td         14     0.00002
   td          2     0.00001
   td          0     0.00001
Trial Time:          0.00537
Source:               122537
    i                0.00045
   td          1     0.00001
   td         14     0.00001
   td        171     0.00001
   td      17925     0.00032
    e                0.00015
   bu     166541     0.00120
   bu     216548     0.00084
   bu      87968     0.00061
   bu      20745     0.00041
    c                0.00021
   td       3332     0.00026
   td        614     0.00008
   td         91     0.00006
   td         11     0.00001
   td          0     0.00001
Trial Time:          0.00486
Source:               264910
    i                0.00043
   td          2     0.00001
   td         50     0.00001
   td       8555     0.00014
    e                0.00006
   bu     128824     0.00125
   bu     234792     0.00089
   bu     108217     0.00057
   bu      27912     0.00044
    c                0.00026
   td       4696     0.00031
   td        787     0.00008
   td        122     0.00007
   td         11     0.00001
   td          0     0.00001
Trial Time:          0.00470
Source:               437297
    i                0.00044
   td          1     0.00001
   td          7     0.00001
   td         19     0.00001
   td       2273     0.00007
    e                0.00002
   bu      77179     0.00125
   bu     240841     0.00100
   bu     143492     0.00062
   bu      40816     0.00052
   bu       7810     0.00037
    c                0.00014
   td       1287     0.00013
   td        222     0.00007
   td         19     0.00002
   td          2     0.00001
   td          0     0.00001
Trial Time:          0.00482
Source:                90343
    i                0.00042
   td          1     0.00001
   td        318     0.00001
   td      24934     0.00047
    e                0.00024
   bu     189302     0.00106
   bu     208586     0.00076
   bu      72998     0.00050
   bu      15033     0.00042
    c                0.00019
   td       2332     0.00019
   td        406     0.00007
   td         38     0.00004
   td          4     0.00001
   td          0     0.00001
Trial Time:          0.00453
Source:                57297
    i                0.00043
   td          9     0.00001
   td       3391     0.00004
    e                0.00002
   bu      93514     0.00126
   bu     236855     0.00095
   bu     134121     0.00068
   bu      37725     0.00046
   bu       6948     0.00037
    c                0.00014
   td       1150     0.00011
   td        211     0.00007
   td         21     0.00002
   td          0     0.00001
Trial Time:          0.00470
Source:               473110
    i                0.00043
   td          1     0.00001
   td          4     0.00001
   td         77     0.00001
   td      15331     0.00024
    e                0.00008
   bu     155005     0.00116
   bu     219391     0.00079
   bu      95591     0.00061
   bu      23768     0.00040
    c                0.00023
   td       4019     0.00027
   td        653     0.00011
   td        107     0.00005
   td         12     0.00001
   td          0     0.00001
Trial Time:          0.00458
Source:               416546
    i                0.00043
   td          1     0.00001
   td          4     0.00001
   td         33     0.00001
   td       1853     0.00006
   td      70092     0.00139
   td     240375     0.00653
   td     152822     0.00457
   td      40474     0.00156
   td       6922     0.00039
   td       1155     0.00011
   td        215     0.00005
   td         19     0.00002
   td          3     0.00001
   td          0     0.00001
Trial Time:          0.01535
Source:                50572
    i                0.00046
   td          7     0.00001
   td        352     0.00001
   td      33479     0.00058
    e                0.00027
   bu     205690     0.00110
   bu     195025     0.00079
   bu      64433     0.00057
   bu      12524     0.00035
    c                0.00022
   td       2036     0.00015
   td        358     0.00008
   td         51     0.00003
   td          6     0.00001
   td          0     0.00001
Trial Time:          0.00479
Source:               409497
    i                0.00042
   td          1     0.00001
   td         18     0.00001
   td       2455     0.00007
    e                0.00002
   bu      74108     0.00139
   bu     225315     0.00097
   bu     152428     0.00074
   bu      48436     0.00046
   bu       9422     0.00037
    c                0.00020
   td       1492     0.00015
   td        237     0.00008
   td         50     0.00002
   td          6     0.00001
   td          0     0.00001
Trial Time:          0.00519
Average Time:        0.00575
OMP_NUM_THREADS	16
Read Time:           0.05980
Graph has 513969 nodes and 6380904 directed edges for degree: 12
Source:               102732
    i                0.00077
   td          1     0.00007
   td         11     0.00005
   td       2068     0.00012
    e                0.00003
   bu      67066     0.00161
   bu     227000     0.00082
   bu     156810     0.00056
   bu      49316     0.00042
   bu       9910     0.00031
    c                0.00036
   td       1512     0.00012
   td        234     0.00013
   td         36     0.00003
   td          4     0.00001
   td          0     0.00001
Trial Time:          0.00568
Source:               449938
    i                0.00036
   td          1     0.00001
   td          7     0.00001
   td         91     0.00001
   td       6534     0.00026
    e                0.00003
   bu     112951     0.00094
   bu     233955     0.00066
   bu     121362     0.00049
   bu      32116     0.00038
   bu       5755     0.00033
    c                0.00017
   td       1013     0.00017
   td        149     0.00009
   td         28     0.00003
   td          1     0.00001
   td          0     0.00001
Trial Time:          0.00415
Source:                 8953
    i                0.00035
   td          2     0.00001
   td          8     0.00001
   td       3439     0.00013
    e                0.00002
   bu      63485     0.00103
   bu     221727     0.00074
   bu     162437     0.00052
   bu      50929     0.00036
   bu       9971     0.00029
    c                0.00012
   td       1659     0.00011
   td        247     0.00012
   td         58     0.00003
   td          5     0.00002
   td          0     0.00001
Trial Time:          0.00400
Source:               139166
    i                0.00032
   td          1     0.00001
   td        445     0.00003
   td      23108     0.00146
    e                0.00009
   bu     154080     0.00082
   bu     216452     0.00062
   bu      93202     0.00041
   bu      22205     0.00035
    c                0.00023
   td       3729     0.00019
   td        608     0.00014
   td        106     0.00007
   td         12     0.00001
   td          0     0.00008
Trial Time:          0.00497
Source:               142426
    i                0.00029
   td         19     0.00001
   td        707     0.00005
   td      35325     0.00145
    e                0.00020
   bu     202104     0.00077
   bu     194615     0.00058
   bu      65697     0.00039
   bu      12908     0.00031
    c                0.00015
   td       2151     0.00014
   td        383     0.00010
   td         52     0.00005
   td          7     0.00001
   td          0     0.00001
Trial Time:          0.00464
Source:               210170
    i                0.00029
   td          1     0.00001
   td         38     0.00001
   td       5475     0.00020
    e                0.00003
   bu     109248     0.00086
   bu     241266     0.00059
   bu     120726     0.00045
   bu      30781     0.00033
   bu       5355     0.00030
    c                0.00013
   td        916     0.00012
   td        146     0.00012
   td         14     0.00007
   td          2     0.00001
   td          0     0.00001
Trial Time:          0.00365
Source:               476579
    i                0.00032
   td          1     0.00001
   td          1     0.00001
   td          1     0.00001
   td         12     0.00001
   td       6630     0.00019
    e                0.00003
   bu      80630     0.00090
   bu     230463     0.00069
   bu     144203     0.00048
   bu      42551     0.00040
   bu       7892     0.00030
    c                0.00012
   td       1363     0.00023
   td        189     0.00009
   td         14     0.00002
   td          2     0.00001
   td          0     0.00001
Trial Time:          0.00398
Source:               122537
    i                0.00032
   td          1     0.00001
   td         14     0.00001
   td        171     0.00002
   td      17925     0.00058
    e                0.00010
   bu     166541     0.00079
   bu     216555     0.00063
   bu      87968     0.00045
   bu      20745     0.00033
    c                0.00016
   td       3332     0.00024
   td        614     0.00013
   td         91     0.00008
   td         11     0.00002
   td          0     0.00001
Trial Time:          0.00410
Source:               264910
    i                0.00032
   td          2     0.00001
   td         50     0.00001
   td       8555     0.00022
    e                0.00006
   bu     128824     0.00084
   bu     234781     0.00067
   bu     108209     0.00043
   bu      27913     0.00038
    c                0.00020
   td       4696     0.00025
   td        787     0.00012
   td        122     0.00006
   td         11     0.00002
   td          0     0.00001
Trial Time:          0.00376
Source:               437297
    i                0.00031
   td          1     0.00001
   td          7     0.00001
   td         19     0.00001
   td       2273     0.00008
    e                0.00002
   bu      77179     0.00097
   bu     240841     0.00066
   bu     143491     0.00059
   bu      40816     0.00034
   bu       7810     0.00029
    c                0.00012
   td       1287     0.00020
   td        222     0.00012
   td         19     0.00002
   td          2     0.00001
   td          0     0.00001
Trial Time:          0.00391
Source:                90343
    i                0.00031
   td          1     0.00001
   td        318     0.00002
   td      24934     0.00060
    e                0.00017
   bu     189302     0.00072
   bu     208586     0.00062
   bu      73017     0.00040
   bu      15031     0.00033
    c                0.00015
   td       2331     0.00027
   td        406     0.00009
   td         38     0.00003
   td          4     0.00001
   td          0     0.00003
Trial Time:          0.00390
Source:                57297
    i                0.00030
   td          9     0.00001
   td       3391     0.00009
    e                0.00002
   bu      93514     0.00087
   bu     236874     0.00067
   bu     134145     0.00049
   bu      37718     0.00041
   bu       6940     0.00031
    c                0.00011
   td       1145     0.00019
   td        211     0.00009
   td         21     0.00002
   td          0     0.00001
Trial Time:          0.00371
Source:               473110
    i                0.00032
   td          1     0.00001
   td          4     0.00001
   td         77     0.00001
   td      15331     0.00040
    e                0.00007
   bu     155005     0.00076
   bu     219388     0.00063
   bu      95590     0.00044
   bu      23771     0.00033
    c                0.00017
   td       4024     0.00027
   td        653     0.00014
   td        107     0.00006
   td         12     0.00001
   td          0     0.00001
Trial Time:          0.00379
Source:               416546
    i                0.00030
   td          1     0.00001
   td          4     0.00001
   td         33     0.00001
   td       1853     0.00009
   td      70092     0.00438
   td     240375     0.00520
   td     152822     0.00293
   td      40474     0.00099
   td       6922     0.00028
   td       1155     0.00009
   td        215     0.00005
   td         19     0.00002
   td          3     0.00001
   td          0     0.00001
Trial Time:          0.01450
Source:                50572
    i                0.00032
   td          7     0.00001
   td        352     0.00002
   td      33479     0.00086
    e                0.00020
   bu     205690     0.00074
   bu     194971     0.00058
   bu      64425     0.00043
   bu      12541     0.00030
    c                0.00014
   td       2039     0.00022
   td        358     0.00013
   td         51     0.00003
   td          6     0.00001
   td          0     0.00001
Trial Time:          0.00410
Source:               409497
    i                0.00031
   td          1     0.00001
   td         18     0.00001
   td       2455     0.00010
    e                0.00002
   bu      74108     0.00091
   bu     225315     0.00070
   bu     152428     0.00050
   bu      48436     0.00038
   bu       9422     0.00030
    c                0.00013
   td       1492     0.00011
   td        237     0.00010
   td         50     0.00002
   td          6     0.00001
   td          0     0.00001
Trial Time:          0.00383
Average Time:        0.00479
OMP_NUM_THREADS	32
Read Time:           0.06405
Graph has 513969 nodes and 6380904 directed edges for degree: 12
Source:               102732
    i                0.00048
   td          1     0.00005
   td         11     0.00004
   td       2068     0.00007
    e                0.00003
   bu      67066     0.00182
   bu     226996     0.00127
   bu     156760     0.00075
   bu      49263     0.00063
   bu       9911     0.00056
    c                0.00052
   td       1513     0.00042
   td        234     0.00033
   td         36     0.00004
   td          4     0.00004
   td          0     0.00004
Trial Time:          0.00734
Source:               449938
    i                0.00025
   td          1     0.00004
   td          7     0.00004
   td         91     0.00004
   td       6534     0.00019
    e                0.00005
   bu     112951     0.00116
   bu     233960     0.00080
   bu     121341     0.00070
   bu      32111     0.00060
   bu       5755     0.00070
    c                0.00011
   td       1013     0.00039
   td        149     0.00011
   td         28     0.00004
   td          1     0.00004
   td          0     0.00004
Trial Time:          0.00547
Source:                 8953
    i                0.00030
   td          2     0.00004
   td          8     0.00004
   td       3439     0.00008
    e                0.00003
   bu      63485     0.00099
   bu     221727     0.00103
   bu     162437     0.00071
   bu      50929     0.00446
   bu       9971     0.00026
    c                0.00008
   td       1660     0.00020
   td        247     0.00008
   td         58     0.00002
   td          5     0.00001
   td          0     0.00001
Trial Time:          0.00851
Source:               139166
    i                0.00017
   td          1     0.00001
   td        445     0.00002
   td      23108     0.00097
    e                0.00011
   bu     154080     0.00063
   bu     216471     0.00047
   bu      93205     0.00038
   bu      22202     0.00030
    c                0.00020
   td       3722     0.00018
   td        608     0.00014
   td        106     0.00005
   td         12     0.00001
   td          0     0.00001
Trial Time:          0.00380
Source:               142426
    i                0.00016
   td         19     0.00001
   td        707     0.00003
   td      35325     0.00099
    e                0.00018
   bu     202104     0.00062
   bu     194613     0.00048
   bu      65697     0.00034
   bu      12908     0.00027
    c                0.00010
   td       2151     0.00024
   td        383     0.00009
   td         52     0.00003
   td          7     0.00002
   td          0     0.00001
Trial Time:          0.00375
Source:               210170
    i                0.00017
   td          1     0.00001
   td         38     0.00001
   td       5475     0.00011
    e                0.00003
   bu     109248     0.00072
   bu     241266     0.00062
   bu     120726     0.00041
   bu      30779     0.00030
   bu       5355     0.00024
    c                0.00007
   td        916     0.00012
   td        146     0.00007
   td         14     0.00002
   td          2     0.00001
   td          0     0.00001
Trial Time:          0.00306
Source:               476579
    i                0.00017
   td          1     0.00001
   td          1     0.00001
   td          1     0.00001
   td         12     0.00001
   td       6630     0.00013
    e                0.00002
   bu      80630     0.00079
   bu     230463     0.00061
   bu     144203     0.00043
   bu      42564     0.00033
   bu       7895     0.00028
    c                0.00008
   td       1363     0.00021
   td        189     0.00012
   td         14     0.00002
   td          2     0.00001
   td          0     0.00001
Trial Time:          0.00340
Source:               122537
    i                0.00016
   td          1     0.00001
   td         14     0.00001
   td        171     0.00001
   td      17925     0.00038
    e                0.00010
   bu     166541     0.00066
   bu     216555     0.00046
   bu      87968     0.00036
   bu      20745     0.00030
    c                0.00010
   td       3332     0.00023
   td        614     0.00013
   td         91     0.00005
   td         11     0.00001
   td          0     0.00001
Trial Time:          0.00321
Source:               264910
    i                0.00016
   td          2     0.00001
   td         50     0.00001
   td       8555     0.00018
    e                0.00005
   bu     128824     0.00076
   bu     234792     0.00052
   bu     108211     0.00042
   bu      27912     0.00028
    c                0.00013
   td       4696     0.00036
   td        787     0.00011
   td        122     0.00005
   td         11     0.00002
   td          0     0.00001
Trial Time:          0.00322
Source:               437297
    i                0.00017
   td          1     0.00001
   td          7     0.00001
   td         19     0.00001
   td       2273     0.00005
    e                0.00002
   bu      77179     0.00084
   bu     240841     0.00055
   bu     143489     0.00044
   bu      40816     0.00029
   bu       7810     0.00023
    c                0.00009
   td       1287     0.00016
   td        222     0.00008
   td         19     0.00003
   td          2     0.00001
   td          0     0.00001
Trial Time:          0.00315
Source:                90343
    i                0.00017
   td          1     0.00001
   td        318     0.00002
   td      24934     0.00057
    e                0.00014
   bu     189302     0.00065
   bu     208582     0.00043
   bu      73018     0.00034
   bu      15030     0.00026
    c                0.00010
   td       2331     0.00029
   td        406     0.00011
   td         38     0.00004
   td          4     0.00001
   td          0     0.00001
Trial Time:          0.00330
Source:                57297
    i                0.00017
   td          9     0.00001
   td       3391     0.00007
    e                0.00002
   bu      93514     0.00072
   bu     236874     0.00049
   bu     134142     0.00039
   bu      37718     0.00031
   bu       6940     0.00024
    c                0.00007
   td       1145     0.00016
   td        211     0.00009
   td         21     0.00002
   td          0     0.00001
Trial Time:          0.00291
Source:               473110
    i                0.00017
   td          1     0.00001
   td          4     0.00001
   td         77     0.00001
   td      15331     0.00030
    e                0.00007
   bu     155005     0.00070
   bu     219391     0.00056
   bu      95592     0.00038
   bu      23771     0.00028
    c                0.00011
   td       4021     0.00023
   td        653     0.00015
   td        107     0.00005
   td         12     0.00001
   td          0     0.00001
Trial Time:          0.00320
Source:               416546
    i                0.00017
   td          1     0.00001
   td          4     0.00001
   td         33     0.00001
   td       1853     0.00005
   td      70092     0.00210
   td     240375     0.00403
   td     152822     0.00240
   td      40474     0.00075
   td       6922     0.00025
   td       1155     0.00011
   td        215     0.00006
   td         19     0.00002
   td          3     0.00001
   td          0     0.00001
Trial Time:          0.01013
Source:                50572
    i                0.00019
   td          7     0.00001
   td        352     0.00002
   td      33479     0.00070
    e                0.00016
   bu     205690     0.00065
   bu     195025     0.00052
   bu      64438     0.00036
   bu      12526     0.00033
    c                0.00009
   td       2036     0.00023
   td        358     0.00012
   td         51     0.00003
   td          6     0.00001
   td          0     0.00001
Trial Time:          0.00354
Source:               409497
    i                0.00016
   td          1     0.00001
   td         18     0.00001
   td       2455     0.00006
    e                0.00002
   bu      74108     0.00081
   bu     225315     0.00058
   bu     152428     0.00043
   bu      48429     0.00034
   bu       9418     0.00026
    c                0.00008
   td       1482     0.00015
   td        237     0.00008
   td         50     0.00003
   td          6     0.00001
   td          0     0.00001
Trial Time:          0.00327
Average Time:        0.00445
OMP_NUM_THREADS	64
Read Time:           0.08745
Graph has 513969 nodes and 6380904 directed edges for degree: 12
Source:               102732
    i                0.00054
   td          1     0.00028
   td         11     0.00023
   td       2068     0.00033
    e                0.00017
   bu      67066     0.00390
   bu     227000     0.00174
   bu     156789     0.01052
   bu      49301     0.01364
   bu       9912     0.00171
    c                0.00496
   td       1512     0.00135
   td        234     0.00163
   td         36     0.00017
   td          4     0.00017
   td          0     0.00020
Trial Time:          0.04183
Source:               449938
    i                0.00038
   td          1     0.00012
   td          7     0.00018
   td         91     0.00020
   td       6534     0.00027
    e                0.00011
   bu     112951     0.00169
   bu     233960     0.00200
   bu     121362     0.00146
   bu      32116     0.00182
   bu       5755     0.00156
    c                0.00020
   td       1013     0.00165
   td        149     0.00024
   td         28     0.00015
   td          1     0.00019
   td          0     0.00015
Trial Time:          0.01275
Source:                 8953
    i                0.00037
   td          2     0.00017
   td          8     0.00017
   td       3439     0.00015
    e                0.00007
   bu      63485     0.00202
   bu     221727     0.00185
   bu     162437     0.03817
   bu      50928     0.00141
   bu       9971     0.00141
    c                0.00021
   td       1660     0.00184
   td        247     0.00164
   td         58     0.00015
   td          5     0.00012
   td          0     0.00014
Trial Time:          0.05019
Source:               139166
    i                0.00042
   td          1     0.00012
   td        445     0.00012
   td      23108     0.00119
    e                0.00018
   bu     154080     0.00176
   bu     216462     0.00148
   bu      93211     0.00172
   bu      22203     0.00134
    c                0.00028
   td       3722     0.00167
   td        608     0.00132
   td        106     0.00015
   td         12     0.00012
   td          0     0.00012
Trial Time:          0.01228
Source:               142426
    i                0.00036
   td         19     0.00012
   td        707     0.00012
   td      35325     0.00117
    e                0.00024
   bu     202104     0.00210
   bu     194612     0.00152
   bu      65695     0.00819
   bu      12901     0.00148
    c                0.00017
   td       2151     0.00131
   td        383     0.00124
   td         52     0.00009
   td          7     0.00010
   td          0     0.00008
Trial Time:          0.01855
Source:               210170
    i                0.00026
   td          1     0.00009
   td         38     0.00012
   td       5475     0.00018
    e                0.00007
   bu     109248     0.00155
   bu     241266     0.00133
   bu     120726     0.00135
   bu      30774     0.00111
   bu       5355     0.02482
    c                0.00016
   td        912     0.00114
   td        146     0.00016
   td         14     0.00010
   td          2     0.00008
   td          0     0.00009
Trial Time:          0.03287
Source:               476579
    i                0.00026
   td          1     0.00009
   td          1     0.00008
   td          1     0.00007
   td         12     0.00009
   td       6630     0.00019
    e                0.00007
   bu      80630     0.00329
   bu     230463     0.00117
   bu     144203     0.01814
   bu      42564     0.00102
   bu       7895     0.00095
    c                0.00014
   td       1363     0.00095
   td        189     0.00077
   td         14     0.00012
   td          2     0.00008
   td          0     0.00011
Trial Time:          0.02788
Source:               122537
    i                0.00025
   td          1     0.00009
   td         14     0.00008
   td        171     0.00008
   td      17925     0.00049
    e                0.00028
   bu     166541     0.00113
   bu     216555     0.00110
   bu      87968     0.00087
   bu      20745     0.00100
    c                0.00017
   td       3332     0.00119
   td        614     0.00136
   td         91     0.00012
   td         11     0.00009
   td          0     0.00008
Trial Time:          0.00866
Source:               264910
    i                0.00025
   td          2     0.00008
   td         50     0.00009
   td       8555     0.00025
    e                0.00012
   bu     128824     0.00246
   bu     234792     0.00115
   bu     108217     0.00088
   bu      27907     0.00121
    c                0.00016
   td       4696     0.00123
   td        787     0.00074
   td        122     0.00011
   td         11     0.00007
   td          0     0.00007
Trial Time:          0.00913
Source:               437297
    i                0.00019
   td          1     0.00008
   td          7     0.00007
   td         19     0.00007
   td       2273     0.00009
    e                0.00006
   bu      77179     0.00122
   bu     240838     0.01570
   bu     143491     0.00107
   bu      40817     0.01717
   bu       7811     0.02067
    c                0.00014
   td       1287     0.00068
   td        222     0.00070
   td         19     0.00007
   td          2     0.00007
   td          0     0.00007
Trial Time:          0.05838
Source:                90343
    i                0.00020
   td          1     0.00008
   td        318     0.00009
   td      24934     0.00072
    e                0.00019
   bu     189302     0.00595
   bu     208563     0.00169
   bu      73015     0.00112
   bu      15031     0.00101
    c                0.00017
   td       2332     0.00114
   td        406     0.00073
   td         38     0.00011
   td          4     0.00010
   td          0     0.00008
Trial Time:          0.01363
Source:                57297
    i                0.00019
   td          9     0.00014
   td       3391     0.00015
    e                0.00005
   bu      93514     0.00395
   bu     236874     0.00127
   bu     134145     0.00105
   bu      37718     0.01250
   bu       6939     0.00081
    c                0.00014
   td       1145     0.00107
   td        211     0.00108
   td         21     0.00008
   td          0     0.00007
Trial Time:          0.02282
Source:               473110
    i                0.00020
   td          1     0.00007
   td          4     0.00008
   td         77     0.00007
   td      15331     0.00057
    e                0.00010
   bu     155005     0.00108
   bu     219390     0.00113
   bu      95588     0.00094
   bu      23770     0.00095
    c                0.00015
   td       4024     0.00096
   td        653     0.00107
   td        107     0.00009
   td         12     0.00009
   td          0     0.00007
Trial Time:          0.00780
Source:               416546
    i                0.00020
   td          1     0.00009
   td          4     0.00007
   td         33     0.00007
   td       1853     0.00010
   td      70092     0.00309
   td     240375     0.00467
   td     152822     0.00255
   td      40474     0.00110
   td       6922     0.00104
   td       1155     0.00098
   td        215     0.00143
   td         19     0.00010
   td          3     0.00008
   td          0     0.00007
Trial Time:          0.01581
Source:                50572
    i                0.00022
   td          7     0.00007
   td        352     0.00012
   td      33479     0.00113
    e                0.00023
   bu     205690     0.00124
   bu     195025     0.00105
   bu      64435     0.00070
   bu      12525     0.00097
    c                0.00014
   td       2036     0.00116
   td        358     0.00104
   td         51     0.00009
   td          6     0.00007
   td          0     0.00007
Trial Time:          0.00845
Source:               409497
    i                0.00020
   td          1     0.00009
   td         18     0.00007
   td       2455     0.00020
    e                0.00005
   bu      74108     0.00143
   bu     225315     0.00128
   bu     152427     0.00106
   bu      48429     0.01982
   bu       9422     0.00087
    c                0.00015
   td       1492     0.00160
   td        237     0.00123
   td         50     0.00010
   td          6     0.00009
   td          0     0.00010
Trial Time:          0.02864
Average Time:        0.02310
OMP_NUM_THREADS	128
Read Time:           0.16874
Graph has 513969 nodes and 6380904 directed edges for degree: 12
Source:               102732
    i                0.00175
   td          1     0.00051
   td         11     0.00047
   td       2068     0.00040
    e                0.00021
   bu      67066     0.05087
   bu     226999     0.03951
   bu     156787     0.04074
   bu      49312     0.00385
   bu       9909     0.00856
    c                0.00295
   td       1511     0.00430
   td        234     0.00339
   td         36     0.00018
   td          4     0.00020
   td          0     0.00018
Trial Time:          0.15840
Source:               449938
    i                0.00028
   td          1     0.00017
   td          7     0.00018
   td         91     0.00018
   td       6534     0.00032
    e                0.00015
   bu     112951     0.00456
   bu     233959     0.00323
   bu     121362     0.00440
   bu      32116     0.02443
   bu       5755     0.00407
    c                0.00022
   td       1013     0.00479
   td        149     0.00022
   td         28     0.00024
   td          1     0.00016
   td          0     0.00018
Trial Time:          0.04809
Source:                 8953
    i                0.00027
   td          2     0.00018
   td          8     0.00021
   td       3439     0.00024
    e                0.00016
   bu      63485     0.01368
   bu     221709     0.00661
   bu     162412     0.00493
   bu      50927     0.01786
   bu       9971     0.00299
    c                0.00021
   td       1660     0.00352
   td        247     0.00341
   td         58     0.00015
   td          5     0.00017
   td          0     0.00018
Trial Time:          0.05504
Source:               139166
    i                0.00023
   td          1     0.00014
   td        445     0.00017
   td      23108     0.00131
    e                0.00023
   bu     154080     0.01886
   bu     216434     0.00498
   bu      93195     0.00274
   bu      22197     0.00309
    c                0.00047
   td       3721     0.00589
   td        608     0.00372
   td        106     0.00127
   td         12     0.00009
   td          0     0.00011
Trial Time:          0.04359
Source:               142426
    i                0.00016
   td         19     0.00011
   td        707     0.00010
   td      35325     0.00129
    e                0.00029
   bu     202104     0.00345
   bu     194599     0.00319
   bu      65695     0.00286
   bu      12908     0.00222
    c                0.00012
   td       2151     0.00209
   td        383     0.00187
   td         52     0.00010
   td          7     0.00011
   td          0     0.00009
Trial Time:          0.01828
Source:               210170
    i                0.00018
   td          1     0.00011
   td         38     0.00010
   td       5475     0.00019
    e                0.00007
   bu     109248     0.00316
   bu     241266     0.00317
   bu     120726     0.00304
   bu      30781     0.00274
   bu       5355     0.01284
    c                0.00012
   td        916     0.00477
   td        146     0.00016
   td         14     0.00011
   td          2     0.00012
   td          0     0.00011
Trial Time:          0.03123
Source:               476579
    i                0.00018
   td          1     0.00010
   td          1     0.00011
   td          1     0.00008
   td         12     0.00010
   td       6630     0.00022
    e                0.00006
   bu      80630     0.02521
   bu     230463     0.00303
   bu     144202     0.00280
   bu      42545     0.00319
   bu       7895     0.00441
    c                0.00016
   td       1363     0.00374
   td        189     0.00436
   td         14     0.00011
   td          2     0.00010
   td          0     0.00009
Trial Time:          0.04830
Source:               122537
    i                0.00017
   td          1     0.00011
   td         14     0.00010
   td        171     0.00010
   td      17925     0.00056
    e                0.00013
   bu     166541     0.00266
   bu     216542     0.00280
   bu      87955     0.00331
   bu      20744     0.00376
    c                0.00016
   td       3332     0.00310
   td        614     0.00360
   td         91     0.00011
   td         11     0.00009
   td          0     0.00013
Trial Time:          0.02121
Source:               264910
    i                0.00018
   td          2     0.00010
   td         50     0.00012
   td       8555     0.00028
    e                0.00009
   bu     128824     0.00357
   bu     234792     0.00371
   bu     108215     0.00390
   bu      27909     0.00355
    c                0.00015
   td       4696     0.00418
   td        787     0.00212
   td        122     0.00017
   td         11     0.00010
   td          0     0.00010
Trial Time:          0.02256
Source:               437297
    i                0.00015
   td          1     0.00010
   td          7     0.00010
   td         19     0.00011
   td       2273     0.00010
    e                0.00005
   bu      77179     0.00562
   bu     240841     0.00246
   bu     143492     0.00321
   bu      40816     0.00330
   bu       7810     0.00243
    c                0.00013
   td       1287     0.00192
   td        222     0.00210
   td         19     0.00009
   td          2     0.00009
   td          0     0.00009
Trial Time:          0.02228
Source:                90343
    i                0.00013
   td          1     0.00010
   td        318     0.00010
   td      24934     0.00080
    e                0.00023
   bu     189302     0.00258
   bu     208582     0.00328
   bu      73015     0.00212
   bu      15031     0.00279
    c                0.00014
   td       2331     0.00361
   td        406     0.00310
   td         38     0.00010
   td          4     0.00010
   td          0     0.00009
Trial Time:          0.01958
Source:                57297
    i                0.00016
   td          9     0.00010
   td       3391     0.00011
    e                0.00005
   bu      93514     0.00318
   bu     236863     0.00340
   bu     134140     0.00323
   bu      37718     0.00517
   bu       6939     0.00305
    c                0.00013
   td       1145     0.00173
   td        211     0.00285
   td         21     0.00010
   td          0     0.00009
Trial Time:          0.02361
Source:               473110
    i                0.00016
   td          1     0.00008
   td          4     0.00009
   td         77     0.00008
   td      15331     0.00042
    e                0.00011
   bu     155005     0.00213
   bu     219369     0.02177
   bu      95593     0.00216
   bu      23770     0.00319
    c                0.00014
   td       4024     0.00303
   td        653     0.00301
   td        107     0.00012
   td         12     0.00009
   td          0     0.00008
Trial Time:          0.03689
Source:               416546
    i                0.00017
   td          1     0.00009
   td          4     0.00008
   td         33     0.00009
   td       1853     0.00012
   td      70092     0.00679
   td     240375     0.00385
   td     152822     0.00352
   td      40474     0.00230
   td       6922     0.00166
   td       1155     0.00171
   td        215     0.00135
   td         19     0.00008
   td          3     0.00008
   td          0     0.00008
Trial Time:          0.02218
Source:                50572
    i                0.00015
   td          7     0.00008
   td        352     0.00008
   td      33479     0.00089
    e                0.00022
   bu     205690     0.00250
   bu     195025     0.00321
   bu      64438     0.00404
   bu      12526     0.00213
    c                0.00012
   td       2036     0.00174
   td        358     0.00128
   td         51     0.00008
   td          6     0.00006
   td          0     0.00005
Trial Time:          0.01673
Source:               409497
    i                0.00013
   td          1     0.00008
   td         18     0.00008
   td       2455     0.00012
    e                0.00005
   bu      74108     0.00332
   bu     225315     0.00173
   bu     152428     0.00290
   bu      48436     0.00280
   bu       9422     0.00405
    c                0.00012
   td       1492     0.00189
   td        237     0.00364
   td         50     0.00008
   td          6     0.00009
   td          0     0.00008
Trial Time:          0.02146
Average Time:        0.03809
